Class,FanIn,FanOut,Total Dependences
org.apache.catalina.connector.Request,95,89,184
org.eclipse.jdt.internal.compiler.lookup.Scope,59,48,107
org.eclipse.jdt.internal.compiler.util.Util,40,37,77
org.eclipse.jdt.internal.compiler.problem.ProblemReporter,111,79,190
org.apache.tomcat.util.digester.Digester,62,44,106
