Package,CA,CE,RMI,RMA,RMD
org.apache.tomcat.util.modeler,28.0,3.0,0.0967741935483871,0.07692307692307693,0.24125874125874125
org.apache.catalina.mbeans,5.0,49.0,0.9074074074074074,0.0,0.06172839506172845
org.apache.tomcat.util.descriptor.web,23.0,28.0,0.5490196078431373,0.03508771929824561,0.23872180451127822
org.apache.tomcat.util.bcel.classfile,2.0,2.0,0.5,0.12727272727272726,0.047272727272727355
javax.servlet.jsp.tagext,30.0,1.0,0.03225806451612903,0.5384615384615384,0.19324577861163228
org.apache.naming,12.0,2.0,0.14285714285714285,0.0,0.2222222222222222
org.apache.catalina,190.0,0.0,0.0,0.8297872340425532,0.10617335709045173
org.apache.catalina.valves,9.0,45.0,0.8333333333333334,0.04819277108433735,0.03514056224899598
org.apache.catalina.connector,87.0,77.0,0.4695121951219512,0.018867924528301886,0.3783923494443009
org.apache.tomcat.util,98.0,3.0,0.0297029702970297,0.25,0.4305555555555556
javax.servlet,134.0,5.0,0.03597122302158273,0.6590909090909091,0.1732072275550537
org.apache.catalina.util,65.0,20.0,0.23529411764705882,0.06451612903225806,0.374673060156931
org.apache.tomcat.util.res,224.0,0.0,0.0,0.0,0.9531914893617022
org.apache.juli.logging,338.0,0.0,0.0,0.25,0.7212643678160919
org.apache.el.parser,3.0,22.0,0.88,0.11290322580645161,0.06942496493688632
org.eclipse.jdt.internal.compiler.flow,49.0,24.0,0.3287671232876712,0.14285714285714285,0.4853479853479854
org.eclipse.jdt.internal.compiler.ast,51.0,86.0,0.6277372262773723,0.13793103448275862,0.19323779668607255
org.apache.tomcat.util.digester,62.0,5.0,0.07462686567164178,0.35294117647058826,0.26092020966802565
org.apache.catalina.realm,7.0,36.0,0.8372093023255814,0.09090909090909091,0.030039525691699653
org.apache.catalina.webresources,2.0,17.0,0.8947368421052632,0.17857142857142858,0.14915966386554613
org.eclipse.jdt.internal.compiler,118.0,72.0,0.37894736842105264,0.1935483870967742,0.3502304147465438
org.eclipse.jdt.internal.compiler.parser,13.0,110.0,0.8943089430894309,0.19230769230769232,0.10678137651821862
org.apache.catalina.core,27.0,181.0,0.8701923076923077,0.014492753623188406,0.06909857764616145
org.apache.tomcat.util.http.fileupload,7.0,5.0,0.4166666666666667,0.3611111111111111,0.17690058479532156
org.apache.tomcat.dbcp.pool2.impl,9.0,11.0,0.55,0.21212121212121213,0.09523809523809512
org.apache.catalina.filters,0.0,21.0,1.0,0.0625,0.0625
org.apache.coyote,72.0,19.0,0.2087912087912088,0.4166666666666667,0.18837535014005602
org.apache.tomcat.util.http,29.0,10.0,0.2564102564102564,0.0,0.42028985507246375
org.apache.catalina.mapper,6.0,20.0,0.7692307692307693,0.1,0.08181818181818179
org.apache.tomcat.dbcp.dbcp2.datasources,0.0,12.0,1.0,0.25,0.25
org.apache.jasper.compiler,20.0,70.0,0.7777777777777778,0.046357615894039736,0.05620648667006278
org.apache.catalina.startup,5.0,88.0,0.946236559139785,0.021739130434782608,0.007672634271099765
org.apache.juli,2.0,0.0,0.0,0.0,0.032786885245901676
org.eclipse.jdt.internal.compiler.apt.dispatch,17.0,34.0,0.6666666666666666,0.1875,0.010416666666666519
org.eclipse.jdt.internal.compiler.batch,10.0,32.0,0.7619047619047619,0.15789473684210525,0.048004626951995366
org.eclipse.jdt.internal.compiler.classfmt,10.0,21.0,0.6774193548387096,0.14285714285714285,0.0494505494505495
org.eclipse.jdt.internal.compiler.env,34.0,1.0,0.02857142857142857,0.7272727272727273,0.16746411483253587
org.eclipse.jdt.core.compiler,126.0,1.0,0.007874015748031496,0.6,0.34029850746268664
org.eclipse.jdt.internal.compiler.lookup,140.0,54.0,0.27835051546391754,0.1794871794871795,0.47167561121049495
org.eclipse.jdt.internal.compiler.problem,121.0,73.0,0.37628865979381443,0.1,0.47619047619047616
org.eclipse.jdt.internal.compiler.util,59.0,10.0,0.14492753623188406,0.07692307692307693,0.4498626373626373
javax.websocket,37.0,0.0,0.0,0.7333333333333333,0.007843137254901933
org.apache.tomcat.util.net,52.0,25.0,0.3246753246753247,0.21052631578947367,0.15567086730911783
org.apache.coyote.ajp,0.0,39.0,1.0,0.1875,0.1875
org.apache.catalina.valves.rewrite,0.0,24.0,1.0,0.2,0.19999999999999996
org.apache.catalina.loader,4.0,18.0,0.8181818181818182,0.0,0.045454545454545414
org.apache.tomcat.jdbc.pool,9.0,5.0,0.35714285714285715,0.1111111111111111,0.01736111111111116
org.apache.catalina.session,7.0,32.0,0.8205128205128205,0.14285714285714285,0.0714285714285714
org.apache.catalina.ha.session,4.0,36.0,0.9,0.16666666666666666,0.11728395061728403
org.apache.catalina.ha,21.0,10.0,0.3225806451612903,0.8888888888888888,0.2525252525252526
org.apache.catalina.tribes.io,31.0,6.0,0.16216216216216217,0.2222222222222222,0.2621527777777778
org.apache.tomcat.jdbc.pool.interceptor,1.0,9.0,0.9,0.1875,0.16931818181818192
org.apache.catalina.manager.util,12.0,3.0,0.2,0.3333333333333333,0.11111111111111116
org.apache.catalina.tribes.group,17.0,29.0,0.6304347826086957,0.17647058823529413,0.08506787330316734
org.apache.catalina.tribes.group.interceptors,3.0,25.0,0.8928571428571429,0.0,0.050000000000000044
org.apache.coyote.http11,10.0,64.0,0.8648648648648649,0.2222222222222222,0.1329365079365079
org.apache.tomcat.util.buf,79.0,3.0,0.036585365853658534,0.17391304347826086,0.5190694126620901
org.apache.tomcat.util.threads,4.0,3.0,0.42857142857142855,0.09090909090909091,0.06293706293706292
org.apache.tomcat.websocket.server,0.0,49.0,1.0,0.034482758620689655,0.034482758620689724
javax.el,57.0,0.0,0.0,0.23214285714285715,0.2131696428571428
org.apache.jasper.el,5.0,27.0,0.84375,0.0,0.10869565217391308
org.apache.naming.factory,1.0,5.0,0.8333333333333334,0.0,0.01851851851851849
javax.servlet.annotation,8.0,0.0,0.0,0.8181818181818182,0.24675324675324672
org.apache.jasper.util,9.0,1.0,0.1,0.0,0.4285714285714286
org.apache.catalina.ssi,0.0,22.0,1.0,0.14285714285714285,0.1428571428571428
org.eclipse.jdt.internal.compiler.impl,66.0,5.0,0.07042253521126761,0.2,0.6048780487804878
org.apache.el.lang,18.0,19.0,0.5135135135135135,0.06666666666666667,0.18685446009389672
org.apache.jasper,30.0,20.0,0.4,0.16666666666666666,0.13036303630363044
javax.websocket.server,9.0,2.0,0.18181818181818182,0.6666666666666666,0.21666666666666679
javax.servlet.descriptor,5.0,0.0,0.0,1.0,0.0
org.apache.tomcat.dbcp.dbcp2,7.0,15.0,0.6818181818181818,0.06896551724137931,0.016400336417157213
org.apache.tomcat.dbcp.pool2,24.0,0.0,0.0,0.4583333333333333,0.08712121212121215
javax.servlet.http,94.0,8.0,0.0784313725490196,0.5416666666666666,0.18141025641025643
org.apache.jasper.runtime,5.0,44.0,0.8979591836734694,0.07692307692307693,0.02429149797570851
javax.servlet.jsp.el,9.0,10.0,0.5263157894736842,0.22727272727272727,0.03743315508021383
org.apache.jasper.security,5.0,2.0,0.2857142857142857,0.0,0.4545454545454546
org.eclipse.jdt.internal.compiler.codegen,64.0,25.0,0.2808988764044944,0.13043478260869565,0.4733388022969647
org.apache.tomcat,20.0,0.0,0.0,0.8571428571428571,0.09523809523809534
org.apache.coyote.spdy,0.0,32.0,1.0,0.0,0.0
org.apache.tomcat.spdy,8.0,5.0,0.38461538461538464,0.22727272727272727,0.06060606060606055
org.apache.catalina.servlets,0.0,27.0,1.0,0.0,0.0
org.apache.catalina.ha.backend,0.0,6.0,1.0,0.16666666666666666,0.16666666666666674
org.apache.tomcat.util.codec,1.0,0.0,0.0,0.6666666666666666,0.16666666666666652
org.apache.tomcat.websocket,13.0,47.0,0.7833333333333333,0.10714285714285714,0.012939958592132594
org.apache.tomcat.util.log,10.0,1.0,0.09090909090909091,0.0,0.5555555555555556
org.apache.catalina.storeconfig,0.0,52.0,1.0,0.05714285714285714,0.05714285714285716
org.apache.coyote.http11.upgrade,3.0,20.0,0.8695652173913043,0.23076923076923078,0.15182186234817818
javax.servlet.jsp,31.0,2.0,0.06060606060606061,0.6666666666666666,0.19444444444444442
org.apache.tomcat.util.scan,15.0,9.0,0.375,0.09090909090909091,0.22823984526112184
org.apache.catalina.tribes,52.0,1.0,0.018867924528301886,0.7368421052631579,0.10186757215619702
org.apache.coyote.http11.filters,5.0,12.0,0.7058823529411765,0.0,0.21739130434782605
org.apache.tomcat.util.descriptor.tld,8.0,10.0,0.5555555555555556,0.0625,0.16607142857142854
org.apache.catalina.manager,0.0,38.0,1.0,0.0,0.0
org.apache.jasper.compiler.tagplugin,16.0,0.0,0.0,1.0,0.0
org.apache.jasper.tagplugins.jstl.core,0.0,4.0,1.0,0.0,0.0
org.apache.tomcat.jni.socket,5.0,11.0,0.6875,0.38461538461538464,0.2865761689291102
javax.ejb,1.0,0.0,0.0,1.0,0.75
org.apache.tomcat.util.collections,8.0,0.0,0.0,0.0,0.36363636363636365
org.eclipse.jdt.internal.compiler.tool,0.0,23.0,1.0,0.0,0.0
org.apache.tomcat.util.http.fileupload.util.mime,1.0,1.0,0.5,0.25,0.16666666666666652
org.apache.tomcat.util.http.parser,3.0,1.0,0.25,0.0,0.1875
org.apache.catalina.authenticator,2.0,39.0,0.9512195121951219,0.058823529411764705,0.030654515327257714
org.apache.tomcat.util.codec.binary,7.0,5.0,0.4166666666666667,0.25,0.030000000000000027
javax.annotation,2.0,0.0,0.0,0.875,0.5416666666666665
org.apache.tomcat.jni,18.0,0.0,0.0,0.11764705882352941,0.5490196078431373
org.eclipse.jdt.internal.compiler.apt.model,4.0,30.0,0.8823529411764706,0.08333333333333333,0.0444983818770226
org.apache.catalina.ant,1.0,3.0,0.75,0.16666666666666666,0.13440860215053774
org.apache.el.util,17.0,2.0,0.10526315789473684,0.0,0.34693877551020413
org.apache.catalina.deploy,9.0,25.0,0.7352941176470589,0.0,0.18367346938775508
org.apache.catalina.comet,9.0,2.0,0.18181818181818182,0.6666666666666666,0.08333333333333337
org.apache.catalina.security,15.0,11.0,0.4230769230769231,0.0,0.3125
org.apache.tomcat.websocket.pojo,4.0,31.0,0.8857142857142857,0.29411764705882354,0.2306255835667601
javax.xml.ws,1.0,0.0,0.0,1.0,0.75
org.eclipse.jdt.core,1.0,4.0,0.8,0.0,0.024390243902439046
org.eclipse.jdt.internal.antadapter,3.0,0.0,0.0,0.0,0.33333333333333337
org.apache.catalina.ha.deploy,0.0,15.0,1.0,0.1111111111111111,0.11111111111111116
org.apache.catalina.tribes.membership,8.0,14.0,0.6363636363636364,0.0,0.13793103448275867
org.apache.catalina.tribes.util,23.0,7.0,0.23333333333333334,0.0,0.39655172413793105
org.apache.catalina.ha.context,0.0,10.0,1.0,0.0,0.0
org.apache.tomcat.util.bcel,2.0,0.0,0.0,1.0,0.0
org.apache.catalina.ant.jmx,0.0,1.0,1.0,0.0,0.0
javax.annotation.security,1.0,0.0,0.0,1.0,0.75
org.apache.tomcat.util.net.jsse,3.0,9.0,0.75,0.0,0.051724137931034475
org.apache.catalina.tribes.transport,14.0,11.0,0.44,0.5384615384615384,0.2202797202797202
org.apache.catalina.tribes.transport.nio,2.0,20.0,0.9090909090909091,0.0,0.03508771929824561
org.apache.jasper.servlet,5.0,47.0,0.9038461538461539,0.0,0.05154639175257736
org.apache.tomcat.util.http.fileupload.servlet,1.0,4.0,0.8,0.3333333333333333,0.19047619047619047
org.apache.tomcat.util.bcel.util,6.0,0.0,0.0,1.0,0.0
org.apache.tomcat.jdbc.pool.jmx,4.0,5.0,0.5555555555555556,0.5,0.30000000000000004
org.apache.catalina.tribes.transport.bio,0.0,18.0,1.0,0.0,0.0
org.eclipse.jdt.internal.compiler.parser.diagnose,1.0,11.0,0.9166666666666666,0.0,0.0625
org.apache.jasper.tagplugins.jstl,5.0,5.0,0.5,0.0,0.2941176470588235
org.apache.catalina.tribes.tipis,3.0,14.0,0.8235294117647058,0.42857142857142855,0.3452380952380951
org.apache.commons.daemon,4.0,0.0,0.0,0.7142857142857143,0.4065934065934065
org.apache.commons.daemon.support,0.0,4.0,1.0,0.0,0.0
org.apache.el,2.0,14.0,0.875,0.0,0.08695652173913049
org.apache.tomcat.util.modeler.modules,1.0,8.0,0.8888888888888888,0.3333333333333333,0.3047619047619048
org.apache.tomcat.dbcp.dbcp2.cpdsadapter,0.0,10.0,1.0,0.0,0.0
org.apache.jasper.xmlparser,1.0,5.0,0.8333333333333334,0.0,0.050000000000000044
org.apache.el.stream,2.0,7.0,0.7777777777777778,0.07142857142857142,0.002645502645502673
org.apache.tomcat.util.http.fileupload.util,7.0,2.0,0.2222222222222222,0.6,0.28181818181818175
javax.persistence,1.0,0.0,0.0,0.8333333333333334,0.6333333333333333
org.apache.catalina.tribes.transport.bio.util,2.0,4.0,0.6666666666666666,0.0,0.2222222222222222
org.apache.tomcat.util.http.fileupload.disk,2.0,7.0,0.7777777777777778,0.3333333333333333,0.2533333333333334
org.apache.catalina.users,0.0,10.0,1.0,0.25,0.25
org.apache.tomcat.util.descriptor,6.0,4.0,0.4,0.0,0.2142857142857143
org.eclipse.jdt.internal.compiler.apt.util,3.0,9.0,0.75,0.0,0.049180327868852514
org.apache.tomcat.util.descriptor.tagplugin,1.0,6.0,0.8571428571428571,0.0,0.06666666666666665
org.apache.catalina.ha.tcp,2.0,37.0,0.9487179487179487,0.0,0.0357142857142857
org.apache.catalina.manager.host,0.0,20.0,1.0,0.0,0.0
org.apache.tomcat.jdbc.naming,0.0,2.0,1.0,0.0,0.0
javax.annotation.sql,0.0,0.0,0.0,1.0,1.0
org.apache.naming.java,0.0,3.0,1.0,0.0,0.0
org.apache.catalina.ha.authenticator,0.0,15.0,1.0,0.0,0.0
org.apache.tomcat.util.file,1.0,3.0,0.75,0.0,0.09999999999999998
org.eclipse.jdt.core.compiler.batch,0.0,1.0,1.0,0.0,0.0
