IdCycle,CycleType,ElementList
4886,clique,"org.apache.jasper.servlet,org.apache.jasper,org.apache.jasper.compiler,org.apache.jasper.servlet"
4975,chain,"org.apache.catalina.startup,org.apache.catalina.security,org.apache.catalina.authenticator"
4976,chain,"org.apache.catalina.ha.jmx,org.apache.catalina.ha.tcp,org.apache.catalina.ha.session"
4977,chain,"org.apache.el.lang,org.apache.el.parser,org.apache.el"
4978,chain,"org.apache.jasper.xmlparser,org.apache.jasper.compiler,org.apache.jasper.servlet,org.apache.jasper"
4979,chain,"org.eclipse.jdt.internal.compiler.problem,org.eclipse.jdt.internal.compiler.util,org.eclipse.jdt.internal.compiler.batch,org.eclipse.jdt.internal.compiler.lookup"
4980,chain,"org.apache.catalina.tribes.group,org.apache.catalina.tribes.group.interceptors,org.apache.catalina.tribes,org.apache.catalina.tribes.util"
4981,chain,"org.eclipse.jdt.internal.compiler.codegen,org.eclipse.jdt.internal.compiler.flow,org.eclipse.jdt.internal.compiler.ast"
4982,star,"org.eclipse.jdt.internal.compiler,org.eclipse.jdt.internal.compiler.parser,org.eclipse.jdt.internal.compiler.parser.diagnose,org.eclipse.jdt.core.compiler"
4983,chain,"org.apache.tomcat.jdbc.pool.interceptor,org.apache.tomcat.jdbc.pool.jmx,org.apache.tomcat.jdbc.pool"
