IdCycle,CycleType,ElementList
4488,clique,"org.apache.jasper.servlet,org.apache.jasper,org.apache.jasper.compiler,org.apache.jasper.servlet"
4583,chain,"org.apache.catalina.core,org.apache.catalina,org.apache.catalina.valves"
4584,chain,"org.eclipse.jdt.internal.compiler.lookup,org.eclipse.jdt.internal.compiler.batch,org.eclipse.jdt.internal.compiler.util"
4585,chain,"org.apache.jasper.servlet,org.apache.jasper.xmlparser,org.apache.jasper,org.apache.jasper.compiler"
4586,chain,"org.apache.catalina.tribes.util,org.apache.catalina.tribes.group,org.apache.catalina.tribes.group.interceptors,org.apache.catalina.tribes"
4587,star,"org.eclipse.jdt.internal.compiler.impl,org.eclipse.jdt.internal.compiler.lookup,org.eclipse.jdt.internal.compiler.codegen,org.eclipse.jdt.internal.compiler.util"
4588,chain,"org.eclipse.jdt.internal.compiler.ast,org.eclipse.jdt.internal.compiler.problem,org.eclipse.jdt.internal.compiler.flow"
4589,chain,"org.apache.el.lang,org.apache.el.parser,org.apache.el.util"
4590,star,"org.eclipse.jdt.core.compiler,org.eclipse.jdt.internal.compiler.parser.diagnose,org.eclipse.jdt.internal.compiler,org.eclipse.jdt.internal.compiler.parser"
