Package,CA,CE,RMI,RMA,RMD
org.apache.tomcat.util.modeler,28.0,3.0,0.0967741935483871,0.07692307692307693,0.24125874125874125
org.apache.catalina.mbeans,5.0,49.0,0.9074074074074074,0.0,0.06172839506172845
org.apache.tomcat.util.descriptor.web,23.0,28.0,0.5490196078431373,0.05263157894736842,0.2179566563467492
javax.servlet.jsp.tagext,30.0,1.0,0.03225806451612903,0.5384615384615384,0.19324577861163228
org.apache.catalina,204.0,1.0,0.004878048780487805,0.8541666666666666,0.08592549923195092
org.apache.catalina.valves,10.0,37.0,0.7872340425531915,0.04938271604938271,0.050617283950617264
org.apache.catalina.connector,86.0,86.0,0.5,0.018867924528301886,0.34708952228020873
org.apache.tomcat.util,98.0,3.0,0.0297029702970297,0.25,0.4212328767123288
org.apache.coyote,58.0,23.0,0.2839506172839506,0.3793103448275862,0.1122150789012274
org.apache.catalina.util,62.0,19.0,0.2345679012345679,0.11538461538461539,0.2898441427853192
org.apache.tomcat.util.res,305.0,0.0,0.0,0.0,0.9591194968553459
org.apache.juli.logging,385.0,0.0,0.0,0.25,0.7149122807017544
org.apache.el.parser,3.0,22.0,0.88,0.11290322580645161,0.07004608294930881
org.apache.catalina.webresources,2.0,18.0,0.9,0.22580645161290322,0.19763743752839624
org.apache.catalina.core,25.0,194.0,0.8858447488584474,0.013888888888888888,0.05985742379547698
javax.servlet,133.0,5.0,0.036231884057971016,0.6590909090909091,0.17215909090909087
org.apache.tomcat.util.http.fileupload,7.0,5.0,0.4166666666666667,0.3611111111111111,0.18611111111111112
org.apache.coyote.http2,0.0,29.0,1.0,0.16326530612244897,0.16326530612244894
org.apache.tomcat.dbcp.pool2.impl,10.0,12.0,0.5454545454545454,0.19444444444444445,0.07098765432098775
org.apache.tomcat.util.security,16.0,0.0,0.0,0.2,0.41538461538461535
org.apache.catalina.mapper,6.0,20.0,0.7692307692307693,0.09090909090909091,0.06293706293706292
org.eclipse.jdt.internal.compiler.apt.dispatch,19.0,37.0,0.6607142857142857,0.1875,6.188118811880639E-4
org.eclipse.jdt.internal.compiler.batch,12.0,36.0,0.75,0.15,0.033495145631067924
org.eclipse.jdt.internal.compiler.classfmt,13.0,25.0,0.6578947368421053,0.1875,0.0017857142857142794
org.eclipse.jdt.core.compiler,146.0,1.0,0.006802721088435374,0.6,0.34805194805194806
org.eclipse.jdt.internal.compiler.lookup,164.0,70.0,0.29914529914529914,0.14912280701754385,0.4768313914557386
org.eclipse.jdt.internal.compiler.env,46.0,1.0,0.02127659574468085,0.72,0.20000000000000007
javax.websocket,43.0,0.0,0.0,0.7333333333333333,0.021052631578947434
org.apache.tomcat.jdbc.pool,11.0,5.0,0.3125,0.1,0.007843137254901933
org.apache.catalina.realm,8.0,41.0,0.8367346938775511,0.1111111111111111,0.05437352245862881
org.apache.jasper.compiler,20.0,72.0,0.782608695652174,0.04697986577181208,0.054542976867781756
org.apache.tomcat.jdbc.pool.interceptor,1.0,9.0,0.9,0.14285714285714285,0.12646370023419196
org.apache.tomcat.util.net,53.0,32.0,0.3764705882352941,0.16494845360824742,0.1414099278946428
org.apache.catalina.manager.util,11.0,3.0,0.21428571428571427,0.5,0.07692307692307687
org.apache.catalina.tribes.group,16.0,31.0,0.6595744680851063,0.17647058823529413,0.0623353819139596
org.apache.catalina.tribes.group.interceptors,3.0,26.0,0.896551724137931,0.0,0.04761904761904767
org.apache.catalina.tribes,58.0,1.0,0.01694915254237288,0.7368421052631579,0.11609907120743035
org.apache.catalina.tribes.io,32.0,7.0,0.1794871794871795,0.2222222222222222,0.2553897180762853
org.apache.catalina.tribes.util,52.0,7.0,0.11864406779661017,0.0,0.5473684210526315
org.apache.tomcat.util.threads,4.0,4.0,0.5,0.08333333333333333,0.07051282051282048
org.apache.jasper.util,2.0,1.0,0.3333333333333333,0.0,0.19999999999999996
org.apache.catalina.ssi,0.0,22.0,1.0,0.14285714285714285,0.1428571428571428
org.apache.el.lang,18.0,20.0,0.5263157894736842,0.0625,0.1807432432432432
org.apache.naming,13.0,2.0,0.13333333333333333,0.0,0.22413793103448276
javax.websocket.server,9.0,2.0,0.18181818181818182,0.6666666666666666,0.21666666666666679
javax.servlet.descriptor,5.0,0.0,0.0,1.0,0.0
org.apache.tomcat.dbcp.dbcp2,6.0,15.0,0.7142857142857143,0.12121212121212122,0.05379639087504251
org.apache.tomcat.dbcp.pool2,25.0,0.0,0.0,0.48,0.0634782608695652
org.eclipse.jdt.internal.compiler.util,73.0,11.0,0.13095238095238096,0.07407407407407407,0.491817398794143
javax.el,57.0,0.0,0.0,0.22807017543859648,0.2070443283781973
org.apache.jasper.runtime,10.0,44.0,0.8148148148148148,0.10810810810810811,0.012870012870012992
javax.servlet.jsp.el,9.0,12.0,0.5714285714285714,0.22727272727272727,0.009569377990430561
org.eclipse.jdt.internal.compiler.codegen,67.0,29.0,0.3020833333333333,0.15384615384615385,0.4139504563233376
org.apache.tomcat,39.0,0.0,0.0,0.7272727272727273,0.12055335968379444
org.eclipse.jdt.internal.compiler.impl,69.0,5.0,0.06756756756756757,0.2,0.593103448275862
org.eclipse.jdt.internal.compiler,131.0,77.0,0.3701923076923077,0.18181818181818182,0.37092443421557353
org.eclipse.jdt.internal.compiler.problem,135.0,82.0,0.3778801843317972,0.1,0.4769230769230769
org.eclipse.jdt.internal.compiler.parser,15.0,115.0,0.8846153846153846,0.1935483870967742,0.09979838709677424
org.eclipse.jdt.internal.compiler.ast,65.0,102.0,0.6107784431137725,0.13513513513513514,0.1948141034435451
org.apache.tomcat.util.buf,102.0,3.0,0.02857142857142857,0.14814814814814814,0.5410410410410411
javax.servlet.http,103.0,9.0,0.08035714285714286,0.5416666666666666,0.19934052757793763
org.apache.tomcat.util.collections,18.0,1.0,0.05263157894736842,0.0,0.4864864864864865
org.apache.catalina.servlets,0.0,34.0,1.0,0.0,0.0
org.apache.tomcat.util.http,38.0,11.0,0.22448979591836735,0.0625,0.39533132530120485
org.apache.tomcat.util.digester,67.0,6.0,0.0821917808219178,0.42105263157894735,0.199317738791423
org.apache.catalina.startup,6.0,93.0,0.9393939393939394,0.02,0.01314917127071824
org.apache.catalina.ha.backend,0.0,6.0,1.0,0.16666666666666666,0.16666666666666674
org.apache.catalina.loader,4.0,21.0,0.84,0.1111111111111111,0.06513409961685812
org.eclipse.jdt.internal.compiler.flow,52.0,26.0,0.3333333333333333,0.13333333333333333,0.4784313725490196
org.apache.tomcat.util.log,12.0,1.0,0.07692307692307693,0.0,0.6
org.apache.tomcat.util.codec,1.0,0.0,0.0,0.6666666666666666,0.16666666666666652
org.apache.tomcat.websocket,12.0,51.0,0.8095238095238095,0.1111111111111111,0.03164091243561451
javax.servlet.jsp,31.0,2.0,0.06060606060606061,0.6666666666666666,0.19444444444444442
org.apache.tomcat.util.scan,7.0,12.0,0.631578947368421,0.09090909090909091,0.049090909090909074
org.apache.catalina.servlet4preview.http,8.0,6.0,0.42857142857142855,0.6666666666666666,0.16666666666666652
org.apache.tomcat.util.net.openssl,3.0,22.0,0.88,0.0,0.042857142857142816
org.apache.jasper,30.0,20.0,0.4,0.16666666666666666,0.13036303630363044
org.apache.tomcat.jni,13.0,0.0,0.0,0.16666666666666666,0.375
org.apache.tomcat.util.codec.binary,10.0,5.0,0.3333333333333333,0.25,0.12037037037037035
javax.annotation,2.0,0.0,0.0,0.875,0.5416666666666665
org.eclipse.jdt.internal.compiler.apt.model,4.0,32.0,0.8888888888888888,0.08,0.04396396396396396
org.apache.catalina.ant,1.0,3.0,0.75,0.14285714285714285,0.11255411255411252
org.apache.el.util,17.0,2.0,0.10526315789473684,0.0,0.33999999999999997
org.apache.catalina.deploy,9.0,25.0,0.7352941176470589,0.0,0.18367346938775508
org.apache.catalina.storeconfig,0.0,60.0,1.0,0.05405405405405406,0.054054054054053946
javax.security.auth.message,8.0,0.0,0.0,0.5555555555555556,0.24444444444444446
javax.security.auth.message.config,6.0,2.0,0.25,0.8181818181818182,0.5454545454545454
org.apache.catalina.security,15.0,13.0,0.4642857142857143,0.0,0.2941176470588235
org.apache.tomcat.util.descriptor.tld,9.0,13.0,0.5909090909090909,0.058823529411764705,0.16068866571018647
org.apache.tomcat.websocket.server,0.0,55.0,1.0,0.04,0.040000000000000036
org.apache.tomcat.websocket.pojo,4.0,31.0,0.8857142857142857,0.29411764705882354,0.2316176470588236
javax.xml.ws,1.0,0.0,0.0,1.0,0.75
org.apache.tomcat.util.bcel.classfile,2.0,1.0,0.3333333333333333,0.09523809523809523,0.022408963585434205
org.apache.tomcat.util.http.parser,7.0,9.0,0.5625,0.0,0.21875
org.apache.catalina.ha.context,0.0,11.0,1.0,0.0,0.0
org.eclipse.jdt.internal.compiler.tool,0.0,27.0,1.0,0.0,0.0
org.apache.catalina.valves.rewrite,0.0,28.0,1.0,0.2,0.19999999999999996
org.apache.juli,3.0,0.0,0.0,0.045454545454545456,0.0029325513196480912
javax.annotation.security,1.0,0.0,0.0,1.0,0.75
org.apache.tomcat.util.net.jsse,6.0,13.0,0.6842105263157895,0.0,0.08571428571428574
org.apache.naming.factory,1.0,6.0,0.8571428571428571,0.0625,0.0463709677419355
org.apache.catalina.ha.session,3.0,36.0,0.9230769230769231,0.2727272727272727,0.23522727272727284
org.apache.catalina.authenticator,4.0,49.0,0.9245283018867925,0.043478260869565216,9.661835748792091E-4
org.apache.catalina.tribes.transport,14.0,12.0,0.46153846153846156,0.5384615384615384,0.23411371237458178
org.apache.catalina.tribes.transport.nio,2.0,22.0,0.9166666666666666,0.0,0.03389830508474578
org.apache.jasper.servlet,5.0,47.0,0.9038461538461539,0.0,0.05154639175257736
org.apache.coyote.http11,10.0,49.0,0.8305084745762712,0.21052631578947367,0.09424724602203183
org.apache.coyote.http11.filters,2.0,14.0,0.875,0.0,0.07407407407407407
org.apache.tomcat.util.http.fileupload.util.mime,1.0,1.0,0.5,0.25,0.16666666666666652
org.apache.jasper.el,4.0,27.0,0.8709677419354839,0.0,0.0888888888888889
org.apache.tomcat.jdbc.pool.jmx,4.0,5.0,0.5555555555555556,0.5,0.30000000000000004
org.apache.catalina.session,7.0,36.0,0.8372093023255814,0.14285714285714285,0.07619047619047614
org.apache.jasper.compiler.tagplugin,16.0,0.0,0.0,1.0,0.0
org.apache.jasper.tagplugins.jstl.core,0.0,4.0,1.0,0.0,0.0
org.apache.jasper.tagplugins.jstl,5.0,5.0,0.5,0.0,0.2941176470588235
org.apache.tomcat.dbcp.dbcp2.datasources,0.0,12.0,1.0,0.3076923076923077,0.3076923076923077
org.apache.coyote.http11.upgrade,5.0,15.0,0.75,0.3333333333333333,0.125
org.apache.jasper.xmlparser,1.0,5.0,0.8333333333333334,0.0,0.050000000000000044
org.apache.commons.daemon,4.0,0.0,0.0,0.7142857142857143,0.4065934065934065
javax.persistence,1.0,0.0,0.0,0.7142857142857143,0.5142857142857142
org.apache.catalina.tribes.membership,8.0,15.0,0.6521739130434783,0.0,0.13793103448275867
org.apache.catalina.webresources.war,1.0,1.0,0.5,0.0,0.1428571428571429
org.apache.catalina.users,0.0,11.0,1.0,0.25,0.25
javax.servlet.annotation,9.0,0.0,0.0,0.8181818181818182,0.21818181818181825
org.apache.coyote.ajp,0.0,27.0,1.0,0.1111111111111111,0.11111111111111116
org.apache.catalina.authenticator.jaspic,1.0,17.0,0.9444444444444444,0.0,0.020408163265306145
org.apache.tomcat.util.net.openssl.ciphers,7.0,3.0,0.3,0.0,0.2692307692307693
org.eclipse.jdt.internal.compiler.apt.util,3.0,8.0,0.7272727272727273,0.0,0.048387096774193505
org.apache.el,2.0,14.0,0.875,0.0,0.08695652173913049
org.apache.catalina.ha,19.0,10.0,0.3448275862068966,0.8888888888888888,0.2759856630824373
org.apache.tomcat.util.bcel,1.0,0.0,0.0,0.0,1.0
org.apache.commons.daemon.support,0.0,4.0,1.0,0.0,0.0
org.apache.catalina.manager.host,0.0,20.0,1.0,0.0,0.0
javax.security.auth.message.callback,1.0,0.0,0.0,0.14285714285714285,0.19047619047619047
org.apache.catalina.ant.jmx,0.0,1.0,1.0,0.09090909090909091,0.09090909090909083
org.apache.catalina.manager,0.0,39.0,1.0,0.0,0.0
org.apache.catalina.tribes.tipis,4.0,16.0,0.8,0.375,0.27976190476190466
org.eclipse.jdt.internal.antadapter,3.0,0.0,0.0,0.0,0.33333333333333337
org.apache.catalina.servlet4preview,1.0,3.0,0.75,1.0,0.8
org.apache.el.stream,2.0,7.0,0.7777777777777778,0.07142857142857142,0.002645502645502673
org.apache.tomcat.util.descriptor,6.0,6.0,0.5,0.0,0.1875
org.apache.tomcat.util.http.fileupload.util,7.0,3.0,0.3,0.6,0.29565217391304355
org.apache.tomcat.dbcp.dbcp2.cpdsadapter,0.0,10.0,1.0,0.2,0.19999999999999996
org.apache.catalina.filters,0.0,20.0,1.0,0.09523809523809523,0.09523809523809534
org.apache.tomcat.util.descriptor.tagplugin,1.0,6.0,0.8571428571428571,0.0,0.06666666666666665
org.apache.tomcat.util.compat,4.0,1.0,0.2,0.0,0.3076923076923077
org.eclipse.jdt.internal.compiler.parser.diagnose,1.0,12.0,0.9230769230769231,0.0,0.05882352941176472
org.apache.catalina.ha.tcp,2.0,35.0,0.9459459459459459,0.0,0.03703703703703709
javax.annotation.sql,0.0,0.0,0.0,1.0,1.0
org.apache.jasper.security,4.0,2.0,0.3333333333333333,0.0,0.4
org.apache.catalina.tribes.transport.bio,0.0,19.0,1.0,0.0,0.0
org.apache.tomcat.util.http.fileupload.servlet,1.0,4.0,0.8,0.3333333333333333,0.19047619047619047
org.eclipse.jdt.core,2.0,4.0,0.6666666666666666,0.0,0.04761904761904767
org.apache.tomcat.util.modeler.modules,1.0,8.0,0.8888888888888888,0.3333333333333333,0.3063063063063063
org.apache.catalina.ha.authenticator,0.0,12.0,1.0,0.0,0.0
org.eclipse.jdt.core.compiler.batch,0.0,1.0,1.0,0.0,0.0
org.apache.tomcat.util.file,5.0,1.0,0.16666666666666666,0.0,0.26315789473684215
org.apache.catalina.ha.deploy,0.0,15.0,1.0,0.125,0.125
javax.security.auth.message.module,2.0,2.0,0.5,1.0,0.5
org.apache.tomcat.util.http.fileupload.disk,2.0,7.0,0.7777777777777778,0.3333333333333333,0.25
javax.ejb,1.0,0.0,0.0,1.0,0.75
org.apache.tomcat.jdbc.naming,0.0,3.0,1.0,0.0,0.0
org.apache.naming.java,0.0,3.0,1.0,0.0,0.0
