Package,CA,CE,RMI,RMA,RMD
org.apache.tomcat.util.modeler,33.0,3.0,0.08333333333333333,0.06666666666666667,0.29202898550724643
org.apache.catalina.mbeans,11.0,61.0,0.8472222222222222,0.0,0.11578947368421055
org.apache.catalina.deploy,34.0,25.0,0.423728813559322,0.034482758620689655,0.3655172413793104
javax.servlet.jsp.tagext,28.0,1.0,0.034482758620689655,0.5384615384615384,0.17948717948717952
org.apache.naming,19.0,2.0,0.09523809523809523,0.0,0.3114754098360656
org.apache.catalina,155.0,1.0,0.00641025641025641,0.7894736842105263,0.13867002836432396
org.apache.catalina.valves,13.0,43.0,0.7678571428571429,0.0379746835443038,0.08239568682606657
org.apache.catalina.connector,82.0,78.0,0.4875,0.0,0.383177570093458
org.apache.tomcat.util,100.0,2.0,0.0196078431372549,0.25,0.46942446043165464
org.apache.catalina.util,71.0,18.0,0.20224719101123595,0.0625,0.40155228758169936
org.apache.tomcat.util.res,156.0,0.0,0.0,0.0,0.9454545454545454
org.apache.juli.logging,303.0,0.0,0.0,0.25,0.7088607594936709
org.apache.tomcat.util.bcel.classfile,1.0,3.0,0.75,0.15942028985507245,0.13000852514919004
org.apache.tomcat.util.bcel.util,9.0,0.0,0.0,0.3333333333333333,0.48484848484848486
org.eclipse.jdt.internal.compiler.flow,44.0,15.0,0.2542372881355932,0.07142857142857142,0.6160714285714286
org.eclipse.jdt.internal.compiler.ast,48.0,81.0,0.627906976744186,0.1415929203539823,0.20877204314966735
org.apache.tomcat.util.digester,50.0,5.0,0.09090909090909091,0.21428571428571427,0.29591836734693877
org.apache.catalina.realm,7.0,39.0,0.8478260869565217,0.05263157894736842,0.00877192982456143
org.eclipse.jdt.internal.compiler,116.0,71.0,0.37967914438502676,0.2,0.34205607476635513
org.eclipse.jdt.internal.compiler.parser,13.0,111.0,0.8951612903225806,0.19230769230769232,0.10789210789210801
org.apache.jasper.compiler,18.0,63.0,0.7777777777777778,0.046357615894039736,0.04938706495702405
org.apache.catalina.core,27.0,181.0,0.8701923076923077,0.0273972602739726,0.05969951391957573
javax.servlet,109.0,5.0,0.043859649122807015,0.6428571428571429,0.16455026455026456
org.apache.tomcat.util.http.fileupload,8.0,4.0,0.3333333333333333,0.28205128205128205,0.11538461538461542
org.apache.catalina.filters,0.0,21.0,1.0,0.07142857142857142,0.0714285714285714
org.apache.naming.resources,10.0,10.0,0.5,0.047619047619047616,0.07583774250440922
org.apache.coyote,60.0,14.0,0.1891891891891892,0.45454545454545453,0.16401124648547327
org.apache.tomcat.util.http,24.0,7.0,0.22580645161290322,0.0,0.4363636363636364
org.apache.tomcat.dbcp.pool.impl,5.0,9.0,0.6428571428571429,0.0,0.09090909090909094
org.apache.catalina.startup,8.0,85.0,0.9139784946236559,0.014925373134328358,0.03326739795000899
org.apache.juli,2.0,0.0,0.0,0.0,0.036363636363636376
org.eclipse.jdt.internal.compiler.apt.dispatch,17.0,34.0,0.6666666666666666,0.1875,0.010416666666666519
org.eclipse.jdt.internal.compiler.batch,10.0,32.0,0.7619047619047619,0.15789473684210525,0.048004626951995366
org.eclipse.jdt.internal.compiler.classfmt,10.0,21.0,0.6774193548387096,0.14285714285714285,0.0494505494505495
org.eclipse.jdt.internal.compiler.env,33.0,1.0,0.029411764705882353,0.7272727272727273,0.1646191646191646
org.eclipse.jdt.core.compiler,120.0,1.0,0.008264462809917356,0.6,0.3375
org.eclipse.jdt.internal.compiler.lookup,137.0,49.0,0.26344086021505375,0.17391304347826086,0.49113550021105956
org.eclipse.jdt.internal.compiler.util,57.0,9.0,0.13636363636363635,0.08,0.4429357798165138
org.apache.tomcat.util.net,35.0,23.0,0.39655172413793105,0.19298245614035087,0.09868421052631571
org.apache.coyote.ajp,1.0,36.0,0.972972972972973,0.1875,0.1713709677419355
org.apache.catalina.loader,6.0,22.0,0.7857142857142857,0.09090909090909091,0.03150315031503137
org.apache.tomcat.jdbc.pool,8.0,5.0,0.38461538461538464,0.12,0.025882352941176467
org.apache.tomcat.dbcp.pool,21.0,0.0,0.0,0.37037037037037035,0.16809116809116809
org.apache.catalina.session,6.0,33.0,0.8461538461538461,0.14285714285714285,0.0803571428571428
org.apache.catalina.ha.session,3.0,38.0,0.926829268292683,0.14285714285714285,0.10535714285714293
org.apache.catalina.ha,20.0,10.0,0.3333333333333333,0.7777777777777778,0.15277777777777768
org.apache.catalina.tribes.io,31.0,5.0,0.1388888888888889,0.2222222222222222,0.2547008547008547
org.apache.jasper.util,14.0,1.0,0.06666666666666667,0.0,0.5
org.apache.tomcat.jdbc.pool.interceptor,1.0,9.0,0.9,0.1875,0.16709183673469385
org.apache.catalina.manager.util,12.0,2.0,0.14285714285714285,0.3333333333333333,0.1282051282051282
org.apache.catalina.tribes.group,17.0,29.0,0.6304347826086957,0.17647058823529413,0.08506787330316734
org.apache.catalina.tribes.group.interceptors,2.0,23.0,0.92,0.0,0.03448275862068961
org.apache.tomcat.dbcp.jocl,1.0,0.0,0.0,0.0,0.03703703703703709
org.apache.tomcat.util.buf,66.0,3.0,0.043478260869565216,0.17391304347826086,0.4795523030563926
org.apache.tomcat.util.http.mapper,7.0,6.0,0.46153846153846156,0.125,0.22499999999999998
org.apache.tomcat.util.threads,4.0,3.0,0.42857142857142855,0.07692307692307693,0.07122507122507127
javax.el,47.0,0.0,0.0,0.2903225806451613,0.1892692560895326
org.apache.jasper.el,5.0,23.0,0.8214285714285714,0.0,0.1351351351351351
org.apache.naming.factory,1.0,5.0,0.8333333333333334,0.0,0.019607843137254943
javax.servlet.annotation,6.0,0.0,0.0,0.8181818181818182,0.31818181818181834
org.apache.catalina.ssi,0.0,22.0,1.0,0.14285714285714285,0.1428571428571428
org.eclipse.jdt.internal.compiler.impl,63.0,5.0,0.07352941176470588,0.2,0.5974683544303797
org.apache.el.lang,15.0,19.0,0.5588235294117647,0.07142857142857142,0.1558441558441559
org.apache.el.parser,3.0,17.0,0.85,0.09615384615384616,0.04352226720647767
org.apache.jasper,32.0,17.0,0.3469387755102041,0.16666666666666666,0.15333333333333332
org.apache.jasper.runtime,4.0,52.0,0.9285714285714286,0.07142857142857142,0.032593619972260734
javax.servlet.jsp.el,9.0,10.0,0.5263157894736842,0.22727272727272727,0.03743315508021383
org.apache.jasper.security,5.0,2.0,0.2857142857142857,0.0,0.4545454545454546
org.eclipse.jdt.internal.compiler.codegen,64.0,25.0,0.2808988764044944,0.13636363636363635,0.467409948542024
org.eclipse.jdt.internal.compiler.problem,114.0,59.0,0.34104046242774566,0.1,0.5031746031746032
javax.servlet.http,84.0,8.0,0.08695652173913043,0.5555555555555556,0.16858237547892718
org.apache.catalina.servlets,0.0,25.0,1.0,0.0,0.0
org.apache.catalina.ha.backend,0.0,6.0,1.0,0.14285714285714285,0.1428571428571428
javax.servlet.descriptor,5.0,0.0,0.0,1.0,0.0
org.apache.coyote.http11.filters,5.0,12.0,0.7058823529411765,0.0,0.19999999999999996
org.apache.tomcat.util.log,5.0,0.0,0.0,0.0,0.5555555555555556
org.apache.tomcat,18.0,0.0,0.0,1.0,0.0
javax.servlet.jsp,29.0,2.0,0.06451612903225806,0.6666666666666666,0.18627450980392157
org.apache.catalina.tribes,47.0,1.0,0.020833333333333332,0.7,0.12456140350877198
org.apache.coyote.http11,10.0,57.0,0.8507462686567164,0.21212121212121213,0.11212121212121207
org.apache.catalina.manager,0.0,35.0,1.0,0.0,0.0
org.apache.jasper.compiler.tagplugin,16.0,0.0,0.0,1.0,0.0
org.apache.jasper.tagplugins.jstl.core,0.0,3.0,1.0,0.0,0.0
javax.ejb,1.0,0.0,0.0,1.0,0.75
org.apache.jasper.xmlparser,6.0,6.0,0.5,0.0,0.13043478260869568
org.eclipse.jdt.internal.compiler.tool,0.0,22.0,1.0,0.0,0.0
org.apache.catalina.authenticator,3.0,37.0,0.925,0.06666666666666667,0.023188405797101463
org.apache.tomcat.jni,8.0,0.0,0.0,0.12903225806451613,0.3415559772296015
org.eclipse.jdt.internal.compiler.apt.model,4.0,30.0,0.8823529411764706,0.08333333333333333,0.0444983818770226
org.apache.catalina.ant,1.0,3.0,0.75,0.16666666666666666,0.13541666666666674
org.apache.el.util,14.0,1.0,0.06666666666666667,0.0,0.32558139534883723
org.apache.catalina.ha.jmx,1.0,11.0,0.9166666666666666,0.0,0.05555555555555558
org.apache.catalina.ha.tcp,2.0,38.0,0.95,0.0,0.0357142857142857
org.apache.catalina.ha.deploy,1.0,14.0,0.9333333333333333,0.1111111111111111,0.08408408408408419
org.apache.catalina.ha.authenticator,1.0,13.0,0.9285714285714286,0.0,0.050000000000000044
org.apache.tomcat.dbcp.dbcp.datasources,0.0,7.0,1.0,0.25,0.25
org.apache.tomcat.dbcp.dbcp,6.0,8.0,0.5714285714285714,0.03571428571428571,0.06105990783410142
javax.annotation,2.0,0.0,0.0,0.8333333333333334,0.5
org.apache.catalina.comet,8.0,2.0,0.2,0.6666666666666666,0.06060606060606066
org.apache.catalina.security,16.0,10.0,0.38461538461538464,0.0,0.34042553191489366
javax.xml.ws,1.0,0.0,0.0,1.0,0.75
org.eclipse.jdt.core,1.0,4.0,0.8,0.0,0.032258064516129004
org.eclipse.jdt.internal.antadapter,1.0,0.0,0.0,0.0,0.1428571428571429
org.apache.tomcat.dbcp.dbcp.cpdsadapter,0.0,7.0,1.0,0.0,0.0
org.apache.catalina.tribes.membership,9.0,14.0,0.6086956521739131,0.0,0.15254237288135597
org.apache.catalina.tribes.util,24.0,8.0,0.25,0.0,0.39344262295081966
org.apache.catalina.ha.context,0.0,11.0,1.0,0.0,0.0
org.apache.tomcat.util.bcel,4.0,0.0,0.0,1.0,0.0
org.apache.catalina.ant.jmx,0.0,1.0,1.0,0.0,0.0
javax.annotation.security,1.0,0.0,0.0,1.0,0.75
org.apache.tomcat.util.net.jsse,2.0,9.0,0.8181818181818182,0.0,0.03703703703703709
org.apache.catalina.tribes.tipis,3.0,15.0,0.8333333333333334,0.5,0.42307692307692313
org.apache.catalina.tribes.transport,12.0,11.0,0.4782608695652174,0.5384615384615384,0.2593917710196778
org.apache.catalina.tribes.transport.nio,2.0,20.0,0.9090909090909091,0.0,0.03703703703703709
org.apache.tomcat.util.http.fileupload.servlet,1.0,3.0,0.75,0.0,0.16666666666666663
org.apache.tomcat.jdbc.pool.jmx,4.0,5.0,0.5555555555555556,0.5,0.2894736842105263
org.apache.catalina.tribes.transport.bio,0.0,18.0,1.0,0.0,0.0
org.eclipse.jdt.internal.compiler.parser.diagnose,1.0,11.0,0.9166666666666666,0.0,0.0625
org.apache.jasper.tagplugins.jstl,4.0,5.0,0.5555555555555556,0.0,0.2666666666666667
org.apache.tomcat.util.scan,6.0,7.0,0.5384615384615384,0.14285714285714285,0.03896103896103886
org.apache.commons.daemon,4.0,0.0,0.0,0.7142857142857143,0.4065934065934065
org.apache.commons.daemon.support,0.0,4.0,1.0,0.0,0.0
org.apache.el,1.0,12.0,0.9230769230769231,0.0,0.050000000000000044
org.apache.tomcat.util.modeler.modules,1.0,11.0,0.9166666666666666,0.14285714285714285,0.12244897959183665
org.apache.jasper.servlet,5.0,27.0,0.84375,0.0,0.078125
org.apache.tomcat.util.http.fileupload.util,7.0,2.0,0.2222222222222222,0.5,0.18181818181818166
javax.persistence,1.0,0.0,0.0,0.8333333333333334,0.6333333333333333
org.apache.catalina.tribes.transport.bio.util,2.0,4.0,0.6666666666666666,0.0,0.25
org.apache.tomcat.util.http.fileupload.disk,2.0,9.0,0.8181818181818182,0.0,0.07692307692307687
org.apache.catalina.users,0.0,11.0,1.0,0.25,0.25
org.eclipse.jdt.internal.compiler.apt.util,3.0,8.0,0.7272727272727273,0.0,0.050000000000000044
org.apache.catalina.ha.util,1.0,0.0,0.0,1.0,0.0
org.apache.naming.resources.jndi,0.0,1.0,1.0,0.0,0.0
org.apache.catalina.manager.host,0.0,21.0,1.0,0.0,0.0
org.apache.tomcat.jdbc.naming,0.0,2.0,1.0,0.0,0.0
org.apache.naming.java,0.0,3.0,1.0,0.0,0.0
org.apache.tomcat.util.file,1.0,3.0,0.75,0.0,0.09999999999999998
org.eclipse.jdt.core.compiler.batch,0.0,1.0,1.0,0.0,0.0
