IdCycle,CycleType,ElementList
4053,circle,"org.apache.catalina.core.ApplicationDispatcher,org.apache.catalina.core.ApplicationContext,org.apache.catalina.core.StandardWrapperFacade,org.apache.catalina.core.StandardWrapper,org.apache.catalina.core.ApplicationDispatcher"
4054,circle,"org.apache.catalina.realm.RealmBase,org.apache.catalina.realm.JAASRealm,org.apache.catalina.core.StandardEngine,org.apache.catalina.connector.Connector,org.apache.catalina.realm.RealmBase"
4055,circle,"org.apache.catalina.core.StandardService,org.apache.catalina.core.StandardEngine,org.apache.catalina.connector.Connector,org.apache.catalina.core.StandardService"
4056,circle,"org.apache.catalina.session.ManagerBase,org.apache.catalina.session.StandardManager,org.apache.catalina.core.StandardContext,org.apache.catalina.session.ManagerBase"
4057,circle,"org.eclipse.jdt.internal.compiler.ast.CompoundAssignment,org.eclipse.jdt.internal.compiler.ast.PrefixExpression,org.eclipse.jdt.internal.compiler.ast.Assignment,org.eclipse.jdt.internal.compiler.ast.CompoundAssignment"
4058,circle,"org.apache.catalina.realm.MemoryRealm,org.apache.catalina.realm.MemoryUserRule,org.apache.catalina.realm.MemoryRuleSet,org.apache.catalina.realm.MemoryRealm"
4059,circle,"org.apache.jasper.compiler.TextOptimizer$TextCatVisitor,org.apache.jasper.compiler.TextOptimizer,org.apache.jasper.compiler.Compiler,org.apache.jasper.compiler.TextOptimizer$TextCatVisitor"
4060,clique,"org.apache.catalina.connector.Request,org.apache.catalina.connector.Connector,org.apache.catalina.connector.Response,org.apache.catalina.connector.Request"
4061,clique,"org.eclipse.jdt.internal.compiler.lookup.TypeVariableBinding,org.eclipse.jdt.internal.compiler.lookup.ReferenceBinding,org.eclipse.jdt.internal.compiler.lookup.TypeBinding,org.eclipse.jdt.internal.compiler.lookup.TypeVariableBinding"
4062,clique,"org.eclipse.jdt.internal.compiler.lookup.TypeVariableBinding,org.eclipse.jdt.internal.compiler.lookup.ReferenceBinding,org.eclipse.jdt.internal.compiler.lookup.TypeBinding,org.eclipse.jdt.internal.compiler.lookup.Scope,org.eclipse.jdt.internal.compiler.lookup.TypeVariableBinding"
4063,clique,"org.eclipse.jdt.internal.compiler.parser.RecoveredMethod,org.eclipse.jdt.internal.compiler.parser.RecoveredBlock,org.eclipse.jdt.internal.compiler.parser.RecoveredElement,org.eclipse.jdt.internal.compiler.parser.RecoveredMethod"
4064,clique,"org.eclipse.jdt.internal.compiler.parser.Parser,org.eclipse.jdt.internal.compiler.ast.MethodDeclaration,org.eclipse.jdt.internal.compiler.ast.TypeDeclaration,org.eclipse.jdt.internal.compiler.parser.Parser"
4065,clique,"org.eclipse.jdt.internal.compiler.lookup.BlockScope,org.eclipse.jdt.internal.compiler.lookup.MethodScope,org.eclipse.jdt.internal.compiler.lookup.LocalVariableBinding,org.eclipse.jdt.internal.compiler.lookup.BlockScope"
4066,clique,"org.eclipse.jdt.internal.compiler.lookup.ReferenceBinding,org.eclipse.jdt.internal.compiler.lookup.TypeBinding,org.eclipse.jdt.internal.compiler.lookup.Scope,org.eclipse.jdt.internal.compiler.lookup.ReferenceBinding"
4067,clique,"org.apache.jasper.servlet.JspServletWrapper,org.apache.jasper.compiler.JspRuntimeContext,org.apache.jasper.JspCompilationContext,org.apache.jasper.servlet.JspServletWrapper"
4071,star,"org.apache.catalina.valves.ExtendedAccessLogValve$12,org.apache.catalina.valves.ExtendedAccessLogValve$ResponseHeaderElement,org.apache.catalina.valves.ExtendedAccessLogValve$10,org.apache.catalina.valves.ExtendedAccessLogValve$11,org.apache.catalina.valves.ExtendedAccessLogValve$14,org.apache.catalina.valves.ExtendedAccessLogValve$7,org.apache.catalina.valves.ExtendedAccessLogValve$8,org.apache.catalina.valves.ExtendedAccessLogValve$5,org.apache.catalina.valves.ExtendedAccessLogValve$6,org.apache.catalina.valves.ExtendedAccessLogValve$9,org.apache.catalina.valves.ExtendedAccessLogValve$RequestParameterElement,org.apache.catalina.valves.ExtendedAccessLogValve$RequestAttributeElement,org.apache.catalina.valves.ExtendedAccessLogValve$CookieElement,org.apache.catalina.valves.ExtendedAccessLogValve$SessionAttributeElement,org.apache.catalina.valves.ExtendedAccessLogValve$RequestHeaderElement,org.apache.catalina.valves.ExtendedAccessLogValve,org.apache.catalina.valves.ExtendedAccessLogValve$ServletContextElement,org.apache.catalina.valves.ExtendedAccessLogValve$ResponseAllHeaderElement,org.apache.catalina.valves.ExtendedAccessLogValve$4"
4072,star,"org.apache.catalina.connector.RequestFacade,org.apache.catalina.connector.Request,org.apache.catalina.connector.CometEventImpl,org.apache.catalina.connector.Connector"
4073,star,"org.apache.catalina.connector.ResponseFacade,org.apache.catalina.connector.Response$2,org.apache.catalina.connector.Response,org.apache.catalina.connector.Connector"
4074,star,"org.apache.catalina.tribes.membership.McastService,org.apache.catalina.tribes.membership.McastServiceImpl$ReceiverThread,org.apache.catalina.tribes.membership.McastServiceImpl$SenderThread,org.apache.catalina.tribes.membership.McastServiceImpl"
4075,chain,"org.apache.coyote.http11.Http11Protocol$Http11ConnectionHandler,org.apache.coyote.http11.Http11Protocol,org.apache.coyote.http11.Http11Protocol$Http11ConnectionHandler$1"
4076,chain,"org.apache.jk.common.AprConnection,org.apache.jk.common.ChannelUn,org.apache.jk.common.AprAcceptor"
4077,star,"org.apache.tomcat.util.digester.PathCallParamRule,org.apache.tomcat.util.digester.SetNextRule,org.apache.tomcat.util.digester.CallMethodRule,org.apache.tomcat.util.digester.CallParamRule,org.apache.tomcat.util.digester.ObjectParamRule,org.apache.tomcat.util.digester.FactoryCreateRule,org.apache.tomcat.util.digester.Digester,org.apache.tomcat.util.digester.ObjectCreateRule,org.apache.tomcat.util.digester.SetRootRule,org.apache.tomcat.util.digester.SetPropertiesRule,org.apache.tomcat.util.digester.SetPropertyRule,org.apache.tomcat.util.digester.SetTopRule"
4078,chain,"org.apache.catalina.core.ApplicationDispatcher$PrivilegedInclude,org.apache.catalina.core.ApplicationDispatcher$PrivilegedForward,org.apache.catalina.core.ApplicationDispatcher"
4079,star,"org.apache.jk.config.WebXml2Jk,org.apache.jk.config.GeneratorJk2,org.apache.jk.config.GeneratorJk1,org.apache.jk.config.GeneratorApache2,org.apache.jk.config.WebXml2Jk$NullResolver"
4080,chain,"org.apache.tomcat.util.http.MimeHeaders,org.apache.tomcat.util.http.NamesEnumerator,org.apache.tomcat.util.http.ValuesEnumerator"
4081,star,"org.eclipse.jdt.internal.compiler.parser.RecoveredMethod,org.eclipse.jdt.internal.compiler.parser.RecoveredInitializer,org.eclipse.jdt.internal.compiler.parser.RecoveredField,org.eclipse.jdt.internal.compiler.parser.RecoveredType"
4082,star,"org.apache.catalina.tribes.transport.nio.NioReplicationTask$1,org.apache.catalina.tribes.transport.nio.NioReceiver,org.apache.catalina.tribes.transport.nio.NioReplicationTask$2,org.apache.catalina.tribes.transport.nio.NioReplicationTask"
4083,chain,"org.apache.catalina.session.StandardManager,org.apache.catalina.session.StandardManager$PrivilegedDoLoad,org.apache.catalina.session.StandardManager$PrivilegedDoUnload"
4084,star,"org.apache.jk.common.ChannelNioSocket,org.apache.jk.common.ChannelNioSocket$SocketInputStream,org.apache.jk.common.ChannelNioSocket$SocketOutputStream,org.apache.jk.common.ChannelNioSocket$Poller"
4085,chain,"org.apache.jk.common.JkInputStream,org.apache.jk.core.MsgContext,org.apache.jk.core.JkHandler,org.apache.jk.core.WorkerEnv"
4086,chain,"org.apache.tomcat.util.threads.ThreadPool$MonitorRunnable,org.apache.tomcat.util.threads.ThreadPool,org.apache.tomcat.util.threads.ThreadPool$ControlRunnable"
4087,chain,"org.apache.tomcat.util.net.NioBlockingSelector$BlockPoller,org.apache.tomcat.util.net.NioBlockingSelector$BlockPoller$2,org.apache.tomcat.util.net.NioBlockingSelector$BlockPoller$3"
4088,chain,"org.apache.coyote.Request,org.apache.coyote.RequestInfo,org.apache.coyote.RequestGroupInfo"
4089,chain,"org.eclipse.jdt.internal.compiler.ast.ArrayTypeReference,org.eclipse.jdt.internal.compiler.ast.TypeReference,org.eclipse.jdt.internal.compiler.ast.SingleTypeReference"
4090,star,"org.apache.tomcat.dbcp.dbcp.datasources.SequencedHashMap,org.apache.tomcat.dbcp.dbcp.datasources.SequencedHashMap$3,org.apache.tomcat.dbcp.dbcp.datasources.SequencedHashMap$1,org.apache.tomcat.dbcp.dbcp.datasources.SequencedHashMap$2"
4091,chain,"org.eclipse.jdt.internal.compiler.parser.RecoveredElement,org.eclipse.jdt.internal.compiler.parser.RecoveredMethod,org.eclipse.jdt.internal.compiler.parser.RecoveredBlock,org.eclipse.jdt.internal.compiler.parser.RecoveredType"
4092,star,"org.apache.juli.ClassLoaderLogManager,org.apache.juli.ClassLoaderLogManager$LogNode,org.apache.juli.ClassLoaderLogManager$2,org.apache.juli.ClassLoaderLogManager$Cleaner"
4093,chain,"org.eclipse.jdt.internal.compiler.ast.TypeDeclaration,org.eclipse.jdt.internal.compiler.lookup.MethodBinding,org.eclipse.jdt.internal.compiler.lookup.SyntheticMethodBinding"
4094,star,"org.eclipse.jdt.internal.compiler.lookup.ReferenceBinding$1,org.eclipse.jdt.internal.compiler.lookup.ReferenceBinding,org.eclipse.jdt.internal.compiler.lookup.TypeBinding,org.eclipse.jdt.internal.compiler.lookup.ReferenceBinding$2,org.eclipse.jdt.internal.compiler.lookup.ReferenceBinding$3,org.eclipse.jdt.internal.compiler.lookup.TypeVariableBinding"
4095,star,"org.eclipse.jdt.internal.compiler.lookup.BaseTypeBinding,org.eclipse.jdt.internal.compiler.lookup.ReferenceBinding,org.eclipse.jdt.internal.compiler.lookup.TypeBinding,org.eclipse.jdt.internal.compiler.lookup.Scope"
4096,star,"org.eclipse.jdt.internal.compiler.lookup.SourceTypeBinding,org.eclipse.jdt.internal.compiler.lookup.MethodVerifier,org.eclipse.jdt.internal.compiler.lookup.ClassScope,org.eclipse.jdt.internal.compiler.lookup.FieldBinding"
4097,star,"org.eclipse.jdt.internal.compiler.ast.TypeDeclaration,org.eclipse.jdt.internal.compiler.lookup.MethodBinding,org.eclipse.jdt.internal.compiler.ast.MethodDeclaration,org.eclipse.jdt.internal.compiler.ast.Clinit"
4098,chain,"org.apache.tomcat.util.net.PoolTcpEndpoint,org.apache.tomcat.util.net.LeaderFollowerWorkerThread,org.apache.tomcat.util.net.MasterSlaveWorkerThread"
4099,chain,"org.eclipse.jdt.internal.compiler.ClassFile,org.eclipse.jdt.internal.compiler.ClassFilePool,org.eclipse.jdt.internal.compiler.codegen.ConstantPool"
4100,chain,"org.apache.catalina.core.StandardWrapper,org.apache.catalina.core.StandardContext,org.apache.catalina.core.StandardWrapperValve"
4101,star,"org.apache.tomcat.util.net.AprEndpoint$SocketWithOptionsProcessor,org.apache.tomcat.util.net.AprEndpoint$Worker,org.apache.tomcat.util.net.AprEndpoint$Sendfile,org.apache.tomcat.util.net.AprEndpoint,org.apache.tomcat.util.net.AprEndpoint$Acceptor,org.apache.tomcat.util.net.AprEndpoint$Poller"
4102,chain,"org.apache.coyote.ajp.AjpAprProtocol$AjpConnectionHandler,org.apache.coyote.ajp.AjpAprProtocol$AjpConnectionHandler$1,org.apache.coyote.ajp.AjpAprProtocol"
4103,chain,"org.apache.tomcat.dbcp.dbcp.DelegatingDatabaseMetaData,org.apache.tomcat.dbcp.dbcp.DelegatingStatement,org.apache.tomcat.dbcp.dbcp.DelegatingResultSet,org.apache.tomcat.dbcp.dbcp.DelegatingConnection"
4104,star,"org.apache.catalina.core.StandardWrapper,org.apache.catalina.core.StandardContext,org.apache.catalina.core.StandardContextValve,org.apache.catalina.util.ExtensionValidator,org.apache.catalina.loader.WebappLoader,org.apache.catalina.startup.ContextConfig,org.apache.catalina.startup.TldConfig"
4105,chain,"org.apache.tomcat.dbcp.pool.impl.GenericKeyedObjectPool$ObjectQueue,org.apache.tomcat.dbcp.pool.impl.GenericKeyedObjectPool,org.apache.tomcat.dbcp.pool.impl.GenericKeyedObjectPool$Evictor"
4106,chain,"org.apache.tomcat.dbcp.pool.impl.CursorableLinkedList$Cursor,org.apache.tomcat.dbcp.pool.impl.CursorableSubList,org.apache.tomcat.dbcp.pool.impl.CursorableLinkedList"
4107,star,"org.apache.tomcat.util.net.NioEndpoint$PollerEvent,org.apache.tomcat.util.net.NioEndpoint$Poller,org.apache.tomcat.util.net.NioEndpoint,org.apache.tomcat.util.net.NioChannel"
4108,chain,"org.apache.jasper.compiler.Node$NamedAttribute,org.apache.jasper.compiler.Node,org.apache.jasper.compiler.Node$Comment"
4109,chain,"org.apache.tomcat.util.buf.CharChunk,org.apache.tomcat.util.buf.StringCache,org.apache.tomcat.util.buf.ByteChunk"
4110,chain,"org.apache.el.ValueExpressionImpl,org.apache.el.MethodExpressionImpl,org.apache.el.lang.ExpressionBuilder"
4111,star,"org.apache.catalina.connector.CoyoteAdapter,org.apache.catalina.connector.Request,org.apache.catalina.connector.Response,org.apache.catalina.connector.Connector,org.apache.catalina.connector.MapperListener"
4112,chain,"org.apache.tomcat.util.buf.MessageBytes,org.apache.tomcat.util.buf.DateTool,org.apache.tomcat.util.buf.MessageBytes$MessageBytesFactory"
4113,chain,"org.apache.tomcat.dbcp.collections.CursorableSubList,org.apache.tomcat.dbcp.collections.CursorableLinkedList,org.apache.tomcat.dbcp.collections.CursorableLinkedList$Cursor"
4114,chain,"org.apache.coyote.http11.Http11AprProtocol$Http11ConnectionHandler$1,org.apache.coyote.http11.Http11AprProtocol,org.apache.coyote.http11.Http11AprProtocol$Http11ConnectionHandler"
4115,chain,"org.apache.jasper.servlet.JspServletWrapper,org.apache.jasper.JspCompilationContext,org.apache.jasper.compiler.Compiler,org.apache.jasper.compiler.JspRuntimeContext"
4116,chain,"org.apache.coyote.ajp.AjpAprProcessor,org.apache.coyote.ajp.AjpAprProcessor$SocketInputBuffer,org.apache.coyote.ajp.AjpAprProcessor$SocketOutputBuffer"
4117,star,"org.apache.el.lang.ELArithmetic$LongDelegate,org.apache.el.lang.ELArithmetic$DoubleDelegate,org.apache.el.lang.ELArithmetic$BigDecimalDelegate,org.apache.el.lang.ELArithmetic,org.apache.el.lang.ELArithmetic$BigIntegerDelegate"
4118,chain,"org.apache.jasper.runtime.JspRuntimeLibrary,org.apache.jasper.runtime.JspRuntimeLibrary$PrivilegedIntrospectHelper,org.apache.jasper.runtime.PageContextImpl"
4119,star,"org.apache.tomcat.dbcp.collections.SequencedHashMap$1,org.apache.tomcat.dbcp.collections.SequencedHashMap$2,org.apache.tomcat.dbcp.collections.SequencedHashMap$3,org.apache.tomcat.dbcp.collections.SequencedHashMap"
4120,chain,"org.apache.jasper.runtime.ProtectedFunctionMapper$1,org.apache.jasper.runtime.ProtectedFunctionMapper$3,org.apache.jasper.runtime.ProtectedFunctionMapper"
4121,star,"org.eclipse.jdt.internal.compiler.parser.Parser$1$MethodVisitor,org.eclipse.jdt.internal.compiler.parser.JavadocParser,org.eclipse.jdt.internal.compiler.parser.Parser,org.eclipse.jdt.internal.compiler.ast.MethodDeclaration,org.eclipse.jdt.internal.compiler.parser.diagnose.DiagnoseParser"
4122,chain,"org.eclipse.jdt.internal.compiler.flow.UnconditionalFlowInfo,org.eclipse.jdt.internal.compiler.flow.FlowInfo,org.eclipse.jdt.internal.compiler.flow.ConditionalFlowInfo"
4123,star,"org.eclipse.jdt.internal.compiler.ast.AllocationExpression,org.eclipse.jdt.internal.compiler.codegen.ExceptionLabel,org.eclipse.jdt.internal.compiler.codegen.BranchLabel,org.eclipse.jdt.internal.compiler.ast.ExplicitConstructorCall,org.eclipse.jdt.internal.compiler.codegen.CodeStream,org.eclipse.jdt.internal.compiler.codegen.CaseLabel"
4124,star,"org.apache.jasper.JspCompilationContext,org.apache.jasper.compiler.ParserController,org.apache.jasper.compiler.Collector,org.apache.jasper.compiler.Compiler,org.apache.jasper.compiler.Validator"
4125,star,"org.apache.jasper.compiler.Generator$GenerateVisitor$1ParamVisitor,org.apache.jasper.compiler.Generator,org.apache.jasper.compiler.Generator$GenerateVisitor$2ParamVisitor,org.apache.jasper.compiler.Generator$GenerateVisitor"
4126,chain,"org.eclipse.jdt.internal.compiler.lookup.SourceTypeBinding,org.eclipse.jdt.internal.compiler.lookup.ClassScope,org.eclipse.jdt.internal.compiler.lookup.LocalTypeBinding"
4127,chain,"org.eclipse.jdt.internal.compiler.lookup.SourceTypeBinding,org.eclipse.jdt.internal.compiler.lookup.ArrayBinding,org.eclipse.jdt.internal.compiler.lookup.FieldBinding"
4128,star,"org.eclipse.jdt.internal.compiler.impl.Constant,org.eclipse.jdt.internal.compiler.impl.FloatConstant,org.eclipse.jdt.internal.compiler.impl.IntConstant,org.eclipse.jdt.internal.compiler.impl.StringConstant,org.eclipse.jdt.internal.compiler.impl.BooleanConstant,org.eclipse.jdt.internal.compiler.impl.CharConstant,org.eclipse.jdt.internal.compiler.impl.ByteConstant,org.eclipse.jdt.internal.compiler.impl.ShortConstant,org.eclipse.jdt.internal.compiler.impl.DoubleConstant,org.eclipse.jdt.internal.compiler.impl.LongConstant"
4129,chain,"org.eclipse.jdt.internal.compiler.lookup.MethodScope,org.eclipse.jdt.internal.compiler.lookup.LocalVariableBinding,org.eclipse.jdt.internal.compiler.lookup.BlockScope"
4130,chain,"org.apache.coyote.ajp.AjpProcessor,org.apache.coyote.ajp.AjpProcessor$SocketInputBuffer,org.apache.coyote.ajp.AjpProcessor$SocketOutputBuffer"
4131,chain,"org.apache.catalina.tribes.io.ChannelData,org.apache.catalina.tribes.io.BufferPool,org.apache.catalina.tribes.io.XByteBuffer"
4132,chain,"org.apache.tomcat.dbcp.pool.PoolUtils,org.apache.tomcat.dbcp.pool.PoolUtils$ObjectPoolAdaptor,org.apache.tomcat.dbcp.pool.PoolUtils$KeyedObjectPoolAdaptor"
4133,chain,"org.apache.catalina.core.StandardHost$MemoryLeakTrackingListener,org.apache.catalina.startup.HostConfig,org.apache.catalina.core.StandardHost"
4134,chain,"org.apache.catalina.core.NamingContextListener,org.apache.catalina.ServerFactory,org.apache.catalina.core.StandardServer"
4135,star,"org.apache.tomcat.util.net.JIoEndpoint$SocketProcessor,org.apache.tomcat.util.net.JIoEndpoint,org.apache.tomcat.util.net.JIoEndpoint$Acceptor,org.apache.tomcat.util.net.JIoEndpoint$Worker"
4136,chain,"org.apache.jasper.compiler.Validator$ValidateVisitor,org.apache.jasper.compiler.Validator$ValidateVisitor$1FVVisitor,org.apache.jasper.compiler.Validator$ValidateVisitor$1MapperELVisitor"
4137,chain,"org.apache.coyote.ajp.AjpProtocol$AjpConnectionHandler,org.apache.coyote.ajp.AjpProtocol$AjpConnectionHandler$1,org.apache.coyote.ajp.AjpProtocol"
4138,star,"org.apache.catalina.core.ContainerBase$ContainerBackgroundProcessor,org.apache.catalina.core.StandardPipeline,org.apache.catalina.core.ContainerBase$PrivilegedAddChild,org.apache.catalina.core.ContainerBase"
4139,chain,"org.apache.catalina.servlets.CGIServlet$CGIEnvironment,org.apache.catalina.servlets.CGIServlet$CGIRunner,org.apache.catalina.servlets.CGIServlet,org.apache.catalina.servlets.CGIServlet$CGIRunner$1"
4140,chain,"org.apache.catalina.ha.session.DeltaManager,org.apache.catalina.ha.tcp.ReplicationValve,org.apache.catalina.ha.session.DeltaSession"
4141,star,"org.apache.catalina.ha.session.DeltaManager,org.apache.catalina.ha.session.BackupManager,org.apache.catalina.ha.session.DeltaRequest,org.apache.catalina.ha.session.DeltaSession"
4142,chain,"org.eclipse.jdt.internal.compiler.ast.TypeDeclaration,org.eclipse.jdt.internal.compiler.parser.Parser,org.eclipse.jdt.internal.compiler.ast.MethodDeclaration"
4143,chain,"org.eclipse.jdt.internal.compiler.ast.StringLiteral,org.eclipse.jdt.internal.compiler.ast.ExtendedStringLiteral,org.eclipse.jdt.internal.compiler.ast.StringLiteralConcatenation"
4144,star,"org.apache.jasper.compiler.Generator$1DeclarationVisitor,org.apache.jasper.compiler.JspUtil,org.apache.jasper.compiler.Generator$1ScriptingVarVisitor,org.apache.jasper.compiler.Generator,org.apache.jasper.compiler.Generator$FragmentHelperClass,org.apache.jasper.compiler.Generator$GenerateVisitor"
4145,chain,"org.apache.catalina.core.ApplicationFilterChain$2,org.apache.catalina.core.ApplicationFilterChain$1,org.apache.catalina.core.ApplicationFilterChain"
4146,chain,"org.apache.jk.common.ChannelSocket$SocketConnection,org.apache.jk.common.ChannelSocket$SocketAcceptor,org.apache.jk.common.ChannelSocket"
4147,chain,"org.apache.catalina.tribes.UniqueId,org.apache.catalina.tribes.membership.MemberImpl,org.apache.catalina.tribes.util.Arrays"
4148,star,"org.apache.tomcat.util.net.NioEndpoint$TaskThreadFactory,org.apache.tomcat.util.net.NioEndpoint$Acceptor,org.apache.tomcat.util.net.NioEndpoint$Poller,org.apache.tomcat.util.net.NioEndpoint,org.apache.tomcat.util.net.NioEndpoint$Worker"
4149,chain,"org.apache.coyote.http11.Http11NioProtocol,org.apache.coyote.http11.Http11NioProtocol$Http11ConnectionHandler$1,org.apache.coyote.http11.Http11NioProtocol$Http11ConnectionHandler"
4150,chain,"org.eclipse.jdt.internal.compiler.batch.Main,org.eclipse.jdt.internal.compiler.batch.Main$3,org.eclipse.jdt.internal.compiler.batch.Main$Logger"
4151,star,"org.apache.jasper.runtime.JspFactoryImpl,org.apache.jasper.runtime.JspFactoryImpl$PrivilegedGetPageContext,org.apache.jasper.runtime.JspFactoryImpl$PrivilegedReleasePageContext,org.apache.jasper.runtime.JspFactoryImpl$PageContextPool"
4152,star,"org.apache.jasper.runtime.PageContextImpl$12,org.apache.jasper.runtime.PageContextImpl$1,org.apache.jasper.runtime.PageContextImpl$2,org.apache.jasper.runtime.PageContextImpl$3,org.apache.jasper.runtime.PageContextImpl$4,org.apache.jasper.runtime.PageContextImpl$5,org.apache.jasper.runtime.PageContextImpl$6,org.apache.jasper.runtime.PageContextImpl$7,org.apache.jasper.runtime.JspRuntimeLibrary,org.apache.jasper.runtime.PageContextImpl$8,org.apache.jasper.runtime.PageContextImpl$9,org.apache.jasper.runtime.PageContextImpl$11,org.apache.jasper.runtime.PageContextImpl$10,org.apache.jasper.runtime.PageContextImpl"
4153,star,"org.apache.catalina.users.MemoryGroupCreationFactory,org.apache.catalina.users.MemoryRoleCreationFactory,org.apache.catalina.users.MemoryUserDatabase,org.apache.catalina.users.MemoryUserCreationFactory,org.apache.catalina.users.MemoryGroup"
4154,star,"javax.servlet.jsp.el.ImplicitObjectELResolver$ScopeManager$8,javax.servlet.jsp.el.ImplicitObjectELResolver$ScopeManager$9,javax.servlet.jsp.el.ImplicitObjectELResolver$ScopeManager$10,javax.servlet.jsp.el.ImplicitObjectELResolver$ScopeManager,javax.servlet.jsp.el.ImplicitObjectELResolver$ScopeManager$1,javax.servlet.jsp.el.ImplicitObjectELResolver$ScopeManager$2,javax.servlet.jsp.el.ImplicitObjectELResolver$ScopeManager$3,javax.servlet.jsp.el.ImplicitObjectELResolver$ScopeManager$4,javax.servlet.jsp.el.ImplicitObjectELResolver$ScopeManager$5,javax.servlet.jsp.el.ImplicitObjectELResolver$ScopeManager$6,javax.servlet.jsp.el.ImplicitObjectELResolver$ScopeManager$7"
4155,star,"org.apache.jasper.compiler.ParserController,org.apache.jasper.compiler.JspDocumentParser,org.apache.jasper.compiler.Parser,org.apache.jasper.compiler.Compiler"
