UnstableDependenciesPackage,InstabilityUnstableDependenciesPackage,CorrelatedPackage,InstabilityCorrelatedPackage
org.apache.catalina,0.07878787878787878,org.apache.catalina.core,0.8901515151515151
org.apache.catalina,0.07878787878787878,javax.servlet,0.13829787234042554
org.eclipse.jdt.core.compiler,0.0625,org.eclipse.jdt.internal.compiler.parser,0.9155844155844156
org.eclipse.jdt.internal.compiler.lookup,0.33495145631067963,org.eclipse.jdt.internal.compiler.problem,0.3968253968253968
org.eclipse.jdt.internal.compiler.lookup,0.33495145631067963,org.eclipse.jdt.internal.compiler.ast,0.6496350364963503
org.eclipse.jdt.internal.compiler.lookup,0.33495145631067963,org.eclipse.jdt.internal.compiler.util,0.47706422018348627
org.eclipse.jdt.internal.compiler.lookup,0.33495145631067963,org.eclipse.jdt.internal.compiler,0.45794392523364486
org.eclipse.jdt.internal.compiler.lookup,0.33495145631067963,org.eclipse.jdt.internal.compiler.codegen,0.39622641509433965
org.eclipse.jdt.internal.compiler.codegen,0.39622641509433965,org.eclipse.jdt.internal.compiler.ast,0.6496350364963503
org.eclipse.jdt.internal.compiler.codegen,0.39622641509433965,org.eclipse.jdt.internal.compiler.problem,0.3968253968253968
org.eclipse.jdt.internal.compiler.codegen,0.39622641509433965,org.eclipse.jdt.internal.compiler.util,0.47706422018348627
org.eclipse.jdt.internal.compiler.codegen,0.39622641509433965,org.eclipse.jdt.internal.compiler,0.45794392523364486
org.eclipse.jdt.internal.compiler.codegen,0.39622641509433965,org.eclipse.jdt.internal.compiler.classfmt,0.8076923076923077
org.apache.coyote,0.2345679012345679,org.apache.tomcat.util.http,0.6
org.apache.coyote,0.2345679012345679,org.apache.tomcat.util.buf,0.34959349593495936
org.eclipse.jdt.internal.compiler.flow,0.3125,org.eclipse.jdt.internal.compiler.lookup,0.33495145631067963
org.eclipse.jdt.internal.compiler.flow,0.3125,org.eclipse.jdt.internal.compiler.ast,0.6496350364963503
org.eclipse.jdt.internal.compiler.flow,0.3125,org.eclipse.jdt.internal.compiler.problem,0.3968253968253968
org.eclipse.jdt.internal.compiler.flow,0.3125,org.eclipse.jdt.internal.compiler.codegen,0.39622641509433965
org.eclipse.jdt.internal.compiler.problem,0.3968253968253968,org.eclipse.jdt.internal.compiler.util,0.47706422018348627
org.eclipse.jdt.internal.compiler.problem,0.3968253968253968,org.eclipse.jdt.internal.compiler,0.45794392523364486
org.eclipse.jdt.internal.compiler.problem,0.3968253968253968,org.eclipse.jdt.internal.compiler.ast,0.6496350364963503
org.eclipse.jdt.internal.compiler.problem,0.3968253968253968,org.eclipse.jdt.internal.compiler.parser,0.9155844155844156
org.eclipse.jdt.internal.compiler,0.45794392523364486,org.eclipse.jdt.internal.compiler.util,0.47706422018348627
org.eclipse.jdt.internal.compiler,0.45794392523364486,org.eclipse.jdt.internal.compiler.ast,0.6496350364963503
org.eclipse.jdt.internal.compiler,0.45794392523364486,org.eclipse.jdt.internal.compiler.parser,0.9155844155844156
org.eclipse.jdt.internal.compiler,0.45794392523364486,org.eclipse.jdt.core,0.967741935483871
org.eclipse.jdt.internal.compiler,0.45794392523364486,org.eclipse.jdt.internal.compiler.classfmt,0.8076923076923077
org.eclipse.jdt.internal.compiler.impl,0.20512820512820512,org.eclipse.jdt.internal.compiler.problem,0.3968253968253968
org.eclipse.jdt.internal.compiler.impl,0.20512820512820512,org.eclipse.jdt.internal.compiler.util,0.47706422018348627
org.eclipse.jdt.internal.compiler.impl,0.20512820512820512,org.eclipse.jdt.internal.compiler.lookup,0.33495145631067963
org.eclipse.jdt.internal.compiler.impl,0.20512820512820512,org.eclipse.jdt.internal.compiler.ast,0.6496350364963503
