Class,FanIn,FanOut,Total Dependences
org.apache.catalina.connector.Request,93,99,192
org.eclipse.jdt.internal.compiler.lookup.Scope,74,61,135
org.eclipse.jdt.internal.compiler.lookup.ClassScope,35,36,71
org.eclipse.jdt.internal.compiler.lookup.SourceTypeBinding,47,48,95
org.eclipse.jdt.internal.compiler.util.Util,50,41,91
org.eclipse.jdt.internal.compiler.problem.ProblemReporter,126,90,216
org.eclipse.jdt.internal.compiler.codegen.CodeStream,68,43,111
org.apache.tomcat.util.digester.Digester,66,46,112
