UnstableDependenciesPackage,InstabilityUnstableDependenciesPackage,CorrelatedPackage,InstabilityCorrelatedPackage
org.apache.catalina,0.07857142857142857,javax.servlet,0.14772727272727273
org.apache.catalina,0.07857142857142857,org.apache.catalina.core,0.8841201716738197
org.eclipse.jdt.internal.compiler.lookup,0.3728813559322034,org.eclipse.jdt.internal.compiler.util,0.5172413793103449
org.eclipse.jdt.internal.compiler.lookup,0.3728813559322034,org.eclipse.jdt.internal.compiler.ast,0.6585365853658537
org.eclipse.jdt.internal.compiler.lookup,0.3728813559322034,org.eclipse.jdt.internal.compiler.codegen,0.37623762376237624
org.eclipse.jdt.internal.compiler.lookup,0.3728813559322034,org.eclipse.jdt.internal.compiler,0.5073170731707317
org.eclipse.jdt.internal.compiler.codegen,0.37623762376237624,org.eclipse.jdt.internal.compiler,0.5073170731707317
org.eclipse.jdt.internal.compiler.codegen,0.37623762376237624,org.eclipse.jdt.internal.compiler.ast,0.6585365853658537
org.eclipse.jdt.internal.compiler.codegen,0.37623762376237624,org.eclipse.jdt.internal.compiler.util,0.5172413793103449
org.eclipse.jdt.internal.compiler.codegen,0.37623762376237624,org.eclipse.jdt.internal.compiler.classfmt,0.9148936170212766
org.apache.coyote,0.22077922077922077,org.apache.tomcat.util.http,0.5901639344262295
org.apache.coyote,0.22077922077922077,org.apache.tomcat.util.buf,0.32142857142857145
org.eclipse.jdt.internal.compiler.env,0.08823529411764706,org.eclipse.jdt.core.compiler,0.12962962962962962
org.eclipse.jdt.internal.core.util,0.8333333333333334,org.eclipse.jdt.internal.compiler.parser,0.8928571428571429
org.eclipse.jdt.internal.compiler.flow,0.3225806451612903,org.eclipse.jdt.internal.compiler.lookup,0.3728813559322034
org.eclipse.jdt.internal.compiler.flow,0.3225806451612903,org.eclipse.jdt.internal.compiler.ast,0.6585365853658537
org.eclipse.jdt.internal.compiler.flow,0.3225806451612903,org.eclipse.jdt.internal.compiler.codegen,0.37623762376237624
org.eclipse.jdt.internal.compiler.flow,0.3225806451612903,org.eclipse.jdt.internal.compiler.problem,0.3707865168539326
org.eclipse.jdt.internal.compiler.problem,0.3707865168539326,org.eclipse.jdt.internal.compiler,0.5073170731707317
org.eclipse.jdt.internal.compiler.problem,0.3707865168539326,org.eclipse.jdt.internal.compiler.parser,0.8928571428571429
org.eclipse.jdt.internal.compiler.problem,0.3707865168539326,org.eclipse.jdt.internal.compiler.lookup,0.3728813559322034
org.eclipse.jdt.internal.compiler.problem,0.3707865168539326,org.eclipse.jdt.internal.compiler.ast,0.6585365853658537
org.eclipse.jdt.internal.compiler.problem,0.3707865168539326,org.eclipse.jdt.internal.compiler.util,0.5172413793103449
javax.servlet.jsp,0.14705882352941177,javax.servlet,0.14772727272727273
org.eclipse.jdt.internal.compiler.impl,0.21212121212121213,org.eclipse.jdt.internal.compiler.ast,0.6585365853658537
org.eclipse.jdt.internal.compiler.impl,0.21212121212121213,org.eclipse.jdt.internal.compiler.lookup,0.3728813559322034
org.eclipse.jdt.internal.compiler.impl,0.21212121212121213,org.eclipse.jdt.internal.compiler.util,0.5172413793103449
org.eclipse.jdt.internal.compiler.impl,0.21212121212121213,org.eclipse.jdt.internal.compiler.problem,0.3707865168539326
