UnstableDependenciesPackage,InstabilityUnstableDependenciesPackage,CorrelatedPackage,InstabilityCorrelatedPackage
org.apache.catalina.tribes,0.14705882352941177,org.apache.catalina.tribes.util,0.45263157894736844
org.apache.catalina.connector,0.630901287553648,org.apache.tomcat.util.http.parser,0.8064516129032258
org.apache.catalina.connector,0.630901287553648,org.apache.catalina.security,0.7058823529411765
org.apache.catalina.connector,0.630901287553648,org.apache.catalina.mapper,0.8461538461538461
org.apache.catalina.connector,0.630901287553648,org.apache.catalina.core,0.9262536873156342
org.apache.catalina.connector,0.630901287553648,org.apache.coyote.http11,0.8809523809523809
org.apache.catalina.connector,0.630901287553648,org.apache.tomcat.util.net.openssl,0.9571428571428572
org.apache.catalina.connector,0.630901287553648,org.apache.catalina.authenticator,0.9555555555555556
org.apache.catalina.connector,0.630901287553648,org.apache.tomcat.util.http.fileupload.servlet,0.8571428571428571
org.apache.catalina.connector,0.630901287553648,org.apache.tomcat.util.http.fileupload.disk,0.9166666666666666
org.apache.catalina.connector,0.630901287553648,org.apache.coyote.http11.upgrade,0.7916666666666666
org.apache.jasper.runtime,0.9047619047619048,org.apache.jasper.el,0.9111111111111111
org.apache.jasper,0.7029702970297029,org.apache.jasper.compiler,0.8984771573604061
org.apache.jasper,0.7029702970297029,org.apache.jasper.servlet,0.9484536082474226
org.apache.jasper,0.7029702970297029,org.apache.jasper.runtime,0.9047619047619048
org.eclipse.jdt.internal.compiler.batch,0.883495145631068,org.eclipse.jdt.internal.compiler.parser,0.90625
org.eclipse.jdt.internal.compiler.batch,0.883495145631068,org.eclipse.jdt.core,0.9523809523809523
org.apache.tomcat.util.http.fileupload,0.825,org.apache.tomcat.util.http.fileupload.util.mime,0.9166666666666666
org.apache.catalina.util,0.5947712418300654,org.apache.tomcat.util.modeler,0.6818181818181818
org.apache.catalina.ha.session,0.9625,org.apache.catalina.ha.tcp,0.9629629629629629
org.apache.catalina.security,0.7058823529411765,org.apache.catalina.startup,0.9668508287292817
org.apache.catalina.tribes.transport,0.6956521739130435,org.apache.catalina.tribes.transport.nio,0.9661016949152542
org.apache.tomcat.util.net,0.7272727272727273,org.apache.tomcat.util.net.jsse,0.9142857142857143
org.apache.tomcat.util.net,0.7272727272727273,org.apache.tomcat.util.net.openssl.ciphers,0.7307692307692307
org.apache.tomcat.util.net,0.7272727272727273,org.apache.tomcat.util.net.openssl,0.9571428571428572
org.apache.tomcat.util.net,0.7272727272727273,org.apache.tomcat.util.threads,0.8461538461538461
org.apache.tomcat.util.net,0.7272727272727273,org.apache.tomcat.util.file,0.7368421052631579
org.eclipse.jdt.internal.compiler.util,0.43410852713178294,org.eclipse.jdt.internal.compiler,0.4472573839662447
org.eclipse.jdt.internal.compiler.util,0.43410852713178294,org.eclipse.jdt.internal.compiler.batch,0.883495145631068
org.apache.el,0.9130434782608695,org.apache.el.parser,0.9571428571428572
org.apache.el,0.9130434782608695,org.apache.el.stream,0.9259259259259259
org.apache.tomcat.jdbc.pool.jmx,0.8,org.apache.tomcat.jdbc.pool,0.8921568627450981
org.apache.jasper.compiler,0.8984771573604061,org.apache.jasper.servlet,0.9484536082474226
org.apache.jasper.compiler,0.8984771573604061,org.apache.jasper.runtime,0.9047619047619048
org.apache.jasper.compiler,0.8984771573604061,org.apache.jasper.el,0.9111111111111111
org.apache.jasper.compiler,0.8984771573604061,org.apache.jasper.xmlparser,0.95
org.apache.jasper.compiler,0.8984771573604061,org.apache.tomcat.util.descriptor.tagplugin,0.9333333333333333
org.apache.catalina.tribes.util,0.45263157894736844,org.apache.catalina.tribes.group,0.7611940298507462
org.apache.catalina.tribes.util,0.45263157894736844,org.apache.catalina.tribes.membership,0.8620689655172413
org.apache.tomcat.util.descriptor.web,0.7294117647058823,org.apache.tomcat.util.descriptor,0.8125
org.apache.tomcat.websocket,0.92,org.apache.tomcat.websocket.pojo,0.9375
org.eclipse.jdt.core.compiler,0.05194805194805195,org.eclipse.jdt.internal.compiler.parser,0.90625
org.eclipse.jdt.internal.compiler.lookup,0.37404580152671757,org.eclipse.jdt.internal.compiler.util,0.43410852713178294
org.eclipse.jdt.internal.compiler.lookup,0.37404580152671757,org.eclipse.jdt.internal.compiler.ast,0.6700507614213198
org.eclipse.jdt.internal.compiler.lookup,0.37404580152671757,org.eclipse.jdt.internal.compiler.problem,0.4230769230769231
org.eclipse.jdt.internal.compiler.lookup,0.37404580152671757,org.eclipse.jdt.internal.compiler.flow,0.38823529411764707
org.eclipse.jdt.internal.compiler.lookup,0.37404580152671757,org.eclipse.jdt.internal.compiler.codegen,0.4322033898305085
org.eclipse.jdt.internal.compiler.lookup,0.37404580152671757,org.eclipse.jdt.internal.compiler.classfmt,0.8142857142857143
org.eclipse.jdt.internal.compiler.lookup,0.37404580152671757,org.eclipse.jdt.internal.compiler,0.4472573839662447
org.eclipse.jdt.internal.compiler.impl,0.20689655172413793,org.eclipse.jdt.internal.compiler.problem,0.4230769230769231
org.eclipse.jdt.internal.compiler.impl,0.20689655172413793,org.eclipse.jdt.internal.compiler.ast,0.6700507614213198
org.eclipse.jdt.internal.compiler.impl,0.20689655172413793,org.eclipse.jdt.internal.compiler.lookup,0.37404580152671757
org.eclipse.jdt.internal.compiler.impl,0.20689655172413793,org.eclipse.jdt.internal.compiler.util,0.43410852713178294
org.apache.catalina,0.059907834101382486,org.apache.tomcat,0.15217391304347827
org.apache.el.lang,0.7567567567567568,org.apache.el,0.9130434782608695
org.apache.el.lang,0.7567567567567568,org.apache.el.parser,0.9571428571428572
org.eclipse.jdt.internal.compiler.flow,0.38823529411764707,org.eclipse.jdt.internal.compiler.problem,0.4230769230769231
org.eclipse.jdt.internal.compiler.flow,0.38823529411764707,org.eclipse.jdt.internal.compiler.ast,0.6700507614213198
org.eclipse.jdt.internal.compiler.flow,0.38823529411764707,org.eclipse.jdt.internal.compiler.codegen,0.4322033898305085
org.eclipse.jdt.internal.compiler.apt.dispatch,0.8118811881188119,org.eclipse.jdt.internal.compiler.classfmt,0.8142857142857143
org.eclipse.jdt.internal.compiler.apt.dispatch,0.8118811881188119,org.eclipse.jdt.internal.compiler.batch,0.883495145631068
org.eclipse.jdt.internal.compiler.apt.dispatch,0.8118811881188119,org.eclipse.jdt.internal.compiler.apt.model,0.963963963963964
org.eclipse.jdt.internal.compiler.apt.dispatch,0.8118811881188119,org.eclipse.jdt.internal.compiler.apt.util,0.9516129032258065
org.apache.catalina.tribes.group,0.7611940298507462,org.apache.catalina.tribes.group.interceptors,0.9523809523809523
org.apache.catalina.tribes.group,0.7611940298507462,org.apache.catalina.tribes.membership,0.8620689655172413
org.apache.catalina.tribes.group,0.7611940298507462,org.apache.catalina.tribes.transport.nio,0.9661016949152542
org.apache.catalina.loader,0.9540229885057471,org.apache.catalina.webresources,0.971830985915493
org.eclipse.jdt.internal.compiler,0.4472573839662447,org.eclipse.jdt.internal.compiler.parser,0.90625
org.eclipse.jdt.internal.compiler,0.4472573839662447,org.eclipse.jdt.internal.compiler.ast,0.6700507614213198
org.eclipse.jdt.internal.compiler,0.4472573839662447,org.eclipse.jdt.internal.compiler.classfmt,0.8142857142857143
org.eclipse.jdt.internal.compiler,0.4472573839662447,org.eclipse.jdt.core,0.9523809523809523
org.apache.tomcat.jdbc.pool,0.8921568627450981,org.apache.tomcat.jdbc.pool.interceptor,0.9836065573770492
org.apache.tomcat.util.http.fileupload.util,0.6956521739130435,org.apache.tomcat.util.http.fileupload,0.825
org.apache.tomcat.util.descriptor.tld,0.7804878048780488,org.apache.tomcat.util.descriptor,0.8125
org.apache.tomcat.util.descriptor.tld,0.7804878048780488,org.apache.tomcat.util.scan,0.86
org.eclipse.jdt.internal.compiler.problem,0.4230769230769231,org.eclipse.jdt.internal.compiler,0.4472573839662447
org.eclipse.jdt.internal.compiler.problem,0.4230769230769231,org.eclipse.jdt.internal.compiler.util,0.43410852713178294
org.eclipse.jdt.internal.compiler.problem,0.4230769230769231,org.eclipse.jdt.internal.compiler.ast,0.6700507614213198
org.eclipse.jdt.internal.compiler.problem,0.4230769230769231,org.eclipse.jdt.internal.compiler.parser,0.90625
org.eclipse.jdt.internal.compiler.parser,0.90625,org.eclipse.jdt.internal.compiler.parser.diagnose,0.9411764705882353
javax.servlet.jsp,0.1388888888888889,javax.servlet,0.16875
org.apache.coyote.http11,0.8809523809523809,org.apache.coyote.http11.filters,0.9166666666666666
org.apache.coyote.http11,0.8809523809523809,org.apache.tomcat.util.net.openssl,0.9571428571428572
org.apache.tomcat.util.digester,0.37962962962962965,org.apache.tomcat.util.security,0.38461538461538464
org.apache.tomcat.util.modeler,0.6818181818181818,org.apache.tomcat.util.modeler.modules,0.972972972972973
org.eclipse.jdt.internal.compiler.ast,0.6700507614213198,org.eclipse.jdt.internal.compiler.parser,0.90625
org.apache.catalina.servlet4preview.http,0.5,org.apache.catalina.servlet4preview,0.8
org.apache.el.util,0.66,org.apache.el.lang,0.7567567567567568
org.apache.catalina.mbeans,0.9382716049382716,org.apache.catalina.startup,0.9668508287292817
org.apache.catalina.mbeans,0.9382716049382716,org.apache.catalina.loader,0.9540229885057471
org.apache.catalina.mbeans,0.9382716049382716,org.apache.catalina.realm,0.9432624113475178
org.apache.jasper.util,0.8,org.apache.jasper.compiler,0.8984771573604061
org.apache.catalina.tribes.io,0.5223880597014925,org.apache.catalina.tribes.membership,0.8620689655172413
org.apache.tomcat.util.http,0.5421686746987951,org.apache.tomcat.util.http.parser,0.8064516129032258
org.apache.catalina.deploy,0.8163265306122449,org.apache.catalina.mbeans,0.9382716049382716
org.eclipse.jdt.internal.compiler.codegen,0.4322033898305085,org.eclipse.jdt.internal.compiler.util,0.43410852713178294
org.eclipse.jdt.internal.compiler.codegen,0.4322033898305085,org.eclipse.jdt.internal.compiler.ast,0.6700507614213198
org.eclipse.jdt.internal.compiler.codegen,0.4322033898305085,org.eclipse.jdt.internal.compiler,0.4472573839662447
org.eclipse.jdt.internal.compiler.codegen,0.4322033898305085,org.eclipse.jdt.internal.compiler.classfmt,0.8142857142857143
org.apache.catalina.authenticator,0.9555555555555556,org.apache.catalina.authenticator.jaspic,0.9795918367346939
javax.servlet,0.16875,javax.servlet.annotation,0.4
org.apache.coyote,0.4956521739130435,org.apache.tomcat.util.net,0.7272727272727273
org.apache.coyote,0.4956521739130435,org.apache.tomcat.util.modeler,0.6818181818181818
org.apache.coyote,0.4956521739130435,org.apache.tomcat.util.collections,0.5135135135135135
org.apache.coyote,0.4956521739130435,org.apache.tomcat.util.http,0.5421686746987951
org.apache.coyote,0.4956521739130435,org.apache.tomcat.util.http.parser,0.8064516129032258
org.apache.catalina.core,0.9262536873156342,org.apache.naming.factory,0.9838709677419355
org.apache.catalina.core,0.9262536873156342,org.apache.catalina.session,0.9333333333333333
org.apache.catalina.core,0.9262536873156342,org.apache.catalina.webresources,0.971830985915493
org.apache.catalina.core,0.9262536873156342,org.apache.catalina.mbeans,0.9382716049382716
org.apache.catalina.core,0.9262536873156342,org.apache.catalina.startup,0.9668508287292817
org.apache.catalina.core,0.9262536873156342,org.apache.catalina.realm,0.9432624113475178
org.apache.catalina.core,0.9262536873156342,org.apache.catalina.loader,0.9540229885057471
