UnstableDependenciesPackage,InstabilityUnstableDependenciesPackage,CorrelatedPackage,InstabilityCorrelatedPackage
org.eclipse.jdt.core.compiler,0.05517241379310345,org.eclipse.jdt.internal.compiler.parser,0.9056603773584906
org.eclipse.jdt.internal.compiler.lookup,0.388,org.eclipse.jdt.internal.compiler.codegen,0.4322033898305085
org.eclipse.jdt.internal.compiler.lookup,0.388,org.eclipse.jdt.internal.compiler.classfmt,0.7857142857142857
org.eclipse.jdt.internal.compiler.lookup,0.388,org.eclipse.jdt.internal.compiler,0.45454545454545453
org.eclipse.jdt.internal.compiler.lookup,0.388,org.eclipse.jdt.internal.compiler.ast,0.6702702702702703
org.eclipse.jdt.internal.compiler.lookup,0.388,org.eclipse.jdt.internal.compiler.util,0.4462809917355372
org.eclipse.jdt.internal.compiler.lookup,0.388,org.eclipse.jdt.internal.compiler.problem,0.4267241379310345
org.eclipse.jdt.internal.compiler.codegen,0.4322033898305085,org.eclipse.jdt.internal.compiler.classfmt,0.7857142857142857
org.eclipse.jdt.internal.compiler.codegen,0.4322033898305085,org.eclipse.jdt.internal.compiler.ast,0.6702702702702703
org.eclipse.jdt.internal.compiler.codegen,0.4322033898305085,org.eclipse.jdt.internal.compiler,0.45454545454545453
org.eclipse.jdt.internal.compiler.codegen,0.4322033898305085,org.eclipse.jdt.internal.compiler.util,0.4462809917355372
org.eclipse.jdt.internal.compiler.flow,0.38095238095238093,org.eclipse.jdt.internal.compiler.codegen,0.4322033898305085
org.eclipse.jdt.internal.compiler.flow,0.38095238095238093,org.eclipse.jdt.internal.compiler.problem,0.4267241379310345
org.eclipse.jdt.internal.compiler.flow,0.38095238095238093,org.eclipse.jdt.internal.compiler.ast,0.6702702702702703
org.eclipse.jdt.internal.compiler.flow,0.38095238095238093,org.eclipse.jdt.internal.compiler.lookup,0.388
org.eclipse.jdt.internal.compiler.problem,0.4267241379310345,org.eclipse.jdt.internal.compiler.parser,0.9056603773584906
org.eclipse.jdt.internal.compiler.problem,0.4267241379310345,org.eclipse.jdt.internal.compiler,0.45454545454545453
org.eclipse.jdt.internal.compiler.problem,0.4267241379310345,org.eclipse.jdt.internal.compiler.ast,0.6702702702702703
org.eclipse.jdt.internal.compiler.problem,0.4267241379310345,org.eclipse.jdt.internal.compiler.util,0.4462809917355372
javax.servlet.jsp,0.1388888888888889,javax.servlet,0.16770186335403728
org.eclipse.jdt.internal.compiler.impl,0.20238095238095238,org.eclipse.jdt.internal.compiler.lookup,0.388
org.eclipse.jdt.internal.compiler.impl,0.20238095238095238,org.eclipse.jdt.internal.compiler.util,0.4462809917355372
org.eclipse.jdt.internal.compiler.impl,0.20238095238095238,org.eclipse.jdt.internal.compiler.ast,0.6702702702702703
org.eclipse.jdt.internal.compiler.impl,0.20238095238095238,org.eclipse.jdt.internal.compiler.problem,0.4267241379310345
