UnstableDependenciesPackage,InstabilityUnstableDependenciesPackage,CorrelatedPackage,InstabilityCorrelatedPackage
org.apache.catalina.tribes,0.19298245614035087,org.apache.catalina.tribes.util,0.6086956521739131
org.apache.catalina.connector,0.6086956521739131,org.apache.catalina.core,0.889344262295082
org.apache.catalina.connector,0.6086956521739131,org.apache.catalina.realm,0.9494949494949495
org.apache.catalina.connector,0.6086956521739131,org.apache.tomcat.util.net,0.8035714285714286
org.apache.catalina.connector,0.6086956521739131,org.apache.catalina.security,0.631578947368421
org.apache.catalina.connector,0.6086956521739131,org.apache.tomcat.util.http.mapper,0.65
org.eclipse.jdt.internal.compiler.env,0.08823529411764706,org.eclipse.jdt.core.compiler,0.12727272727272726
org.apache.jasper,0.6363636363636364,org.apache.jasper.servlet,0.9056603773584906
org.apache.jasper,0.6363636363636364,org.apache.jasper.compiler,0.9011627906976745
org.eclipse.jdt.internal.compiler.problem,0.39344262295081966,org.eclipse.jdt.internal.compiler.ast,0.6585365853658537
org.eclipse.jdt.internal.compiler.problem,0.39344262295081966,org.eclipse.jdt.internal.compiler.parser,0.8941176470588236
org.eclipse.jdt.internal.compiler.problem,0.39344262295081966,org.eclipse.jdt.internal.compiler.util,0.4794520547945205
org.eclipse.jdt.internal.compiler.problem,0.39344262295081966,org.eclipse.jdt.internal.compiler,0.49295774647887325
org.eclipse.jdt.internal.compiler.parser,0.8941176470588236,org.eclipse.jdt.internal.compiler.parser.diagnose,0.9375
org.apache.catalina.ha,0.38235294117647056,org.apache.catalina.util,0.4433497536945813
org.apache.catalina.ha,0.38235294117647056,org.apache.tomcat.util.digester,0.5111111111111111
org.apache.catalina.util,0.4433497536945813,javax.ejb,0.75
org.apache.catalina.util,0.4433497536945813,javax.annotation,0.6666666666666666
org.apache.catalina.util,0.4433497536945813,javax.xml.ws,0.75
org.apache.catalina.util,0.4433497536945813,javax.persistence,0.8
org.apache.catalina.util,0.4433497536945813,org.apache.catalina.core,0.889344262295082
org.apache.catalina.util,0.4433497536945813,org.apache.naming.resources,0.8714285714285714
org.apache.catalina.util,0.4433497536945813,org.apache.tomcat.util.digester,0.5111111111111111
org.apache.catalina.ha.session,0.9770114942528736,org.apache.catalina.ha.tcp,0.9827586206896551
org.apache.catalina.security,0.631578947368421,org.apache.catalina.startup,0.9534883720930233
org.apache.catalina.tribes.transport,0.6923076923076923,org.apache.catalina.tribes.transport.nio,0.9607843137254902
org.apache.tomcat.util.net,0.8035714285714286,org.apache.tomcat.util.net.jsse,0.9772727272727273
org.apache.jk.core,0.5952380952380952,org.apache.jk.common,0.9866666666666667
org.apache.tomcat.util.digester,0.5111111111111111,org.apache.tomcat.util,0.5588235294117647
org.apache.el,0.8260869565217391,org.apache.el.parser,0.94
org.apache.tomcat.util.modeler,0.4957983193277311,org.apache.tomcat.util.modeler.modules,0.9591836734693877
org.eclipse.jdt.internal.compiler.ast,0.6585365853658537,org.eclipse.jdt.internal.compiler.parser,0.8941176470588236
org.apache.catalina.valves,0.8695652173913043,org.apache.catalina.core,0.889344262295082
org.apache.catalina.valves,0.8695652173913043,org.apache.catalina.session,0.9052631578947369
org.apache.jasper.compiler,0.9011627906976745,org.apache.jasper.servlet,0.9056603773584906
org.apache.jasper.compiler,0.9011627906976745,org.apache.jasper.runtime,0.9611650485436893
org.apache.jasper.compiler,0.9011627906976745,org.eclipse.jdt.internal.compiler.classfmt,0.9148936170212766
org.apache.el.util,0.6,org.apache.el.lang,0.7575757575757576
org.apache.catalina.tribes.util,0.6086956521739131,org.apache.catalina.tribes.membership,0.8125
org.apache.catalina.tribes.util,0.6086956521739131,org.apache.catalina.tribes.group,0.7142857142857143
org.apache.catalina.tribes.io,0.5238095238095238,org.apache.catalina.tribes.util,0.6086956521739131
org.apache.catalina.tribes.io,0.5238095238095238,org.apache.catalina.tribes.membership,0.8125
org.apache.coyote.http11.filters,0.7857142857142857,org.apache.coyote.http11,0.9108910891089109
org.apache.tomcat.util.http,0.6031746031746031,org.apache.tomcat.util.collections,0.9285714285714286
org.eclipse.jdt.core.compiler,0.12727272727272726,org.eclipse.jdt.internal.compiler.parser,0.8941176470588236
org.eclipse.jdt.internal.compiler.lookup,0.3707865168539326,org.eclipse.jdt.internal.compiler.codegen,0.3786407766990291
org.eclipse.jdt.internal.compiler.lookup,0.3707865168539326,org.eclipse.jdt.internal.compiler.util,0.4794520547945205
org.eclipse.jdt.internal.compiler.lookup,0.3707865168539326,org.eclipse.jdt.internal.compiler.problem,0.39344262295081966
org.eclipse.jdt.internal.compiler.lookup,0.3707865168539326,org.eclipse.jdt.internal.compiler,0.49295774647887325
org.eclipse.jdt.internal.compiler.lookup,0.3707865168539326,org.eclipse.jdt.internal.compiler.ast,0.6585365853658537
org.apache.catalina.deploy,0.375,org.apache.catalina.util,0.4433497536945813
org.eclipse.jdt.internal.compiler.codegen,0.3786407766990291,org.eclipse.jdt.internal.compiler.classfmt,0.9148936170212766
org.eclipse.jdt.internal.compiler.codegen,0.3786407766990291,org.eclipse.jdt.internal.compiler.ast,0.6585365853658537
org.eclipse.jdt.internal.compiler.codegen,0.3786407766990291,org.eclipse.jdt.internal.compiler.problem,0.39344262295081966
org.eclipse.jdt.internal.compiler.codegen,0.3786407766990291,org.eclipse.jdt.internal.compiler.util,0.4794520547945205
org.eclipse.jdt.internal.compiler.codegen,0.3786407766990291,org.eclipse.jdt.internal.compiler,0.49295774647887325
org.eclipse.jdt.internal.core.util,0.75,org.eclipse.jdt.internal.compiler.parser,0.8941176470588236
org.eclipse.jdt.internal.compiler.impl,0.2112676056338028,org.eclipse.jdt.internal.compiler.problem,0.39344262295081966
org.eclipse.jdt.internal.compiler.impl,0.2112676056338028,org.eclipse.jdt.internal.compiler.util,0.4794520547945205
org.eclipse.jdt.internal.compiler.impl,0.2112676056338028,org.eclipse.jdt.internal.compiler.ast,0.6585365853658537
org.eclipse.jdt.internal.compiler.impl,0.2112676056338028,org.eclipse.jdt.internal.compiler.lookup,0.3707865168539326
org.apache.catalina,0.08387096774193549,org.apache.catalina.core,0.889344262295082
org.apache.catalina,0.08387096774193549,javax.servlet,0.14444444444444443
org.apache.jasper.servlet,0.9056603773584906,org.apache.jasper.runtime,0.9611650485436893
org.apache.tomcat.dbcp.dbcp,0.875,org.apache.tomcat.dbcp.jocl,0.9565217391304348
org.apache.tomcat.dbcp.dbcp,0.875,org.apache.tomcat.dbcp.pool.impl,0.9019607843137255
org.apache.el.lang,0.7575757575757576,org.apache.el.parser,0.94
org.apache.el.lang,0.7575757575757576,org.apache.el,0.8260869565217391
org.apache.coyote,0.21794871794871795,org.apache.tomcat.util.http,0.6031746031746031
org.apache.coyote,0.21794871794871795,org.apache.tomcat.util.buf,0.3185840707964602
org.eclipse.jdt.internal.compiler.flow,0.31746031746031744,org.eclipse.jdt.internal.compiler.codegen,0.3786407766990291
org.eclipse.jdt.internal.compiler.flow,0.31746031746031744,org.eclipse.jdt.internal.compiler.problem,0.39344262295081966
org.eclipse.jdt.internal.compiler.flow,0.31746031746031744,org.eclipse.jdt.internal.compiler.ast,0.6585365853658537
org.eclipse.jdt.internal.compiler.flow,0.31746031746031744,org.eclipse.jdt.internal.compiler.lookup,0.3707865168539326
org.apache.jasper.xmlparser,0.8695652173913043,org.apache.jasper.compiler,0.9011627906976745
org.apache.catalina.tribes.group,0.7142857142857143,org.apache.catalina.tribes.membership,0.8125
org.apache.catalina.tribes.group,0.7142857142857143,org.apache.catalina.tribes.transport.nio,0.9607843137254902
org.apache.catalina.tribes.group,0.7142857142857143,org.apache.catalina.tribes.group.interceptors,0.9649122807017544
org.eclipse.jdt.internal.compiler,0.49295774647887325,org.eclipse.jdt.internal.core.util,0.75
org.eclipse.jdt.internal.compiler,0.49295774647887325,org.eclipse.jdt.internal.compiler.ast,0.6585365853658537
org.eclipse.jdt.internal.compiler,0.49295774647887325,org.eclipse.jdt.internal.compiler.parser,0.8941176470588236
org.apache.catalina.core,0.889344262295082,org.apache.naming.factory,0.9777777777777777
org.apache.catalina.core,0.889344262295082,org.apache.catalina.startup,0.9534883720930233
org.apache.catalina.core,0.889344262295082,org.apache.catalina.session,0.9052631578947369
org.apache.catalina.core,0.889344262295082,org.apache.catalina.loader,0.9512195121951219
org.apache.catalina.core,0.889344262295082,org.apache.tomcat.util.modeler.modules,0.9591836734693877
org.apache.catalina.core,0.889344262295082,org.apache.catalina.realm,0.9494949494949495
