UnstableDependenciesPackage,InstabilityUnstableDependenciesPackage,CorrelatedPackage,InstabilityCorrelatedPackage
org.apache.catalina.session,0.8981481481481481,org.apache.catalina.realm,0.9369369369369369
org.apache.catalina.tribes,0.19298245614035087,org.apache.catalina.tribes.util,0.6226415094339622
org.apache.catalina.connector,0.6206896551724138,org.apache.tomcat.util.net,0.8135593220338984
org.apache.catalina.connector,0.6206896551724138,org.apache.catalina.security,0.6410256410256411
org.apache.catalina.connector,0.6206896551724138,org.apache.catalina.core,0.8964285714285715
org.apache.catalina.connector,0.6206896551724138,org.apache.tomcat.util.http.mapper,0.6818181818181818
org.apache.catalina.connector,0.6206896551724138,org.apache.catalina.realm,0.9369369369369369
org.apache.jasper,0.6451612903225806,org.apache.jasper.compiler,0.9080459770114943
org.apache.jasper,0.6451612903225806,org.apache.jasper.servlet,0.9107142857142857
org.eclipse.jdt.internal.compiler.problem,0.4238095238095238,org.eclipse.jdt.internal.compiler.util,0.4732142857142857
org.eclipse.jdt.internal.compiler.problem,0.4238095238095238,org.eclipse.jdt.internal.compiler.ast,0.6688311688311688
org.eclipse.jdt.internal.compiler.problem,0.4238095238095238,org.eclipse.jdt.internal.compiler,0.45622119815668205
org.eclipse.jdt.internal.compiler.problem,0.4238095238095238,org.eclipse.jdt.internal.compiler.parser,0.9144736842105263
org.eclipse.jdt.internal.compiler.batch,0.8901098901098901,org.eclipse.jdt.internal.compiler.parser,0.9144736842105263
org.eclipse.jdt.internal.compiler.parser,0.9144736842105263,org.eclipse.jdt.internal.compiler.parser.diagnose,0.9375
org.apache.tomcat.util.http.parser,0.9285714285714286,org.apache.tomcat.util.collections,0.9411764705882353
org.apache.catalina.ha,0.38235294117647056,org.apache.catalina.util,0.4469026548672566
org.apache.catalina.ha,0.38235294117647056,org.apache.tomcat.util.digester,0.5208333333333334
org.apache.catalina.util,0.4469026548672566,org.apache.tomcat.util.digester,0.5208333333333334
org.apache.catalina.util,0.4469026548672566,org.apache.catalina.core,0.8964285714285715
org.apache.catalina.util,0.4469026548672566,org.apache.naming.resources,0.88
org.apache.catalina.util,0.4469026548672566,javax.annotation,0.6666666666666666
org.apache.catalina.util,0.4469026548672566,javax.persistence,0.8
org.apache.catalina.util,0.4469026548672566,javax.xml.ws,0.75
org.apache.catalina.util,0.4469026548672566,javax.ejb,0.75
org.apache.catalina.ha.session,0.956989247311828,org.apache.catalina.ha.tcp,0.9830508474576272
org.apache.catalina.security,0.6410256410256411,org.apache.catalina.startup,0.9635036496350365
org.apache.catalina.tribes.transport,0.6923076923076923,org.apache.catalina.tribes.transport.nio,0.9607843137254902
org.apache.coyote.http11,0.9065420560747663,org.apache.tomcat.util.net.jsse,0.9344262295081968
org.apache.tomcat.util.net,0.8135593220338984,org.apache.tomcat.util.net.jsse,0.9344262295081968
org.eclipse.jdt.internal.compiler.util,0.4732142857142857,org.eclipse.jdt.internal.compiler.batch,0.8901098901098901
org.apache.jk.core,0.5952380952380952,org.apache.jk.common,0.974025974025974
org.apache.tomcat.util.digester,0.5208333333333334,org.apache.tomcat.util,0.5263157894736842
org.apache.el,0.8260869565217391,org.apache.el.parser,0.9444444444444444
org.apache.tomcat.util.modeler,0.49586776859504134,org.apache.tomcat.util.modeler.modules,0.9591836734693877
org.eclipse.jdt.internal.compiler.ast,0.6688311688311688,org.eclipse.jdt.internal.compiler.parser,0.9144736842105263
org.apache.catalina.valves,0.8918918918918919,org.apache.catalina.core,0.8964285714285715
org.apache.catalina.valves,0.8918918918918919,org.apache.catalina.session,0.8981481481481481
org.apache.jasper.compiler,0.9080459770114943,org.apache.jasper.servlet,0.9107142857142857
org.apache.jasper.compiler,0.9080459770114943,org.apache.jasper.runtime,0.9611650485436893
org.apache.el.util,0.6216216216216216,org.apache.el.lang,0.7571428571428571
org.apache.catalina.tribes.util,0.6226415094339622,org.apache.catalina.tribes.group,0.7258064516129032
org.apache.catalina.tribes.util,0.6226415094339622,org.apache.catalina.tribes.membership,0.8125
org.apache.catalina.tribes.io,0.5384615384615384,org.apache.catalina.tribes.util,0.6226415094339622
org.apache.catalina.tribes.io,0.5384615384615384,org.apache.catalina.tribes.membership,0.8125
org.apache.coyote.http11.filters,0.7931034482758621,org.apache.coyote.http11,0.9065420560747663
org.eclipse.jdt.core.compiler,0.05970149253731343,org.eclipse.jdt.internal.compiler.parser,0.9144736842105263
org.eclipse.jdt.internal.compiler.lookup,0.3488372093023256,org.eclipse.jdt.internal.compiler.ast,0.6688311688311688
org.eclipse.jdt.internal.compiler.lookup,0.3488372093023256,org.eclipse.jdt.internal.compiler.problem,0.4238095238095238
org.eclipse.jdt.internal.compiler.lookup,0.3488372093023256,org.eclipse.jdt.internal.compiler.util,0.4732142857142857
org.eclipse.jdt.internal.compiler.lookup,0.3488372093023256,org.eclipse.jdt.internal.compiler,0.45622119815668205
org.eclipse.jdt.internal.compiler.lookup,0.3488372093023256,org.eclipse.jdt.internal.compiler.codegen,0.39622641509433965
org.eclipse.jdt.internal.compiler.lookup,0.3488372093023256,org.eclipse.jdt.internal.compiler.flow,0.3717948717948718
org.apache.catalina.deploy,0.3333333333333333,org.apache.catalina.util,0.4469026548672566
org.eclipse.jdt.internal.compiler.codegen,0.39622641509433965,org.eclipse.jdt.internal.compiler.util,0.4732142857142857
org.eclipse.jdt.internal.compiler.codegen,0.39622641509433965,org.eclipse.jdt.internal.compiler,0.45622119815668205
org.eclipse.jdt.internal.compiler.codegen,0.39622641509433965,org.eclipse.jdt.internal.compiler.ast,0.6688311688311688
org.eclipse.jdt.internal.compiler.codegen,0.39622641509433965,org.eclipse.jdt.internal.compiler.problem,0.4238095238095238
org.eclipse.jdt.internal.compiler.codegen,0.39622641509433965,org.eclipse.jdt.internal.compiler.classfmt,0.8076923076923077
org.eclipse.jdt.internal.compiler.impl,0.19753086419753085,org.eclipse.jdt.internal.compiler.lookup,0.3488372093023256
org.eclipse.jdt.internal.compiler.impl,0.19753086419753085,org.eclipse.jdt.internal.compiler.ast,0.6688311688311688
org.eclipse.jdt.internal.compiler.impl,0.19753086419753085,org.eclipse.jdt.internal.compiler.problem,0.4238095238095238
org.eclipse.jdt.internal.compiler.impl,0.19753086419753085,org.eclipse.jdt.internal.compiler.util,0.4732142857142857
org.apache.catalina,0.08875739644970414,org.apache.catalina.core,0.8964285714285715
org.apache.catalina,0.08875739644970414,javax.servlet,0.13131313131313133
org.apache.jasper.servlet,0.9107142857142857,org.apache.jasper.runtime,0.9611650485436893
org.apache.catalina.startup,0.9635036496350365,org.apache.juli,0.9642857142857143
org.apache.tomcat.dbcp.dbcp,0.9016393442622951,org.apache.tomcat.dbcp.pool.impl,0.9090909090909091
org.apache.tomcat.dbcp.dbcp,0.9016393442622951,org.apache.tomcat.dbcp.jocl,0.9629629629629629
org.apache.el.lang,0.7571428571428571,org.apache.el.parser,0.9444444444444444
org.apache.el.lang,0.7571428571428571,org.apache.el,0.8260869565217391
org.apache.coyote,0.3076923076923077,org.apache.tomcat.util.buf,0.35714285714285715
org.apache.coyote,0.3076923076923077,org.apache.tomcat.util.http,0.6075949367088608
org.apache.coyote,0.3076923076923077,org.apache.tomcat.util.http.parser,0.9285714285714286
org.apache.coyote,0.3076923076923077,org.apache.tomcat.util.net,0.8135593220338984
org.eclipse.jdt.internal.compiler.flow,0.3717948717948718,org.eclipse.jdt.internal.compiler.problem,0.4238095238095238
org.eclipse.jdt.internal.compiler.flow,0.3717948717948718,org.eclipse.jdt.internal.compiler.ast,0.6688311688311688
org.eclipse.jdt.internal.compiler.flow,0.3717948717948718,org.eclipse.jdt.internal.compiler.codegen,0.39622641509433965
org.apache.jasper.xmlparser,0.88,org.apache.jasper.compiler,0.9080459770114943
org.eclipse.jdt.internal.compiler.apt.dispatch,0.8229166666666666,org.eclipse.jdt.internal.compiler.apt.model,0.9611650485436893
org.eclipse.jdt.internal.compiler.apt.dispatch,0.8229166666666666,org.eclipse.jdt.internal.compiler.batch,0.8901098901098901
org.eclipse.jdt.internal.compiler.apt.dispatch,0.8229166666666666,org.eclipse.jdt.internal.compiler.apt.util,0.9508196721311475
org.apache.catalina.tribes.group,0.7258064516129032,org.apache.catalina.tribes.group.interceptors,0.9672131147540983
org.apache.catalina.tribes.group,0.7258064516129032,org.apache.catalina.tribes.transport.nio,0.9607843137254902
org.apache.catalina.tribes.group,0.7258064516129032,org.apache.catalina.tribes.membership,0.8125
org.eclipse.jdt.internal.compiler,0.45622119815668205,org.eclipse.jdt.internal.compiler.ast,0.6688311688311688
org.eclipse.jdt.internal.compiler,0.45622119815668205,org.eclipse.jdt.internal.compiler.parser,0.9144736842105263
org.eclipse.jdt.internal.compiler,0.45622119815668205,org.eclipse.jdt.internal.compiler.util,0.4732142857142857
org.eclipse.jdt.internal.compiler,0.45622119815668205,org.eclipse.jdt.core,0.975609756097561
org.eclipse.jdt.internal.compiler,0.45622119815668205,org.eclipse.jdt.internal.compiler.classfmt,0.8076923076923077
org.apache.catalina.core,0.8964285714285715,org.apache.catalina.loader,0.9509803921568627
org.apache.catalina.core,0.8964285714285715,org.apache.catalina.session,0.8981481481481481
org.apache.catalina.core,0.8964285714285715,org.apache.catalina.startup,0.9635036496350365
org.apache.catalina.core,0.8964285714285715,org.apache.tomcat.util.modeler.modules,0.9591836734693877
org.apache.catalina.core,0.8964285714285715,org.apache.catalina.realm,0.9369369369369369
org.apache.catalina.core,0.8964285714285715,org.apache.naming.factory,0.9830508474576272
