Class,FanIn,FanOut,Total Dependences
org.apache.catalina.connector.Request,96,97,193
org.eclipse.jdt.internal.compiler.lookup.Scope,72,65,137
org.eclipse.jdt.internal.compiler.lookup.SourceTypeBinding,43,46,89
org.eclipse.jdt.internal.compiler.util.Util,45,38,83
org.eclipse.jdt.internal.compiler.problem.ProblemReporter,124,91,215
org.eclipse.jdt.internal.compiler.codegen.CodeStream,68,42,110
org.apache.tomcat.util.digester.Digester,63,44,107
