IdCycle,CycleType,ElementList
6102,clique,"org.apache.el,org.apache.el.lang,org.apache.el.parser,org.apache.el"
6103,clique,"org.apache.jasper.servlet,org.apache.jasper,org.apache.jasper.compiler,org.apache.jasper.servlet"
6208,chain,"org.apache.jasper,org.apache.jasper.compiler,org.apache.jasper.servlet,org.apache.jasper.xmlparser"
6209,star,"org.eclipse.jdt.internal.compiler,org.eclipse.jdt.internal.compiler.parser,org.eclipse.jdt.core.compiler,org.eclipse.jdt.internal.compiler.parser.diagnose"
6210,star,"org.apache.el.parser,org.apache.el.lang,org.apache.el.util,org.apache.el"
6211,chain,"org.apache.catalina.tribes.util,org.apache.catalina.tribes.io,org.apache.catalina.tribes.membership"
6212,chain,"org.apache.catalina.connector,org.apache.catalina.authenticator,org.apache.catalina.core"
6213,chain,"org.apache.catalina.tribes.util,org.apache.catalina.tribes.group,org.apache.catalina.tribes.group.interceptors"
6214,star,"org.apache.catalina.tribes.util,org.apache.catalina.tribes.group,org.apache.catalina.tribes,org.apache.catalina.tribes.membership"
6215,chain,"org.apache.tomcat.jdbc.pool,org.apache.tomcat.jdbc.pool.jmx,org.apache.tomcat.jdbc.pool.interceptor"
6216,chain,"org.eclipse.jdt.internal.compiler.impl,org.eclipse.jdt.internal.compiler.flow,org.eclipse.jdt.internal.compiler.ast"
