IdCycle,CycleType,ElementList
3878,clique,"org.eclipse.jdt.internal.compiler,org.eclipse.jdt.internal.compiler.problem,org.eclipse.jdt.internal.compiler.ast,org.eclipse.jdt.internal.compiler"
3879,clique,"org.eclipse.jdt.internal.compiler.parser,org.eclipse.jdt.internal.compiler,org.eclipse.jdt.internal.compiler.problem,org.eclipse.jdt.internal.compiler.ast,org.eclipse.jdt.internal.compiler.parser"
3880,clique,"org.eclipse.jdt.internal.compiler.parser,org.eclipse.jdt.internal.compiler,org.eclipse.jdt.internal.compiler.problem,org.eclipse.jdt.internal.compiler.parser"
3881,clique,"org.apache.jasper.servlet,org.apache.jasper,org.apache.jasper.compiler,org.apache.jasper.servlet"
3953,chain,"org.apache.catalina.tribes.membership,org.apache.catalina.tribes.io,org.apache.catalina.tribes.util"
3954,star,"org.apache.catalina.tribes.membership,org.apache.catalina.tribes.util,org.apache.catalina.tribes,org.apache.catalina.tribes.group"
3955,chain,"org.apache.el.lang,org.apache.el.parser,org.apache.el.util"
3956,chain,"org.apache.jasper.compiler,org.apache.jasper.xmlparser,org.apache.jasper,org.apache.jasper.servlet"
3957,star,"org.eclipse.jdt.internal.compiler.codegen,org.eclipse.jdt.internal.compiler.impl,org.eclipse.jdt.internal.compiler.util,org.eclipse.jdt.internal.compiler.lookup"
3958,chain,"org.eclipse.jdt.internal.compiler.flow,org.eclipse.jdt.internal.compiler.ast,org.eclipse.jdt.internal.compiler.parser,org.eclipse.jdt.internal.compiler,org.eclipse.jdt.internal.compiler.problem"
3959,star,"org.eclipse.jdt.internal.compiler.parser.diagnose,org.eclipse.jdt.core.compiler,org.eclipse.jdt.internal.compiler.parser,org.eclipse.jdt.internal.compiler"
3960,chain,"org.apache.catalina,org.apache.catalina.valves,org.apache.catalina.core"
3961,chain,"org.apache.catalina.tribes.group.interceptors,org.apache.catalina.tribes.util,org.apache.catalina.tribes.group"
