IdCycle,CycleType,ElementList
4482,circle,"org.apache.catalina.core.ApplicationDispatcher,org.apache.catalina.core.ApplicationContext,org.apache.catalina.core.StandardWrapperFacade,org.apache.catalina.core.StandardWrapper,org.apache.catalina.core.ApplicationDispatcher"
4483,circle,"org.apache.catalina.realm.RealmBase,org.apache.catalina.realm.JAASRealm,org.apache.catalina.core.StandardEngine,org.apache.catalina.connector.Connector,org.apache.catalina.realm.RealmBase"
4484,circle,"org.apache.catalina.core.StandardService,org.apache.catalina.core.StandardEngine,org.apache.catalina.connector.Connector,org.apache.catalina.core.StandardService"
4485,circle,"org.apache.catalina.session.ManagerBase,org.apache.catalina.session.StandardManager,org.apache.catalina.core.StandardContext,org.apache.catalina.session.ManagerBase"
4486,circle,"org.eclipse.jdt.internal.compiler.flow.FlowContext,org.eclipse.jdt.internal.compiler.flow.TryFlowContext,org.eclipse.jdt.internal.compiler.flow.InsideSubRoutineFlowContext,org.eclipse.jdt.internal.compiler.flow.FlowContext"
4487,circle,"org.apache.catalina.realm.MemoryRealm,org.apache.catalina.realm.MemoryUserRule,org.apache.catalina.realm.MemoryRuleSet,org.apache.catalina.realm.MemoryRealm"
4488,circle,"org.apache.jasper.compiler.TextOptimizer$TextCatVisitor,org.apache.jasper.compiler.TextOptimizer,org.apache.jasper.compiler.Compiler,org.apache.jasper.compiler.TextOptimizer$TextCatVisitor"
4489,clique,"org.apache.catalina.connector.Request,org.apache.catalina.connector.Connector,org.apache.catalina.connector.Response,org.apache.catalina.connector.Request"
4490,clique,"org.eclipse.jdt.internal.compiler.lookup.ParameterizedTypeBinding,org.eclipse.jdt.internal.compiler.lookup.TypeVariableBinding,org.eclipse.jdt.internal.compiler.lookup.ReferenceBinding,org.eclipse.jdt.internal.compiler.lookup.ParameterizedTypeBinding"
4491,clique,"org.eclipse.jdt.internal.compiler.lookup.LocalVariableBinding,org.eclipse.jdt.internal.compiler.lookup.MethodScope,org.eclipse.jdt.internal.compiler.lookup.BlockScope,org.eclipse.jdt.internal.compiler.lookup.LocalVariableBinding"
4492,clique,"org.eclipse.jdt.internal.compiler.lookup.MethodBinding,org.eclipse.jdt.internal.compiler.lookup.LocalVariableBinding,org.eclipse.jdt.internal.compiler.lookup.MethodScope,org.eclipse.jdt.internal.compiler.lookup.MethodBinding"
4493,clique,"org.eclipse.jdt.internal.compiler.parser.RecoveredMethod,org.eclipse.jdt.internal.compiler.parser.RecoveredType,org.eclipse.jdt.internal.compiler.parser.RecoveredElement,org.eclipse.jdt.internal.compiler.parser.RecoveredMethod"
4494,clique,"org.eclipse.jdt.internal.compiler.parser.RecoveredInitializer,org.eclipse.jdt.internal.compiler.parser.RecoveredType,org.eclipse.jdt.internal.compiler.parser.RecoveredElement,org.eclipse.jdt.internal.compiler.parser.RecoveredInitializer"
4495,clique,"org.eclipse.jdt.internal.compiler.parser.Parser,org.eclipse.jdt.internal.compiler.ast.MethodDeclaration,org.eclipse.jdt.internal.compiler.ast.TypeDeclaration,org.eclipse.jdt.internal.compiler.parser.Parser"
4496,clique,"org.eclipse.jdt.internal.compiler.problem.ProblemReporter,org.eclipse.jdt.internal.compiler.lookup.ClassScope,org.eclipse.jdt.internal.compiler.lookup.SourceTypeBinding,org.eclipse.jdt.internal.compiler.problem.ProblemReporter"
4497,clique,"org.eclipse.jdt.internal.compiler.lookup.LookupEnvironment,org.eclipse.jdt.internal.compiler.lookup.PackageBinding,org.eclipse.jdt.internal.compiler.lookup.UnresolvedReferenceBinding,org.eclipse.jdt.internal.compiler.lookup.LookupEnvironment"
4498,clique,"org.apache.jasper.servlet.JspServletWrapper,org.apache.jasper.compiler.JspRuntimeContext,org.apache.jasper.JspCompilationContext,org.apache.jasper.servlet.JspServletWrapper"
4500,chain,"org.eclipse.jdt.internal.compiler.lookup.BinaryTypeBinding,org.eclipse.jdt.internal.compiler.lookup.UnresolvedAnnotationBinding,org.eclipse.jdt.internal.compiler.lookup.WildcardBinding"
4501,star,"org.apache.tomcat.util.net.NioEndpoint$TaskThreadFactory,org.apache.tomcat.util.net.NioEndpoint$Worker,org.apache.tomcat.util.net.NioEndpoint$Acceptor,org.apache.tomcat.util.net.NioEndpoint,org.apache.tomcat.util.net.NioEndpoint$Poller"
4502,chain,"org.apache.coyote.http11.Http11NioProtocol,org.apache.coyote.http11.Http11NioProtocol$Http11ConnectionHandler,org.apache.coyote.http11.Http11NioProtocol$Http11ConnectionHandler$1"
4503,star,"org.apache.catalina.connector.CometEventImpl,org.apache.catalina.connector.Connector,org.apache.catalina.connector.RequestFacade,org.apache.catalina.connector.Request"
4504,star,"org.apache.catalina.connector.Connector,org.apache.catalina.connector.ResponseFacade,org.apache.catalina.connector.Response$2,org.apache.catalina.connector.Response"
4505,star,"org.apache.jasper.runtime.JspFactoryImpl,org.apache.jasper.runtime.JspFactoryImpl$PrivilegedGetPageContext,org.apache.jasper.runtime.JspFactoryImpl$PrivilegedReleasePageContext,org.apache.jasper.runtime.JspFactoryImpl$PageContextPool"
4506,star,"org.apache.jasper.runtime.PageContextImpl,org.apache.jasper.runtime.PageContextImpl$11,org.apache.jasper.runtime.PageContextImpl$10,org.apache.jasper.runtime.PageContextImpl$12,org.apache.jasper.runtime.PageContextImpl$1,org.apache.jasper.runtime.PageContextImpl$2,org.apache.jasper.runtime.PageContextImpl$3,org.apache.jasper.runtime.PageContextImpl$4,org.apache.jasper.runtime.PageContextImpl$5,org.apache.jasper.runtime.PageContextImpl$6,org.apache.jasper.runtime.PageContextImpl$7,org.apache.jasper.runtime.PageContextImpl$8,org.apache.jasper.runtime.JspRuntimeLibrary,org.apache.jasper.runtime.PageContextImpl$9"
4507,star,"org.apache.tomcat.util.digester.Digester$SystemPropertySource,org.apache.tomcat.util.digester.PathCallParamRule,org.apache.tomcat.util.digester.CallMethodRule,org.apache.tomcat.util.digester.CallParamRule,org.apache.tomcat.util.digester.SetNextRule,org.apache.tomcat.util.digester.ObjectParamRule,org.apache.tomcat.util.digester.FactoryCreateRule,org.apache.tomcat.util.digester.ObjectCreateRule,org.apache.tomcat.util.digester.SetRootRule,org.apache.tomcat.util.digester.SetPropertiesRule,org.apache.tomcat.util.digester.SetPropertyRule,org.apache.tomcat.util.digester.SetTopRule,org.apache.tomcat.util.digester.Digester"
4508,chain,"org.eclipse.jdt.internal.compiler.ast.TypeDeclaration,org.eclipse.jdt.internal.compiler.parser.Parser,org.eclipse.jdt.internal.compiler.ast.MethodDeclaration"
4509,star,"javax.servlet.jsp.el.ImplicitObjectELResolver$ScopeManager$1,javax.servlet.jsp.el.ImplicitObjectELResolver$ScopeManager$2,javax.servlet.jsp.el.ImplicitObjectELResolver$ScopeManager$3,javax.servlet.jsp.el.ImplicitObjectELResolver$ScopeManager$4,javax.servlet.jsp.el.ImplicitObjectELResolver$ScopeManager$5,javax.servlet.jsp.el.ImplicitObjectELResolver$ScopeManager$6,javax.servlet.jsp.el.ImplicitObjectELResolver$ScopeManager$7,javax.servlet.jsp.el.ImplicitObjectELResolver$ScopeManager$8,javax.servlet.jsp.el.ImplicitObjectELResolver$ScopeManager$9,javax.servlet.jsp.el.ImplicitObjectELResolver$ScopeManager$10,javax.servlet.jsp.el.ImplicitObjectELResolver$ScopeManager"
4510,chain,"org.apache.catalina.core.ApplicationDispatcher,org.apache.catalina.core.ApplicationDispatcher$PrivilegedInclude,org.apache.catalina.core.ApplicationDispatcher$PrivilegedForward"
4511,star,"org.apache.jk.common.ChannelNioSocket$Poller,org.apache.jk.common.ChannelNioSocket,org.apache.jk.common.ChannelNioSocket$SocketInputStream,org.apache.jk.common.ChannelNioSocket$SocketOutputStream"
4512,chain,"org.apache.jk.core.WorkerEnv,org.apache.jk.common.JkInputStream,org.apache.jk.core.MsgContext,org.apache.jk.core.JkHandler"
4513,chain,"org.apache.tomcat.util.threads.ThreadPool,org.apache.tomcat.util.threads.ThreadPool$ControlRunnable,org.apache.tomcat.util.threads.ThreadPool$MonitorRunnable"
4514,star,"org.apache.catalina.valves.ExtendedAccessLogValve$8,org.apache.catalina.valves.ExtendedAccessLogValve$ResponseAllHeaderElement,org.apache.catalina.valves.ExtendedAccessLogValve$5,org.apache.catalina.valves.ExtendedAccessLogValve$RequestParameterElement,org.apache.catalina.valves.ExtendedAccessLogValve$6,org.apache.catalina.valves.ExtendedAccessLogValve$9,org.apache.catalina.valves.ExtendedAccessLogValve$12,org.apache.catalina.valves.ExtendedAccessLogValve$10,org.apache.catalina.valves.ExtendedAccessLogValve$ServletContextElement,org.apache.catalina.valves.ExtendedAccessLogValve$11,org.apache.catalina.valves.ExtendedAccessLogValve$14,org.apache.catalina.valves.ExtendedAccessLogValve$CookieElement,org.apache.catalina.valves.ExtendedAccessLogValve$RequestAttributeElement,org.apache.catalina.valves.ExtendedAccessLogValve$ResponseHeaderElement,org.apache.catalina.valves.ExtendedAccessLogValve$RequestHeaderElement,org.apache.catalina.valves.ExtendedAccessLogValve,org.apache.catalina.valves.ExtendedAccessLogValve$4,org.apache.catalina.valves.ExtendedAccessLogValve$SessionAttributeElement,org.apache.catalina.valves.ExtendedAccessLogValve$7"
4515,star,"org.apache.catalina.tribes.membership.McastServiceImpl,org.apache.catalina.tribes.membership.McastServiceImpl$ReceiverThread,org.apache.catalina.tribes.membership.McastServiceImpl$SenderThread,org.apache.catalina.tribes.membership.McastService"
4516,chain,"org.apache.coyote.RequestGroupInfo,org.apache.coyote.Request,org.apache.coyote.RequestInfo"
4517,star,"org.apache.catalina.users.MemoryUserCreationFactory,org.apache.catalina.users.MemoryGroupCreationFactory,org.apache.catalina.users.MemoryGroup,org.apache.catalina.users.MemoryRoleCreationFactory,org.apache.catalina.users.MemoryUserDatabase"
4518,chain,"org.apache.tomcat.util.buf.StringCache,org.apache.tomcat.util.buf.ByteChunk,org.apache.tomcat.util.buf.CharChunk,org.apache.tomcat.util.buf.B2CConverter"
4519,star,"org.apache.juli.ClassLoaderLogManager$Cleaner,org.apache.juli.ClassLoaderLogManager$2,org.apache.juli.ClassLoaderLogManager$LogNode,org.apache.juli.ClassLoaderLogManager"
4520,star,"org.eclipse.jdt.internal.compiler.apt.dispatch.HookedJavaFileObject,org.eclipse.jdt.internal.compiler.apt.dispatch.HookedJavaFileObject$ForwardingOutputStream,org.eclipse.jdt.internal.compiler.apt.dispatch.HookedJavaFileObject$ForwardingWriter,org.eclipse.jdt.internal.compiler.apt.dispatch.BatchFilerImpl"
4521,star,"org.apache.jasper.compiler.ParserController,org.apache.jasper.compiler.JspDocumentParser,org.apache.jasper.compiler.Parser,org.apache.jasper.compiler.Compiler"
4522,chain,"org.apache.tomcat.util.http.ValuesEnumerator,org.apache.tomcat.util.http.MimeHeaders,org.apache.tomcat.util.http.NamesEnumerator"
4523,chain,"org.eclipse.jdt.internal.compiler.lookup.LookupEnvironment,org.eclipse.jdt.internal.compiler.lookup.PackageBinding,org.eclipse.jdt.internal.compiler.lookup.MethodVerifier15"
4524,star,"org.eclipse.jdt.internal.compiler.lookup.ReferenceBinding,org.eclipse.jdt.internal.compiler.lookup.ReferenceBinding$1,org.eclipse.jdt.internal.compiler.lookup.ReferenceBinding$2,org.eclipse.jdt.internal.compiler.lookup.TypeVariableBinding,org.eclipse.jdt.internal.compiler.lookup.ReferenceBinding$3"
4525,star,"org.eclipse.jdt.internal.compiler.parser.RecoveredField,org.eclipse.jdt.internal.compiler.parser.RecoveredType,org.eclipse.jdt.internal.compiler.parser.RecoveredElement,org.eclipse.jdt.internal.compiler.parser.RecoveredInitializer,org.eclipse.jdt.internal.compiler.parser.RecoveredMethod"
4526,star,"org.eclipse.jdt.internal.compiler.ast.TypeDeclaration,org.eclipse.jdt.internal.compiler.lookup.MethodBinding,org.eclipse.jdt.internal.compiler.lookup.LocalVariableBinding,org.eclipse.jdt.internal.compiler.lookup.SyntheticMethodBinding"
4527,chain,"org.eclipse.jdt.internal.compiler.lookup.Scope$2,org.eclipse.jdt.internal.compiler.lookup.TypeBinding,org.eclipse.jdt.internal.compiler.lookup.BaseTypeBinding,org.eclipse.jdt.internal.compiler.lookup.Scope"
4528,chain,"org.eclipse.jdt.internal.compiler.lookup.ReferenceBinding,org.eclipse.jdt.internal.compiler.lookup.TypeVariableBinding,org.eclipse.jdt.internal.compiler.lookup.ParameterizedTypeBinding"
4529,chain,"org.eclipse.jdt.internal.compiler.lookup.MethodBinding,org.eclipse.jdt.internal.compiler.lookup.LocalVariableBinding,org.eclipse.jdt.internal.compiler.lookup.BlockScope,org.eclipse.jdt.internal.compiler.lookup.MethodScope"
4530,star,"org.eclipse.jdt.internal.compiler.ast.TypeDeclaration,org.eclipse.jdt.internal.compiler.lookup.MethodBinding,org.eclipse.jdt.internal.compiler.ast.MethodDeclaration,org.eclipse.jdt.internal.compiler.ast.Clinit"
4531,star,"org.apache.catalina.tribes.transport.nio.NioReplicationTask,org.apache.catalina.tribes.transport.nio.NioReplicationTask$1,org.apache.catalina.tribes.transport.nio.NioReplicationTask$2,org.apache.catalina.tribes.transport.nio.NioReceiver"
4532,chain,"org.eclipse.jdt.internal.compiler.lookup.ClassScope,org.eclipse.jdt.internal.compiler.problem.ProblemReporter,org.eclipse.jdt.internal.compiler.lookup.SourceTypeBinding"
4533,chain,"org.apache.catalina.session.StandardManager,org.apache.catalina.session.StandardManager$PrivilegedDoUnload,org.apache.catalina.session.StandardManager$PrivilegedDoLoad"
4534,chain,"org.eclipse.jdt.internal.compiler.batch.FileSystem,org.eclipse.jdt.internal.compiler.util.Util,org.eclipse.jdt.internal.compiler.batch.Main"
4535,star,"org.apache.tomcat.util.net.AprEndpoint$Worker,org.apache.tomcat.util.net.AprEndpoint,org.apache.tomcat.util.net.AprEndpoint$SocketWithOptionsProcessor,org.apache.tomcat.util.net.AprEndpoint$SocketProcessor,org.apache.tomcat.util.net.AprEndpoint$Poller,org.apache.tomcat.util.net.AprEndpoint$Acceptor,org.apache.tomcat.util.net.AprEndpoint$Sendfile,org.apache.tomcat.util.net.AprEndpoint$SocketEventProcessor"
4536,chain,"org.apache.coyote.ajp.AjpAprProtocol,org.apache.coyote.ajp.AjpAprProtocol$AjpConnectionHandler,org.apache.coyote.ajp.AjpAprProtocol$AjpConnectionHandler$1"
4537,chain,"org.apache.tomcat.util.net.NioBlockingSelector$BlockPoller,org.apache.tomcat.util.net.NioBlockingSelector$BlockPoller$2,org.apache.tomcat.util.net.NioBlockingSelector$BlockPoller$3"
4538,star,"org.apache.catalina.startup.ContextConfig,org.apache.catalina.startup.TldConfig,org.apache.catalina.core.StandardContext,org.apache.catalina.loader.WebappLoader,org.apache.catalina.util.ExtensionValidator,org.apache.catalina.core.StandardWrapper,org.apache.catalina.core.StandardContextValve"
4539,chain,"org.apache.coyote.http11.Http11Protocol,org.apache.coyote.http11.Http11Protocol$Http11ConnectionHandler,org.apache.coyote.http11.Http11Protocol$Http11ConnectionHandler$1"
4540,chain,"org.apache.jk.common.AprConnection,org.apache.jk.common.ChannelUn,org.apache.jk.common.AprAcceptor"
4541,chain,"org.apache.tomcat.dbcp.pool.impl.GenericKeyedObjectPool$Evictor,org.apache.tomcat.dbcp.pool.impl.GenericKeyedObjectPool$ObjectQueue,org.apache.tomcat.dbcp.pool.impl.GenericKeyedObjectPool"
4542,chain,"org.apache.tomcat.dbcp.pool.impl.CursorableLinkedList,org.apache.tomcat.dbcp.pool.impl.CursorableSubList,org.apache.tomcat.dbcp.pool.impl.CursorableLinkedList$Cursor"
4543,star,"org.apache.jk.config.WebXml2Jk,org.apache.jk.config.GeneratorJk2,org.apache.jk.config.GeneratorJk1,org.apache.jk.config.GeneratorApache2,org.apache.jk.config.WebXml2Jk$NullResolver"
4544,chain,"org.apache.tomcat.dbcp.pool.PoolUtils$ObjectPoolAdaptor,org.apache.tomcat.dbcp.pool.PoolUtils$KeyedObjectPoolAdaptor,org.apache.tomcat.dbcp.pool.PoolUtils"
4546,chain,"org.apache.tomcat.util.net.PoolTcpEndpoint,org.apache.tomcat.util.net.LeaderFollowerWorkerThread,org.apache.tomcat.util.net.MasterSlaveWorkerThread"
4547,chain,"org.apache.catalina.session.ManagerBase,org.apache.catalina.session.ManagerBase$PrivilegedSetRandomFile,org.apache.catalina.session.StandardSession"
4548,chain,"org.apache.catalina.core.StandardWrapperValve,org.apache.catalina.core.StandardContext,org.apache.catalina.core.StandardWrapper"
4549,chain,"org.apache.jasper.compiler.Node$Comment,org.apache.jasper.compiler.Node$NamedAttribute,org.apache.jasper.compiler.Node"
4550,chain,"org.apache.tomcat.dbcp.dbcp.DelegatingConnection,org.apache.tomcat.dbcp.dbcp.DelegatingDatabaseMetaData,org.apache.tomcat.dbcp.dbcp.DelegatingStatement,org.apache.tomcat.dbcp.dbcp.DelegatingResultSet"
4551,star,"org.apache.catalina.connector.CoyoteAdapter,org.apache.catalina.connector.Connector,org.apache.catalina.connector.MapperListener,org.apache.catalina.connector.Request,org.apache.catalina.connector.Response"
4552,chain,"org.apache.tomcat.util.buf.MessageBytes$MessageBytesFactory,org.apache.tomcat.util.buf.MessageBytes,org.apache.tomcat.util.buf.DateTool"
4553,chain,"org.eclipse.jdt.internal.compiler.parser.RecoveredType,org.eclipse.jdt.internal.compiler.parser.RecoveredBlock,org.eclipse.jdt.internal.compiler.parser.RecoveredMethod"
4554,star,"org.eclipse.jdt.internal.compiler.lookup.LookupEnvironment,org.eclipse.jdt.internal.compiler.util.HashtableOfPackage,org.eclipse.jdt.internal.compiler.lookup.PackageBinding,org.eclipse.jdt.internal.compiler.lookup.UnresolvedReferenceBinding"
4555,chain,"org.apache.catalina.authenticator.DigestAuthenticator$DigestInfo,org.apache.catalina.authenticator.DigestAuthenticator$1,org.apache.catalina.authenticator.DigestAuthenticator"
4556,star,"org.apache.el.lang.ELArithmetic$LongDelegate,org.apache.el.lang.ELArithmetic,org.apache.el.lang.ELArithmetic$DoubleDelegate,org.apache.el.lang.ELArithmetic$BigDecimalDelegate,org.apache.el.lang.ELArithmetic$BigIntegerDelegate"
4557,star,"org.apache.tomcat.util.net.NioChannel,org.apache.tomcat.util.net.NioEndpoint$PollerEvent,org.apache.tomcat.util.net.NioEndpoint,org.apache.tomcat.util.net.NioEndpoint$Poller"
4558,chain,"org.eclipse.jdt.internal.compiler.ast.QualifiedTypeReference,org.eclipse.jdt.internal.compiler.ast.ArrayTypeReference,org.eclipse.jdt.internal.compiler.ast.ArrayQualifiedTypeReference,org.eclipse.jdt.internal.compiler.ast.TypeReference,org.eclipse.jdt.internal.compiler.ast.SingleTypeReference"
4559,star,"org.eclipse.jdt.internal.compiler.ast.LocalDeclaration,org.eclipse.jdt.internal.compiler.ast.FakedTrackingVariable,org.eclipse.jdt.internal.compiler.ast.AllocationExpression,org.eclipse.jdt.internal.compiler.ast.Assignment"
4560,chain,"org.apache.el.ValueExpressionImpl,org.apache.el.MethodExpressionImpl,org.apache.el.lang.ExpressionBuilder"
4561,star,"org.eclipse.jdt.internal.compiler.parser.Parser$1$MethodVisitor,org.eclipse.jdt.internal.compiler.parser.Parser,org.eclipse.jdt.internal.compiler.parser.diagnose.DiagnoseParser,org.eclipse.jdt.internal.compiler.ast.MethodDeclaration,org.eclipse.jdt.internal.compiler.parser.JavadocParser"
4562,chain,"org.apache.jasper.servlet.JspServletWrapper,org.apache.jasper.compiler.Compiler,org.apache.jasper.compiler.JspRuntimeContext,org.apache.jasper.JspCompilationContext"
4563,chain,"org.apache.coyote.ajp.AjpAprProcessor,org.apache.coyote.ajp.AjpAprProcessor$SocketInputBuffer,org.apache.coyote.ajp.AjpAprProcessor$SocketOutputBuffer"
4564,chain,"org.eclipse.jdt.internal.compiler.flow.UnconditionalFlowInfo,org.eclipse.jdt.internal.compiler.flow.ConditionalFlowInfo,org.eclipse.jdt.internal.compiler.flow.FlowInfo"
4565,star,"org.eclipse.jdt.internal.compiler.ast.FieldDeclaration,org.eclipse.jdt.internal.compiler.codegen.BranchLabel,org.eclipse.jdt.internal.compiler.codegen.CodeStream,org.eclipse.jdt.internal.compiler.codegen.ExceptionLabel,org.eclipse.jdt.internal.compiler.ast.ExplicitConstructorCall,org.eclipse.jdt.internal.compiler.codegen.CaseLabel"
4566,star,"org.apache.jasper.compiler.ParserController,org.apache.jasper.compiler.Compiler,org.apache.jasper.compiler.Validator,org.apache.jasper.JspCompilationContext,org.apache.jasper.compiler.Collector"
4567,star,"org.eclipse.jdt.internal.compiler.impl.BooleanConstant,org.eclipse.jdt.internal.compiler.impl.FloatConstant,org.eclipse.jdt.internal.compiler.impl.CharConstant,org.eclipse.jdt.internal.compiler.impl.ByteConstant,org.eclipse.jdt.internal.compiler.impl.LongConstant,org.eclipse.jdt.internal.compiler.impl.ShortConstant,org.eclipse.jdt.internal.compiler.impl.DoubleConstant,org.eclipse.jdt.internal.compiler.impl.Constant,org.eclipse.jdt.internal.compiler.impl.StringConstant,org.eclipse.jdt.internal.compiler.impl.IntConstant"
4568,chain,"org.apache.coyote.http11.Http11AprProtocol,org.apache.coyote.http11.Http11AprProtocol$Http11ConnectionHandler$1,org.apache.coyote.http11.Http11AprProtocol$Http11ConnectionHandler"
4569,chain,"org.apache.catalina.tribes.io.ChannelData,org.apache.catalina.tribes.io.BufferPool,org.apache.catalina.tribes.io.XByteBuffer"
4570,star,"org.apache.jasper.compiler.Generator$GenerateVisitor$2ParamVisitor,org.apache.jasper.compiler.Generator$GenerateVisitor,org.apache.jasper.compiler.Generator$GenerateVisitor$1ParamVisitor,org.apache.jasper.compiler.Generator"
4571,chain,"org.apache.coyote.ajp.AjpProcessor,org.apache.coyote.ajp.AjpProcessor$SocketInputBuffer,org.apache.coyote.ajp.AjpProcessor$SocketOutputBuffer"
4572,star,"org.apache.tomcat.util.net.JIoEndpoint,org.apache.tomcat.util.net.JIoEndpoint$Acceptor,org.apache.tomcat.util.net.JIoEndpoint$Worker,org.apache.tomcat.util.net.JIoEndpoint$SocketProcessor"
4573,star,"org.apache.jasper.compiler.Validator$ValidateVisitor$1MapperELVisitor,org.apache.jasper.compiler.Validator$ValidateVisitor,org.apache.jasper.compiler.Validator,org.apache.jasper.compiler.Validator$ValidateVisitor$1FVVisitor"
4574,chain,"org.apache.jasper.compiler.Compiler,org.apache.jasper.compiler.Validator$ValidateVisitor,org.apache.jasper.compiler.Validator"
4575,star,"org.apache.catalina.core.ContainerBase$PrivilegedAddChild,org.apache.catalina.core.StandardPipeline,org.apache.catalina.core.ContainerBase,org.apache.catalina.core.ContainerBase$ContainerBackgroundProcessor"
4576,chain,"org.apache.catalina.startup.HostConfig,org.apache.catalina.core.StandardHost$MemoryLeakTrackingListener,org.apache.catalina.core.StandardHost"
4577,chain,"org.apache.catalina.servlets.CGIServlet$CGIEnvironment,org.apache.catalina.servlets.CGIServlet$CGIRunner,org.apache.catalina.servlets.CGIServlet,org.apache.catalina.servlets.CGIServlet$CGIRunner$1"
4578,chain,"org.apache.catalina.core.NamingContextListener,org.apache.catalina.ServerFactory,org.apache.catalina.core.StandardServer"
4579,chain,"org.eclipse.jdt.internal.compiler.apt.model.TypesImpl,org.eclipse.jdt.internal.compiler.apt.dispatch.BaseProcessingEnvImpl,org.eclipse.jdt.internal.compiler.apt.model.ElementsImpl"
4580,star,"org.eclipse.jdt.internal.compiler.apt.model.AnnotationMirrorImpl,org.eclipse.jdt.internal.compiler.apt.model.ErrorTypeElement,org.eclipse.jdt.internal.compiler.apt.model.PackageElementImpl,org.eclipse.jdt.internal.compiler.apt.model.TypeParameterElementImpl,org.eclipse.jdt.internal.compiler.apt.model.ExecutableTypeImpl,org.eclipse.jdt.internal.compiler.apt.model.DeclaredTypeImpl,org.eclipse.jdt.internal.compiler.apt.model.ArrayTypeImpl,org.eclipse.jdt.internal.compiler.apt.model.TypeVariableImpl,org.eclipse.jdt.internal.compiler.apt.model.ErrorTypeImpl,org.eclipse.jdt.internal.compiler.apt.model.WildcardTypeImpl,org.eclipse.jdt.internal.compiler.apt.model.Factory"
4581,chain,"org.apache.coyote.ajp.AjpProtocol$AjpConnectionHandler$1,org.apache.coyote.ajp.AjpProtocol,org.apache.coyote.ajp.AjpProtocol$AjpConnectionHandler"
4582,chain,"org.eclipse.jdt.internal.compiler.tool.EclipseCompilerImpl$3$1,org.eclipse.jdt.internal.compiler.tool.EclipseCompilerImpl$3$2,org.eclipse.jdt.internal.compiler.tool.EclipseCompilerImpl$3"
4583,chain,"org.eclipse.jdt.internal.compiler.ast.StringLiteral,org.eclipse.jdt.internal.compiler.ast.ExtendedStringLiteral,org.eclipse.jdt.internal.compiler.ast.StringLiteralConcatenation"
4584,star,"org.apache.jasper.compiler.Generator$GenerateVisitor,org.apache.jasper.compiler.Generator$FragmentHelperClass,org.apache.jasper.compiler.Generator$1ScriptingVarVisitor,org.apache.jasper.compiler.Generator$1DeclarationVisitor,org.apache.jasper.compiler.Generator,org.apache.jasper.compiler.JspUtil"
4585,chain,"org.apache.catalina.core.ApplicationFilterChain$1,org.apache.catalina.core.ApplicationFilterChain,org.apache.catalina.core.ApplicationFilterChain$2"
4586,chain,"org.apache.catalina.ha.session.DeltaSession,org.apache.catalina.ha.session.DeltaManager,org.apache.catalina.ha.tcp.ReplicationValve"
4587,chain,"org.apache.jk.common.ChannelSocket$SocketConnection,org.apache.jk.common.ChannelSocket$SocketAcceptor,org.apache.jk.common.ChannelSocket"
4588,star,"org.apache.catalina.ha.session.BackupManager,org.apache.catalina.ha.session.DeltaRequest,org.apache.catalina.ha.session.DeltaSession,org.apache.catalina.ha.session.DeltaManager"
4589,star,"org.eclipse.jdt.internal.compiler.batch.Main$5,org.eclipse.jdt.internal.compiler.util.Util,org.eclipse.jdt.internal.compiler.batch.Main,org.eclipse.jdt.internal.compiler.batch.Main$Logger,org.eclipse.jdt.internal.compiler.batch.Main$3"
4590,chain,"org.eclipse.jdt.internal.compiler.ast.FieldReference,org.eclipse.jdt.internal.compiler.ast.QualifiedNameReference,org.eclipse.jdt.internal.compiler.ast.SingleNameReference"
4591,chain,"org.apache.catalina.tribes.util.Arrays,org.apache.catalina.tribes.UniqueId,org.apache.catalina.tribes.membership.MemberImpl"
