Package,CA,CE,RMI,RMA,RMD
org.apache.tomcat.util.modeler,61.0,3.0,0.046875,0.06666666666666667,0.437465564738292
org.apache.catalina.mbeans,0.0,57.0,1.0,0.0,0.0
org.apache.catalina.deploy,30.0,3.0,0.09090909090909091,0.0,0.6666666666666667
javax.servlet.jsp.tagext,28.0,1.0,0.034482758620689655,0.5384615384615384,0.1444652908067543
org.apache.naming,18.0,2.0,0.1,0.05,0.2108695652173913
org.apache.catalina,154.0,3.0,0.01910828025477707,0.7857142857142857,0.12552831783601015
org.apache.catalina.valves,12.0,44.0,0.7857142857142857,0.03896103896103896,0.06914706914706914
org.apache.catalina.connector,77.0,70.0,0.47619047619047616,0.0,0.3793103448275862
org.apache.catalina.util,125.0,20.0,0.13793103448275862,0.0,0.5530973451327434
org.apache.juli.logging,303.0,0.0,0.0,0.25,0.7088607594936709
org.eclipse.jdt.internal.compiler.flow,49.0,24.0,0.3287671232876712,0.14285714285714285,0.4853479853479854
org.eclipse.jdt.internal.compiler.ast,51.0,86.0,0.6277372262773723,0.13793103448275862,0.19323779668607255
org.apache.tomcat.util.digester,46.0,5.0,0.09803921568627451,0.2413793103448276,0.237787356321839
org.apache.catalina.realm,7.0,34.0,0.8292682926829268,0.09523809523809523,0.03217503217503204
org.eclipse.jdt.internal.compiler,118.0,72.0,0.37894736842105264,0.1935483870967742,0.3502304147465438
org.eclipse.jdt.internal.compiler.parser,13.0,110.0,0.8943089430894309,0.19230769230769232,0.10678137651821862
org.apache.catalina.core,29.0,143.0,0.8313953488372093,0.02,0.08357142857142852
org.apache.naming.resources,9.0,10.0,0.5263157894736842,0.045454545454545456,0.07454545454545458
org.apache.tomcat.util.res,61.0,0.0,0.0,0.0,0.8133333333333334
org.apache.tomcat.util.http,31.0,9.0,0.225,0.0,0.3924050632911392
javax.servlet,86.0,0.0,0.0,0.68,0.18868686868686857
org.apache.tomcat.dbcp.pool.impl,5.0,9.0,0.6428571428571429,0.0,0.09090909090909094
org.apache.catalina.startup,5.0,63.0,0.9264705882352942,0.02,0.01649635036496344
org.apache.jk.core,17.0,10.0,0.37037037037037035,0.4,0.004761904761904745
org.apache.jk.common,2.0,27.0,0.9310344827586207,0.0,0.025974025974025983
org.apache.tomcat.util.threads,13.0,3.0,0.1875,0.3333333333333333,0.10000000000000009
org.apache.coyote,63.0,10.0,0.136986301369863,0.5384615384615384,0.15384615384615385
org.apache.coyote.memory,0.0,8.0,1.0,0.0,0.0
org.apache.tomcat.util.buf,81.0,3.0,0.03571428571428571,0.15384615384615385,0.48901098901098905
org.apache.juli,2.0,0.0,0.0,0.0,0.0357142857142857
org.eclipse.jdt.internal.compiler.apt.dispatch,17.0,34.0,0.6666666666666666,0.1875,0.010416666666666519
org.eclipse.jdt.internal.compiler.batch,10.0,32.0,0.7619047619047619,0.15789473684210525,0.048004626951995366
org.eclipse.jdt.internal.compiler.classfmt,10.0,21.0,0.6774193548387096,0.14285714285714285,0.0494505494505495
org.eclipse.jdt.internal.compiler.env,34.0,1.0,0.02857142857142857,0.7272727272727273,0.16746411483253587
org.eclipse.jdt.core.compiler,126.0,1.0,0.007874015748031496,0.6,0.34029850746268664
org.eclipse.jdt.internal.compiler.lookup,140.0,54.0,0.27835051546391754,0.1794871794871795,0.47167561121049495
org.eclipse.jdt.internal.compiler.problem,121.0,73.0,0.37628865979381443,0.1,0.47619047619047616
org.eclipse.jdt.internal.compiler.util,59.0,10.0,0.14492753623188406,0.07692307692307693,0.4498626373626373
org.apache.coyote.ajp,1.0,26.0,0.9629629629629629,0.0,0.019607843137254943
org.apache.tomcat.util.net,22.0,21.0,0.4883720930232558,0.16129032258064516,0.025150355385456513
org.apache.catalina.loader,5.0,21.0,0.8076923076923077,0.15384615384615385,0.10482654600301666
org.apache.tomcat.dbcp.pool,21.0,0.0,0.0,0.37037037037037035,0.16809116809116809
org.apache.catalina.session,11.0,33.0,0.75,0.13636363636363635,0.034511784511784604
org.apache.catalina.ha.session,4.0,44.0,0.9166666666666666,0.11764705882352941,0.07463630613535743
org.apache.catalina.ha,21.0,11.0,0.34375,0.7,0.08235294117647052
org.apache.catalina.tribes.io,30.0,5.0,0.14285714285714285,0.2,0.2615384615384615
org.apache.jasper.compiler,16.0,59.0,0.7866666666666666,0.0425531914893617,0.04940083149914409
org.apache.jasper.util,2.0,0.0,0.0,0.0,0.25
org.apache.catalina.manager.util,12.0,2.0,0.14285714285714285,0.3333333333333333,0.1282051282051282
org.apache.catalina.tribes.group,17.0,28.0,0.6222222222222222,0.13333333333333333,0.14086021505376345
org.apache.catalina.tribes.group.interceptors,2.0,24.0,0.9230769230769231,0.0,0.032786885245901676
org.apache.tomcat.dbcp.jocl,1.0,0.0,0.0,0.0,0.03703703703703709
org.apache.tomcat.util,36.0,2.0,0.05263157894736842,0.25,0.22368421052631582
org.apache.tomcat.util.http.mapper,7.0,5.0,0.4166666666666667,0.14285714285714285,0.17532467532467533
javax.el,46.0,0.0,0.0,0.3333333333333333,0.16129032258064524
org.apache.jasper.el,5.0,23.0,0.8214285714285714,0.0,0.13888888888888884
org.apache.naming.factory,1.0,6.0,0.8571428571428571,0.0,0.016949152542372836
org.apache.catalina.ssi,0.0,20.0,1.0,0.14285714285714285,0.1428571428571428
org.eclipse.jdt.internal.compiler.impl,65.0,5.0,0.07142857142857142,0.2,0.6024691358024692
org.apache.el.lang,17.0,21.0,0.5526315789473685,0.07142857142857142,0.17142857142857149
org.apache.el.parser,3.0,16.0,0.8421052631578947,0.1,0.04444444444444451
org.apache.jasper,33.0,16.0,0.32653061224489793,0.16666666666666666,0.18817204301075274
org.apache.jasper.runtime,4.0,52.0,0.9285714285714286,0.08333333333333333,0.0444983818770226
javax.servlet.jsp.el,9.0,10.0,0.5263157894736842,0.22727272727272727,0.022727272727272707
org.eclipse.jdt.internal.compiler.codegen,64.0,25.0,0.2808988764044944,0.13043478260869565,0.4733388022969647
org.apache.tomcat.util.collections,1.0,3.0,0.75,0.0,0.05882352941176472
org.apache.catalina.servlets,0.0,34.0,1.0,0.0,0.0
javax.servlet.http,72.0,8.0,0.1,0.5294117647058824,0.1696173615077099
org.apache.coyote.http11.filters,6.0,13.0,0.6842105263157895,0.0,0.2068965517241379
org.apache.tomcat.util.log,6.0,1.0,0.14285714285714285,0.0,0.4285714285714286
org.apache.tomcat.util.http.fileupload,1.0,1.0,0.5,0.25,0.2065217391304348
javax.servlet.jsp,28.0,2.0,0.06666666666666667,0.6666666666666666,0.18181818181818188
org.apache.catalina.tribes,46.0,1.0,0.02127659574468085,0.7,0.10701754385964923
org.apache.coyote.http11,10.0,58.0,0.8529411764705882,0.09090909090909091,0.0016835016835016203
org.apache.catalina.manager,0.0,34.0,1.0,0.0,0.0
org.apache.jasper.compiler.tagplugin,16.0,0.0,0.0,1.0,0.0
org.apache.jasper.tagplugins.jstl.core,0.0,3.0,1.0,0.0,0.0
javax.ejb,1.0,0.0,0.0,1.0,0.75
org.apache.jasper.xmlparser,6.0,10.0,0.625,0.0,0.12
org.apache.tomcat.util.descriptor,5.0,5.0,0.5,0.0,0.1785714285714286
org.apache.tomcat.util.security,8.0,0.0,0.0,0.3333333333333333,0.4666666666666667
org.eclipse.jdt.internal.compiler.tool,0.0,23.0,1.0,0.0,0.0
org.apache.tomcat.util.http.parser,4.0,1.0,0.2,0.0,0.23529411764705888
org.apache.catalina.authenticator,2.0,34.0,0.9444444444444444,0.07692307692307693,0.044136191677175196
org.apache.tomcat.jni,9.0,0.0,0.0,0.11764705882352941,0.4117647058823529
org.eclipse.jdt.internal.compiler.apt.model,4.0,30.0,0.8823529411764706,0.08333333333333333,0.0444983818770226
org.apache.catalina.ant,1.0,3.0,0.75,0.10526315789473684,0.07192982456140351
org.apache.el.util,14.0,4.0,0.2222222222222222,0.0,0.3783783783783784
org.apache.tomcat.dbcp.dbcp.datasources,0.0,7.0,1.0,0.25,0.25
org.apache.tomcat.dbcp.dbcp,6.0,8.0,0.5714285714285714,0.03571428571428571,0.06264637002341922
org.apache.catalina.filters,0.0,17.0,1.0,0.1111111111111111,0.11111111111111116
org.apache.el,4.0,12.0,0.75,0.0,0.17391304347826086
javax.annotation,2.0,0.0,0.0,0.8333333333333334,0.5
org.apache.catalina.security,14.0,8.0,0.36363636363636365,0.0,0.3589743589743589
javax.xml.ws,1.0,0.0,0.0,1.0,0.75
org.eclipse.jdt.core,1.0,4.0,0.8,0.0,0.024390243902439046
org.eclipse.jdt.internal.antadapter,3.0,0.0,0.0,0.0,0.33333333333333337
org.apache.catalina.ha.deploy,0.0,11.0,1.0,0.125,0.125
org.apache.tomcat.dbcp.dbcp.cpdsadapter,0.0,7.0,1.0,0.0,0.0
org.apache.jk.apr,4.0,5.0,0.5555555555555556,0.0,0.18181818181818177
org.apache.catalina.tribes.membership,9.0,10.0,0.5263157894736842,0.0,0.1875
org.apache.catalina.tribes.util,20.0,8.0,0.2857142857142857,0.0,0.37735849056603776
org.apache.catalina.ha.context,0.0,13.0,1.0,0.0,0.0
org.apache.tomcat.util.net.jsse,4.0,7.0,0.6363636363636364,0.0,0.06557377049180324
org.apache.catalina.ant.jmx,0.0,1.0,1.0,0.0,0.0
javax.annotation.security,1.0,0.0,0.0,1.0,0.75
org.apache.catalina.tribes.tipis,3.0,15.0,0.8333333333333334,0.5,0.42682926829268286
org.apache.jk.config,0.0,13.0,1.0,0.1,0.10000000000000009
org.apache.catalina.tribes.transport,12.0,10.0,0.45454545454545453,0.5833333333333334,0.27564102564102555
org.apache.catalina.tribes.transport.nio,2.0,22.0,0.9166666666666666,0.0,0.039215686274509776
org.apache.catalina.tribes.transport.bio,0.0,20.0,1.0,0.0,0.0
org.eclipse.jdt.internal.compiler.parser.diagnose,1.0,11.0,0.9166666666666666,0.0,0.0625
org.apache.jasper.tagplugins.jstl,4.0,5.0,0.5555555555555556,0.0,0.25
org.apache.commons.daemon,4.0,0.0,0.0,0.7142857142857143,0.4065934065934065
org.apache.commons.daemon.support,0.0,4.0,1.0,0.0,0.0
org.apache.tomcat.util.modeler.modules,2.0,11.0,0.8461538461538461,0.14285714285714285,0.1020408163265305
org.apache.jasper.servlet,5.0,24.0,0.8275862068965517,0.0,0.0892857142857143
org.apache.jasper.security,4.0,2.0,0.3333333333333333,0.0,0.36363636363636365
org.apache.jk.server,0.0,16.0,1.0,0.0,0.0
javax.persistence,1.0,0.0,0.0,0.8333333333333334,0.6333333333333333
org.apache.catalina.tribes.transport.bio.util,2.0,4.0,0.6666666666666666,0.0,0.2222222222222222
org.apache.catalina.users,0.0,10.0,1.0,0.25,0.25
org.apache,8.0,0.0,0.0,1.0,0.0
org.eclipse.jdt.internal.compiler.apt.util,3.0,9.0,0.75,0.0,0.049180327868852514
org.apache.catalina.ha.tcp,1.0,39.0,0.975,0.0,0.016949152542372836
org.apache.catalina.ha.util,1.0,0.0,0.0,1.0,0.0
org.apache.naming.resources.jndi,0.0,1.0,1.0,0.0,0.0
org.apache.catalina.manager.host,0.0,20.0,1.0,0.0,0.0
org.apache.tomcat.util.compat,2.0,1.0,0.3333333333333333,0.0,0.16666666666666663
org.apache.naming.java,0.0,3.0,1.0,0.0,0.0
org.apache.catalina.ha.authenticator,0.0,14.0,1.0,0.0,0.0
org.eclipse.jdt.core.compiler.batch,0.0,1.0,1.0,0.0,0.0
