Class,FanIn,FanOut,Total Dependences
org.apache.catalina.connector.Request,90,86,176
org.eclipse.jdt.internal.compiler.lookup.Scope,71,64,135
org.eclipse.jdt.internal.compiler.lookup.SourceTypeBinding,43,46,89
org.eclipse.jdt.internal.compiler.util.Util,43,38,81
org.eclipse.jdt.internal.compiler.problem.ProblemReporter,123,90,213
org.eclipse.jdt.internal.compiler.codegen.CodeStream,68,42,110
org.apache.tomcat.util.digester.Digester,61,50,111
