IdCycle,CycleType,ElementList
6123,clique,"org.eclipse.jdt.internal.compiler.flow,org.eclipse.jdt.internal.compiler.ast,org.eclipse.jdt.internal.compiler.lookup,org.eclipse.jdt.internal.compiler.flow"
6124,clique,"org.eclipse.jdt.internal.compiler.problem,org.eclipse.jdt.internal.compiler,org.eclipse.jdt.internal.compiler.parser,org.eclipse.jdt.internal.compiler.problem"
6125,clique,"org.apache.el,org.apache.el.lang,org.apache.el.parser,org.apache.el"
6126,clique,"org.apache.jasper.servlet,org.apache.jasper,org.apache.jasper.compiler,org.apache.jasper.servlet"
6234,chain,"org.eclipse.jdt.internal.compiler.ast,org.eclipse.jdt.internal.compiler.lookup,org.eclipse.jdt.internal.compiler.flow"
6235,star,"org.apache.el.lang,org.apache.el.util,org.apache.el,org.apache.el.parser"
6236,star,"org.eclipse.jdt.internal.compiler.codegen,org.eclipse.jdt.internal.compiler,org.eclipse.jdt.internal.compiler.parser,org.eclipse.jdt.internal.compiler.problem"
6237,chain,"org.apache.jasper.servlet,org.apache.jasper.xmlparser,org.apache.jasper.compiler,org.apache.jasper"
6238,star,"org.eclipse.jdt.internal.compiler,org.eclipse.jdt.internal.compiler.parser,org.eclipse.jdt.core.compiler,org.eclipse.jdt.internal.compiler.parser.diagnose"
6239,chain,"org.apache.catalina.tribes,org.apache.catalina.tribes.group,org.apache.catalina.tribes.group.interceptors,org.apache.catalina.tribes.util"
6240,chain,"org.apache.tomcat.jdbc.pool,org.apache.tomcat.jdbc.pool.jmx,org.apache.tomcat.jdbc.pool.interceptor"
