Package,CA,CE,RMI,RMA,RMD
org.apache.tomcat.util.modeler,28.0,3.0,0.0967741935483871,0.07692307692307693,0.24125874125874125
org.apache.catalina.mbeans,5.0,49.0,0.9074074074074074,0.0,0.06172839506172845
org.apache.tomcat.util.descriptor.web,23.0,28.0,0.5490196078431373,0.03571428571428571,0.23809523809523814
org.apache.tomcat.util.bcel.classfile,2.0,2.0,0.5,0.12727272727272726,0.047272727272727355
org.eclipse.jdt.internal.compiler.lookup,155.0,71.0,0.3141592920353982,0.14912280701754385,0.4611134134548971
javax.servlet.jsp.tagext,30.0,1.0,0.03225806451612903,0.5384615384615384,0.19324577861163228
org.apache.naming,12.0,2.0,0.14285714285714285,0.0,0.2142857142857143
org.apache.catalina,188.0,0.0,0.0,0.8297872340425532,0.10553614904202391
org.apache.catalina.valves,9.0,45.0,0.8333333333333334,0.04819277108433735,0.0343760362551121
org.apache.catalina.connector,87.0,78.0,0.4727272727272727,0.018518518518518517,0.3733733733733734
org.apache.tomcat.util,101.0,3.0,0.028846153846153848,0.25,0.43243243243243246
org.apache.coyote,89.0,20.0,0.1834862385321101,0.45454545454545453,0.19986631016042788
javax.servlet,135.0,5.0,0.03571428571428571,0.6590909090909091,0.1742424242424243
org.apache.catalina.util,65.0,20.0,0.23529411764705882,0.06451612903225806,0.36881720430107534
org.apache.tomcat.util.res,253.0,0.0,0.0,0.0,0.9583333333333334
org.apache.juli.logging,356.0,0.0,0.0,0.25,0.7121621621621621
org.apache.el.parser,3.0,22.0,0.88,0.11290322580645161,0.06942496493688632
org.eclipse.jdt.internal.compiler.flow,52.0,26.0,0.3333333333333333,0.14285714285714285,0.4761904761904763
org.eclipse.jdt.internal.compiler.ast,62.0,99.0,0.6149068322981367,0.1347517730496454,0.19156401642403886
org.apache.tomcat.util.digester,62.0,5.0,0.07462686567164178,0.35294117647058826,0.26092020966802565
org.apache.catalina.realm,7.0,36.0,0.8372093023255814,0.09090909090909091,0.030039525691699653
org.apache.catalina.webresources,2.0,17.0,0.8947368421052632,0.17857142857142858,0.14915966386554613
org.eclipse.jdt.internal.compiler,126.0,77.0,0.3793103448275862,0.1875,0.3579545454545454
org.eclipse.jdt.internal.compiler.parser,15.0,114.0,0.8837209302325582,0.21875,0.12441037735849059
org.apache.catalina.core,26.0,182.0,0.875,0.014925373134328358,0.06556998290282334
org.apache.tomcat.util.http.fileupload,7.0,5.0,0.4166666666666667,0.3611111111111111,0.18611111111111112
org.apache.tomcat.dbcp.pool2.impl,10.0,11.0,0.5238095238095238,0.21212121212121213,0.08225108225108224
org.apache.catalina.filters,0.0,21.0,1.0,0.0625,0.0625
org.apache.tomcat.util.security,8.0,0.0,0.0,0.0,0.8
org.apache.tomcat.util.http,29.0,10.0,0.2564102564102564,0.0,0.41428571428571426
org.apache.catalina.mapper,6.0,20.0,0.7692307692307693,0.09090909090909091,0.051948051948051965
org.apache.tomcat.dbcp.dbcp2.datasources,0.0,12.0,1.0,0.3076923076923077,0.3076923076923077
org.apache.jasper.compiler,20.0,72.0,0.782608695652174,0.04666666666666667,0.054856175972927246
org.apache.catalina.startup,6.0,87.0,0.9354838709677419,0.021739130434782608,0.013554987212276215
org.apache.juli,2.0,0.0,0.0,0.0,0.032786885245901676
org.eclipse.jdt.internal.compiler.apt.dispatch,19.0,37.0,0.6607142857142857,0.1875,6.188118811880639E-4
org.eclipse.jdt.internal.compiler.batch,10.0,33.0,0.7674418604651163,0.15789473684210525,0.048004626951995366
org.eclipse.jdt.internal.compiler.classfmt,12.0,23.0,0.6571428571428571,0.09523809523809523,0.11528822055137844
org.eclipse.jdt.core.compiler,138.0,1.0,0.007194244604316547,0.6,0.3452054794520548
org.eclipse.jdt.internal.compiler.env,40.0,1.0,0.024390243902439025,0.7391304347826086,0.1699604743083004
org.eclipse.jdt.internal.compiler.problem,134.0,83.0,0.3824884792626728,0.1,0.47264957264957264
org.eclipse.jdt.internal.compiler.util,67.0,11.0,0.14102564102564102,0.07407407407407407,0.4796449341903888
javax.websocket,41.0,0.0,0.0,0.7333333333333333,0.0121212121212122
org.apache.tomcat.util.net,70.0,25.0,0.2631578947368421,0.17073170731707318,0.23156714325763939
org.apache.coyote.ajp,0.0,45.0,1.0,0.14285714285714285,0.1428571428571428
org.apache.catalina.valves.rewrite,0.0,24.0,1.0,0.2,0.19999999999999996
org.apache.catalina.loader,4.0,18.0,0.8181818181818182,0.0,0.0444444444444444
org.apache.tomcat.jdbc.pool,11.0,5.0,0.3125,0.10714285714285714,0.0017680339462518013
org.apache.catalina.session,7.0,32.0,0.8205128205128205,0.14285714285714285,0.07215007215007208
org.apache.catalina.ha.session,4.0,34.0,0.8947368421052632,0.16666666666666666,0.11603375527426163
org.apache.catalina.ha,21.0,10.0,0.3225806451612903,0.8888888888888888,0.2525252525252526
org.apache.catalina.tribes.io,31.0,6.0,0.16216216216216217,0.2222222222222222,0.2621527777777778
org.apache.catalina.ha.tcp,2.0,35.0,0.9459459459459459,0.0,0.03703703703703709
org.apache.tomcat.jdbc.pool.interceptor,1.0,9.0,0.9,0.17647058823529413,0.15861344537815114
org.apache.catalina.manager.util,12.0,3.0,0.2,0.3333333333333333,0.11111111111111116
org.apache.catalina.tribes.group,17.0,29.0,0.6304347826086957,0.17647058823529413,0.08506787330316734
org.apache.catalina.tribes.group.interceptors,3.0,25.0,0.8928571428571429,0.0,0.049180327868852514
org.apache.coyote.spdy,0.0,34.0,1.0,0.0,0.0
org.apache.coyote.http11,10.0,75.0,0.8823529411764706,0.17647058823529413,0.10013471037269861
org.apache.tomcat.util.buf,82.0,3.0,0.03529411764705882,0.17391304347826086,0.52694165737644
org.apache.tomcat.util.threads,4.0,4.0,0.5,0.08333333333333333,0.07051282051282048
org.apache.tomcat.websocket.server,0.0,53.0,1.0,0.034482758620689655,0.034482758620689724
javax.el,57.0,0.0,0.0,0.22807017543859648,0.2070443283781973
org.apache.jasper.el,5.0,27.0,0.84375,0.0,0.10869565217391308
org.apache.naming.factory,1.0,5.0,0.8333333333333334,0.0625,0.0439814814814814
javax.servlet.annotation,8.0,0.0,0.0,0.8181818181818182,0.24675324675324672
org.apache.jasper.util,9.0,1.0,0.1,0.0,0.40909090909090906
org.apache.catalina.ssi,0.0,22.0,1.0,0.14285714285714285,0.1428571428571428
org.eclipse.jdt.internal.compiler.impl,67.0,5.0,0.06944444444444445,0.2,0.5976190476190476
org.apache.el.lang,18.0,19.0,0.5135135135135135,0.06666666666666667,0.18333333333333335
org.apache.jasper,30.0,20.0,0.4,0.16666666666666666,0.13036303630363044
javax.websocket.server,9.0,2.0,0.18181818181818182,0.6666666666666666,0.21666666666666679
javax.servlet.descriptor,5.0,0.0,0.0,1.0,0.0
org.apache.tomcat.dbcp.dbcp2,6.0,15.0,0.7142857142857143,0.125,0.05182926829268286
org.apache.tomcat.dbcp.pool2,24.0,0.0,0.0,0.4583333333333333,0.08712121212121215
javax.servlet.http,94.0,8.0,0.0784313725490196,0.52,0.2086821705426356
org.apache.tomcat.util.net.jsse.openssl,1.0,3.0,0.75,0.0,0.052631578947368474
org.apache.jasper.runtime,5.0,44.0,0.8979591836734694,0.07692307692307693,0.02429149797570851
javax.servlet.jsp.el,9.0,10.0,0.5263157894736842,0.22727272727272727,0.03743315508021383
org.apache.jasper.security,5.0,2.0,0.2857142857142857,0.0,0.4545454545454546
org.eclipse.jdt.internal.compiler.codegen,67.0,29.0,0.3020833333333333,0.15384615384615385,0.4139504563233376
org.apache.tomcat,21.0,0.0,0.0,0.75,0.08999999999999997
org.apache.tomcat.spdy,8.0,5.0,0.38461538461538464,0.22727272727272727,0.06060606060606055
org.apache.catalina.servlets,0.0,30.0,1.0,0.0,0.0
org.apache.catalina.ha.backend,0.0,6.0,1.0,0.16666666666666666,0.16666666666666674
org.apache.tomcat.util.codec,1.0,0.0,0.0,0.6666666666666666,0.16666666666666652
org.apache.tomcat.websocket,13.0,47.0,0.7833333333333333,0.11764705882352941,0.024121878967414245
org.apache.tomcat.util.log,10.0,1.0,0.09090909090909091,0.0,0.5555555555555556
org.apache.catalina.storeconfig,0.0,52.0,1.0,0.05714285714285714,0.05714285714285716
org.apache.coyote.http11.upgrade,4.0,24.0,0.8571428571428571,0.16666666666666666,0.08666666666666667
org.apache.catalina.ant,1.0,3.0,0.75,0.14285714285714285,0.11059907834101379
javax.servlet.jsp,31.0,2.0,0.06060606060606061,0.6666666666666666,0.19444444444444442
org.apache.tomcat.util.scan,15.0,9.0,0.375,0.09090909090909091,0.22159090909090906
org.apache.catalina.tribes,52.0,1.0,0.018867924528301886,0.7368421052631579,0.10186757215619702
org.apache.coyote.http11.filters,6.0,13.0,0.6842105263157895,0.0,0.2222222222222222
org.apache.tomcat.util.descriptor.tld,9.0,12.0,0.5714285714285714,0.0625,0.16249999999999998
org.apache.catalina.manager,0.0,39.0,1.0,0.0,0.0
org.apache.jasper.compiler.tagplugin,16.0,0.0,0.0,1.0,0.0
org.apache.jasper.tagplugins.jstl.core,0.0,4.0,1.0,0.0,0.0
org.apache.tomcat.jni.socket,5.0,11.0,0.6875,0.38461538461538464,0.2865761689291102
javax.ejb,1.0,0.0,0.0,1.0,0.75
org.apache.tomcat.util.collections,10.0,0.0,0.0,0.0,0.41666666666666663
org.eclipse.jdt.internal.compiler.tool,0.0,23.0,1.0,0.0,0.0
org.apache.tomcat.util.http.parser,4.0,1.0,0.2,0.0,0.19047619047619047
org.apache.tomcat.util.http.fileupload.util.mime,1.0,1.0,0.5,0.25,0.16666666666666652
org.apache.catalina.authenticator,2.0,39.0,0.9512195121951219,0.058823529411764705,0.031796502384737746
org.apache.tomcat.util.codec.binary,7.0,5.0,0.4166666666666667,0.25,0.04166666666666663
javax.annotation,2.0,0.0,0.0,0.875,0.5416666666666665
org.apache.tomcat.jni,18.0,0.0,0.0,0.11764705882352941,0.5490196078431373
org.eclipse.jdt.internal.compiler.apt.model,4.0,30.0,0.8823529411764706,0.08333333333333333,0.0452380952380953
org.apache.el.util,17.0,2.0,0.10526315789473684,0.0,0.33999999999999997
org.apache.catalina.deploy,9.0,25.0,0.7352941176470589,0.0,0.18367346938775508
org.apache.catalina.comet,9.0,2.0,0.18181818181818182,0.6666666666666666,0.08333333333333337
org.apache.catalina.security,15.0,11.0,0.4230769230769231,0.0,0.3125
org.apache.tomcat.websocket.pojo,4.0,31.0,0.8857142857142857,0.29411764705882354,0.2316176470588236
javax.xml.ws,1.0,0.0,0.0,1.0,0.75
org.eclipse.jdt.core,1.0,4.0,0.8,0.0,0.024390243902439046
org.eclipse.jdt.internal.antadapter,3.0,0.0,0.0,0.0,0.33333333333333337
org.apache.catalina.ha.deploy,0.0,15.0,1.0,0.1111111111111111,0.11111111111111116
org.apache.catalina.tribes.membership,8.0,14.0,0.6363636363636364,0.0,0.13793103448275867
org.apache.catalina.tribes.util,23.0,7.0,0.23333333333333334,0.0,0.39655172413793105
org.apache.catalina.ha.context,0.0,10.0,1.0,0.0,0.0
org.apache.tomcat.util.bcel,2.0,0.0,0.0,1.0,0.0
org.apache.catalina.ant.jmx,0.0,1.0,1.0,0.0,0.0
javax.annotation.security,1.0,0.0,0.0,1.0,0.75
org.apache.tomcat.util.net.jsse,4.0,10.0,0.7142857142857143,0.0,0.06557377049180324
org.apache.catalina.tribes.transport,14.0,11.0,0.44,0.5384615384615384,0.2202797202797202
org.apache.catalina.tribes.transport.nio,2.0,20.0,0.9090909090909091,0.0,0.03508771929824561
org.apache.jasper.servlet,5.0,49.0,0.9074074074074074,0.0,0.0505050505050505
org.apache.tomcat.util.http.fileupload.servlet,1.0,4.0,0.8,0.3333333333333333,0.19047619047619047
org.apache.tomcat.util.bcel.util,6.0,0.0,0.0,1.0,0.0
org.apache.tomcat.jdbc.pool.jmx,4.0,5.0,0.5555555555555556,0.5,0.30000000000000004
org.apache.catalina.tribes.transport.bio,0.0,18.0,1.0,0.0,0.0
org.eclipse.jdt.internal.compiler.parser.diagnose,1.0,12.0,0.9230769230769231,0.0,0.05882352941176472
org.apache.jasper.tagplugins.jstl,5.0,5.0,0.5,0.0,0.2941176470588235
org.apache.catalina.tribes.tipis,3.0,14.0,0.8235294117647058,0.42857142857142855,0.3452380952380951
org.apache.commons.daemon,4.0,0.0,0.0,0.7142857142857143,0.4065934065934065
org.apache.commons.daemon.support,0.0,4.0,1.0,0.0,0.0
org.apache.el,2.0,14.0,0.875,0.0,0.08695652173913049
org.apache.tomcat.util.modeler.modules,1.0,8.0,0.8888888888888888,0.3333333333333333,0.3063063063063063
org.apache.tomcat.dbcp.dbcp2.cpdsadapter,0.0,10.0,1.0,0.2,0.19999999999999996
org.apache.jasper.xmlparser,1.0,5.0,0.8333333333333334,0.0,0.050000000000000044
org.apache.el.stream,2.0,7.0,0.7777777777777778,0.07142857142857142,0.002645502645502673
org.apache.tomcat.util.http.fileupload.util,7.0,3.0,0.3,0.6,0.29565217391304355
javax.persistence,1.0,0.0,0.0,0.8333333333333334,0.6333333333333333
org.apache.catalina.tribes.transport.bio.util,2.0,4.0,0.6666666666666666,0.0,0.2222222222222222
org.apache.tomcat.util.http.fileupload.disk,2.0,7.0,0.7777777777777778,0.3333333333333333,0.25
org.apache.catalina.users,0.0,10.0,1.0,0.25,0.25
org.apache.tomcat.util.descriptor,6.0,5.0,0.45454545454545453,0.0,0.19999999999999996
org.eclipse.jdt.internal.compiler.apt.util,3.0,9.0,0.75,0.0,0.049180327868852514
org.apache.tomcat.util.descriptor.tagplugin,1.0,6.0,0.8571428571428571,0.0,0.06666666666666665
org.apache.catalina.manager.host,0.0,20.0,1.0,0.0,0.0
org.apache.tomcat.jdbc.naming,0.0,3.0,1.0,0.0,0.0
javax.annotation.sql,0.0,0.0,0.0,1.0,1.0
org.apache.naming.java,0.0,3.0,1.0,0.0,0.0
org.apache.catalina.ha.authenticator,0.0,15.0,1.0,0.0,0.0
org.apache.tomcat.util.file,1.0,0.0,0.0,0.0,0.19999999999999996
org.eclipse.jdt.core.compiler.batch,0.0,1.0,1.0,0.0,0.0
