UnstableDependenciesPackage,InstabilityUnstableDependenciesPackage,CorrelatedPackage,InstabilityCorrelatedPackage
org.apache.catalina.session,0.925531914893617,org.apache.catalina.realm,0.9375
org.apache.catalina.tribes,0.17543859649122806,org.apache.catalina.tribes.util,0.6
org.apache.tomcat.util.http.fileupload.util,0.6818181818181818,org.apache.tomcat.util.http.fileupload,0.8297872340425532
org.apache.catalina.connector,0.6113744075829384,org.apache.tomcat.util.net,0.7727272727272727
org.apache.catalina.connector,0.6113744075829384,org.apache.catalina.security,0.6595744680851063
org.apache.catalina.connector,0.6113744075829384,org.apache.catalina.mbeans,0.8842105263157894
org.apache.catalina.connector,0.6113744075829384,org.apache.tomcat.util.http.fileupload.servlet,0.8333333333333334
org.apache.catalina.connector,0.6113744075829384,org.apache.tomcat.util.http.fileupload.disk,0.9230769230769231
org.apache.catalina.connector,0.6113744075829384,org.apache.catalina.realm,0.9375
org.apache.catalina.connector,0.6113744075829384,org.apache.tomcat.util.http.mapper,0.65
org.apache.catalina.connector,0.6113744075829384,org.apache.catalina.core,0.9120521172638436
org.apache.jasper,0.6595744680851063,org.apache.jasper.servlet,0.9180327868852459
org.apache.jasper,0.6595744680851063,org.apache.jasper.compiler,0.9010989010989011
org.eclipse.jdt.internal.compiler.problem,0.3978494623655914,org.eclipse.jdt.internal.compiler.parser,0.9155844155844156
org.eclipse.jdt.internal.compiler.problem,0.3978494623655914,org.eclipse.jdt.internal.compiler.ast,0.656934306569343
org.eclipse.jdt.internal.compiler.problem,0.3978494623655914,org.eclipse.jdt.internal.compiler.util,0.48148148148148145
org.eclipse.jdt.internal.compiler.problem,0.3978494623655914,org.eclipse.jdt.internal.compiler,0.45754716981132076
org.eclipse.jdt.internal.compiler.batch,0.8901098901098901,org.eclipse.jdt.internal.compiler.parser,0.9155844155844156
org.eclipse.jdt.internal.compiler.parser,0.9155844155844156,org.eclipse.jdt.internal.compiler.parser.diagnose,0.9375
javax.servlet.jsp,0.14705882352941177,javax.servlet,0.19548872180451127
org.apache.catalina.ha,0.3870967741935484,org.apache.tomcat.util.digester,0.48484848484848486
org.apache.tomcat.util.scan,0.8461538461538461,org.apache.tomcat.util.file,0.9
org.apache.catalina.util,0.5263157894736842,org.apache.tomcat.util.modeler,0.5959595959595959
org.apache.catalina.util,0.5263157894736842,org.apache.naming.resources,0.8717948717948718
org.apache.catalina.ha.session,0.9625,org.apache.catalina.ha.tcp,0.9642857142857143
org.apache.catalina.ha.tcp,0.9642857142857143,org.apache.catalina.tribes.group.interceptors,0.9661016949152542
org.apache.catalina.security,0.6595744680851063,org.apache.catalina.startup,0.9520958083832335
org.apache.catalina.tribes.transport,0.7209302325581395,org.apache.catalina.tribes.transport.nio,0.9629629629629629
org.apache.tomcat.util.net,0.7727272727272727,org.apache.tomcat.util.threads,0.8571428571428571
org.apache.tomcat.util.net,0.7727272727272727,org.apache.tomcat.util.net.jsse,0.9629629629629629
org.eclipse.jdt.internal.compiler.util,0.48148148148148145,org.eclipse.jdt.internal.compiler.batch,0.8901098901098901
org.apache.catalina.ha.authenticator,0.95,org.apache.catalina.authenticator,0.9558823529411765
org.apache.tomcat.util.modeler,0.5959595959595959,org.apache.tomcat.util.modeler.modules,0.9795918367346939
org.eclipse.jdt.internal.compiler.ast,0.656934306569343,org.eclipse.jdt.internal.compiler.parser,0.9155844155844156
org.apache.catalina.valves,0.8737864077669902,org.apache.catalina.session,0.925531914893617
org.apache.catalina.valves,0.8737864077669902,org.apache.catalina.mbeans,0.8842105263157894
org.apache.jasper.compiler,0.9010989010989011,org.apache.jasper.runtime,0.9611650485436893
org.apache.jasper.compiler,0.9010989010989011,org.apache.jasper.servlet,0.9180327868852459
org.apache.catalina.mbeans,0.8842105263157894,org.apache.catalina.core,0.9120521172638436
org.apache.catalina.mbeans,0.8842105263157894,org.apache.catalina.startup,0.9520958083832335
org.apache.catalina.mbeans,0.8842105263157894,org.apache.coyote.http11,0.9038461538461539
org.apache.catalina.mbeans,0.8842105263157894,org.apache.coyote.ajp,0.9818181818181818
org.apache.catalina.mbeans,0.8842105263157894,org.apache.catalina.authenticator,0.9558823529411765
org.apache.catalina.mbeans,0.8842105263157894,org.apache.catalina.session,0.925531914893617
org.apache.catalina.mbeans,0.8842105263157894,org.apache.catalina.realm,0.9375
org.apache.catalina.mbeans,0.8842105263157894,org.apache.catalina.loader,0.94
org.apache.jasper.util,0.5,org.apache.jasper.compiler,0.9010989010989011
org.apache.catalina.ha.jmx,0.9444444444444444,org.apache.catalina.ha.tcp,0.9642857142857143
org.apache.catalina.ha.jmx,0.9444444444444444,org.apache.catalina.ha.session,0.9625
org.apache.catalina.ha.jmx,0.9444444444444444,org.apache.catalina.ha.deploy,0.972972972972973
org.apache.catalina.ha.jmx,0.9444444444444444,org.apache.catalina.ha.authenticator,0.95
org.apache.catalina.tribes.util,0.6,org.apache.catalina.tribes.membership,0.847457627118644
org.apache.catalina.tribes.util,0.6,org.apache.catalina.tribes.group,0.7384615384615385
org.apache.catalina.tribes.io,0.5230769230769231,org.apache.catalina.tribes.util,0.6
org.apache.catalina.tribes.io,0.5230769230769231,org.apache.catalina.tribes.membership,0.847457627118644
org.apache.coyote.http11.filters,0.7916666666666666,org.apache.coyote.http11,0.9038461538461539
org.eclipse.jdt.core.compiler,0.064,org.eclipse.jdt.internal.compiler.parser,0.9155844155844156
org.eclipse.jdt.internal.compiler.lookup,0.3333333333333333,org.eclipse.jdt.internal.compiler,0.45754716981132076
org.eclipse.jdt.internal.compiler.lookup,0.3333333333333333,org.eclipse.jdt.internal.compiler.codegen,0.3904761904761905
org.eclipse.jdt.internal.compiler.lookup,0.3333333333333333,org.eclipse.jdt.internal.compiler.ast,0.656934306569343
org.eclipse.jdt.internal.compiler.lookup,0.3333333333333333,org.eclipse.jdt.internal.compiler.problem,0.3978494623655914
org.eclipse.jdt.internal.compiler.lookup,0.3333333333333333,org.eclipse.jdt.internal.compiler.util,0.48148148148148145
org.apache.catalina.deploy,0.6,org.apache.catalina.mbeans,0.8842105263157894
org.apache.catalina.deploy,0.6,org.apache.naming,0.6885245901639344
org.apache.catalina.deploy,0.6,org.apache.catalina.core,0.9120521172638436
org.eclipse.jdt.internal.compiler.codegen,0.3904761904761905,org.eclipse.jdt.internal.compiler,0.45754716981132076
org.eclipse.jdt.internal.compiler.codegen,0.3904761904761905,org.eclipse.jdt.internal.compiler.ast,0.656934306569343
org.eclipse.jdt.internal.compiler.codegen,0.3904761904761905,org.eclipse.jdt.internal.compiler.util,0.48148148148148145
org.eclipse.jdt.internal.compiler.codegen,0.3904761904761905,org.eclipse.jdt.internal.compiler.problem,0.3978494623655914
org.eclipse.jdt.internal.compiler.codegen,0.3904761904761905,org.eclipse.jdt.internal.compiler.classfmt,0.8076923076923077
org.eclipse.jdt.internal.compiler.impl,0.20512820512820512,org.eclipse.jdt.internal.compiler.ast,0.656934306569343
org.eclipse.jdt.internal.compiler.impl,0.20512820512820512,org.eclipse.jdt.internal.compiler.lookup,0.3333333333333333
org.eclipse.jdt.internal.compiler.impl,0.20512820512820512,org.eclipse.jdt.internal.compiler.problem,0.3978494623655914
org.eclipse.jdt.internal.compiler.impl,0.20512820512820512,org.eclipse.jdt.internal.compiler.util,0.48148148148148145
javax.servlet,0.19548872180451127,javax.servlet.annotation,0.5
org.apache.catalina,0.07228915662650602,org.apache.catalina.core,0.9120521172638436
org.apache.jasper.servlet,0.9180327868852459,org.apache.jasper.runtime,0.9611650485436893
org.apache.catalina.startup,0.9520958083832335,org.apache.tomcat.util.bcel.classfile,0.9696969696969697
org.apache.catalina.startup,0.9520958083832335,org.apache.catalina.authenticator,0.9558823529411765
org.apache.catalina.startup,0.9520958083832335,org.apache.juli,0.9629629629629629
org.apache.tomcat.dbcp.dbcp,0.9032258064516129,org.apache.tomcat.dbcp.pool.impl,0.9090909090909091
org.apache.tomcat.dbcp.dbcp,0.9032258064516129,org.apache.tomcat.dbcp.jocl,0.9629629629629629
org.apache.el.lang,0.7727272727272727,org.apache.el.parser,0.9473684210526315
org.apache.el.lang,0.7727272727272727,org.apache.el,0.95
org.apache.coyote,0.3522727272727273,org.apache.tomcat.util.http,0.5084745762711864
org.apache.coyote,0.3522727272727273,org.apache.tomcat.util.modeler,0.5959595959595959
org.apache.coyote,0.3522727272727273,org.apache.tomcat.util.net,0.7727272727272727
org.eclipse.jdt.internal.compiler.flow,0.3125,org.eclipse.jdt.internal.compiler.problem,0.3978494623655914
org.eclipse.jdt.internal.compiler.flow,0.3125,org.eclipse.jdt.internal.compiler.codegen,0.3904761904761905
org.eclipse.jdt.internal.compiler.flow,0.3125,org.eclipse.jdt.internal.compiler.ast,0.656934306569343
org.eclipse.jdt.internal.compiler.flow,0.3125,org.eclipse.jdt.internal.compiler.lookup,0.3333333333333333
org.apache.jasper.xmlparser,0.8695652173913043,org.apache.jasper.compiler,0.9010989010989011
org.eclipse.jdt.internal.compiler.apt.dispatch,0.8172043010752689,org.eclipse.jdt.internal.compiler.apt.model,0.9615384615384616
org.eclipse.jdt.internal.compiler.apt.dispatch,0.8172043010752689,org.eclipse.jdt.internal.compiler.apt.util,0.95
org.eclipse.jdt.internal.compiler.apt.dispatch,0.8172043010752689,org.eclipse.jdt.internal.compiler.batch,0.8901098901098901
org.apache.catalina.tribes.group,0.7384615384615385,org.apache.catalina.tribes.transport.nio,0.9629629629629629
org.apache.catalina.tribes.group,0.7384615384615385,org.apache.catalina.tribes.membership,0.847457627118644
org.apache.catalina.tribes.group,0.7384615384615385,org.apache.catalina.tribes.group.interceptors,0.9661016949152542
org.eclipse.jdt.internal.compiler,0.45754716981132076,org.eclipse.jdt.core,0.967741935483871
org.eclipse.jdt.internal.compiler,0.45754716981132076,org.eclipse.jdt.internal.compiler.classfmt,0.8076923076923077
org.eclipse.jdt.internal.compiler,0.45754716981132076,org.eclipse.jdt.internal.compiler.parser,0.9155844155844156
org.eclipse.jdt.internal.compiler,0.45754716981132076,org.eclipse.jdt.internal.compiler.ast,0.656934306569343
org.eclipse.jdt.internal.compiler,0.45754716981132076,org.eclipse.jdt.internal.compiler.util,0.48148148148148145
org.apache.catalina.core,0.9120521172638436,org.apache.catalina.realm,0.9375
org.apache.catalina.core,0.9120521172638436,org.apache.tomcat.util.http.fileupload.disk,0.9230769230769231
org.apache.catalina.core,0.9120521172638436,org.apache.catalina.loader,0.94
org.apache.catalina.core,0.9120521172638436,org.apache.catalina.session,0.925531914893617
org.apache.catalina.core,0.9120521172638436,org.apache.catalina.startup,0.9520958083832335
org.apache.catalina.core,0.9120521172638436,org.apache.naming.factory,0.9803921568627451
