UnstableDependenciesPackage,InstabilityUnstableDependenciesPackage,CorrelatedPackage,InstabilityCorrelatedPackage
org.apache.catalina,0.08074534161490683,javax.servlet,0.14285714285714285
org.apache.catalina,0.08074534161490683,org.apache.catalina.core,0.8862745098039215
org.eclipse.jdt.internal.compiler.lookup,0.3687150837988827,org.eclipse.jdt.internal.compiler.codegen,0.3786407766990291
org.eclipse.jdt.internal.compiler.lookup,0.3687150837988827,org.eclipse.jdt.internal.compiler.util,0.4794520547945205
org.eclipse.jdt.internal.compiler.lookup,0.3687150837988827,org.eclipse.jdt.internal.compiler.problem,0.39344262295081966
org.eclipse.jdt.internal.compiler.lookup,0.3687150837988827,org.eclipse.jdt.internal.compiler,0.49295774647887325
org.eclipse.jdt.internal.compiler.lookup,0.3687150837988827,org.eclipse.jdt.internal.compiler.ast,0.6585365853658537
org.eclipse.jdt.internal.compiler.codegen,0.3786407766990291,org.eclipse.jdt.internal.compiler.util,0.4794520547945205
org.eclipse.jdt.internal.compiler.codegen,0.3786407766990291,org.eclipse.jdt.internal.compiler.classfmt,0.9148936170212766
org.eclipse.jdt.internal.compiler.codegen,0.3786407766990291,org.eclipse.jdt.internal.compiler.ast,0.6585365853658537
org.eclipse.jdt.internal.compiler.codegen,0.3786407766990291,org.eclipse.jdt.internal.compiler.problem,0.39344262295081966
org.eclipse.jdt.internal.compiler.codegen,0.3786407766990291,org.eclipse.jdt.internal.compiler,0.49295774647887325
org.eclipse.jdt.internal.compiler.env,0.08823529411764706,org.eclipse.jdt.core.compiler,0.125
org.apache.coyote,0.225,org.apache.tomcat.util.http,0.582089552238806
org.apache.coyote,0.225,org.apache.tomcat.util.buf,0.3130434782608696
org.eclipse.jdt.internal.compiler.flow,0.31746031746031744,org.eclipse.jdt.internal.compiler.codegen,0.3786407766990291
org.eclipse.jdt.internal.compiler.flow,0.31746031746031744,org.eclipse.jdt.internal.compiler.lookup,0.3687150837988827
org.eclipse.jdt.internal.compiler.flow,0.31746031746031744,org.eclipse.jdt.internal.compiler.problem,0.39344262295081966
org.eclipse.jdt.internal.compiler.flow,0.31746031746031744,org.eclipse.jdt.internal.compiler.ast,0.6585365853658537
org.eclipse.jdt.internal.compiler.problem,0.39344262295081966,org.eclipse.jdt.internal.compiler.ast,0.6585365853658537
org.eclipse.jdt.internal.compiler.problem,0.39344262295081966,org.eclipse.jdt.internal.compiler.parser,0.8941176470588236
org.eclipse.jdt.internal.compiler.problem,0.39344262295081966,org.eclipse.jdt.internal.compiler.util,0.4794520547945205
org.eclipse.jdt.internal.compiler.problem,0.39344262295081966,org.eclipse.jdt.internal.compiler,0.49295774647887325
org.eclipse.jdt.internal.compiler.impl,0.2112676056338028,org.eclipse.jdt.internal.compiler.ast,0.6585365853658537
org.eclipse.jdt.internal.compiler.impl,0.2112676056338028,org.eclipse.jdt.internal.compiler.lookup,0.3687150837988827
org.eclipse.jdt.internal.compiler.impl,0.2112676056338028,org.eclipse.jdt.internal.compiler.problem,0.39344262295081966
org.eclipse.jdt.internal.compiler.impl,0.2112676056338028,org.eclipse.jdt.internal.compiler.util,0.4794520547945205
