UnstableDependenciesPackage,InstabilityUnstableDependenciesPackage,CorrelatedPackage,InstabilityCorrelatedPackage
org.apache.catalina,0.07947019867549669,org.apache.catalina.core,0.889344262295082
org.apache.catalina,0.07947019867549669,javax.servlet,0.14606741573033707
org.eclipse.jdt.internal.compiler.lookup,0.375,org.eclipse.jdt.internal.compiler.util,0.5238095238095238
org.eclipse.jdt.internal.compiler.lookup,0.375,org.eclipse.jdt.internal.compiler.problem,0.37640449438202245
org.eclipse.jdt.internal.compiler.lookup,0.375,org.eclipse.jdt.internal.compiler.ast,0.6585365853658537
org.eclipse.jdt.internal.compiler.lookup,0.375,org.eclipse.jdt.internal.compiler.codegen,0.37623762376237624
org.eclipse.jdt.internal.compiler.lookup,0.375,org.eclipse.jdt.internal.compiler,0.5073170731707317
org.eclipse.jdt.internal.compiler.codegen,0.37623762376237624,org.eclipse.jdt.internal.compiler.util,0.5238095238095238
org.eclipse.jdt.internal.compiler.codegen,0.37623762376237624,org.eclipse.jdt.internal.compiler.classfmt,0.9148936170212766
org.eclipse.jdt.internal.compiler.codegen,0.37623762376237624,org.eclipse.jdt.internal.compiler.ast,0.6585365853658537
org.eclipse.jdt.internal.compiler.codegen,0.37623762376237624,org.eclipse.jdt.internal.compiler.problem,0.37640449438202245
org.eclipse.jdt.internal.compiler.codegen,0.37623762376237624,org.eclipse.jdt.internal.compiler,0.5073170731707317
org.eclipse.jdt.internal.compiler.env,0.08823529411764706,org.eclipse.jdt.core.compiler,0.1308411214953271
org.apache.coyote,0.22077922077922077,org.apache.tomcat.util.http,0.5967741935483871
org.apache.coyote,0.22077922077922077,org.apache.tomcat.util.buf,0.3185840707964602
org.eclipse.jdt.internal.core.util,0.8333333333333334,org.eclipse.jdt.internal.compiler.parser,0.8928571428571429
org.eclipse.jdt.internal.compiler.flow,0.3225806451612903,org.eclipse.jdt.internal.compiler.ast,0.6585365853658537
org.eclipse.jdt.internal.compiler.flow,0.3225806451612903,org.eclipse.jdt.internal.compiler.problem,0.37640449438202245
org.eclipse.jdt.internal.compiler.flow,0.3225806451612903,org.eclipse.jdt.internal.compiler.lookup,0.375
org.eclipse.jdt.internal.compiler.flow,0.3225806451612903,org.eclipse.jdt.internal.compiler.codegen,0.37623762376237624
org.eclipse.jdt.internal.compiler.problem,0.37640449438202245,org.eclipse.jdt.internal.compiler,0.5073170731707317
org.eclipse.jdt.internal.compiler.problem,0.37640449438202245,org.eclipse.jdt.internal.compiler.util,0.5238095238095238
org.eclipse.jdt.internal.compiler.problem,0.37640449438202245,org.eclipse.jdt.internal.compiler.ast,0.6585365853658537
org.eclipse.jdt.internal.compiler.problem,0.37640449438202245,org.eclipse.jdt.internal.compiler.parser,0.8928571428571429
org.eclipse.jdt.internal.compiler.impl,0.21212121212121213,org.eclipse.jdt.internal.compiler.lookup,0.375
org.eclipse.jdt.internal.compiler.impl,0.21212121212121213,org.eclipse.jdt.internal.compiler.ast,0.6585365853658537
org.eclipse.jdt.internal.compiler.impl,0.21212121212121213,org.eclipse.jdt.internal.compiler.problem,0.37640449438202245
org.eclipse.jdt.internal.compiler.impl,0.21212121212121213,org.eclipse.jdt.internal.compiler.util,0.5238095238095238
