Class,FanIn,FanOut,Total Dependences
org.apache.catalina.connector.Request,80,76,156
org.eclipse.jdt.internal.compiler.lookup.Scope,51,44,95
org.eclipse.jdt.internal.compiler.lookup.SourceTypeBinding,37,35,72
org.eclipse.jdt.internal.compiler.util.Util,37,36,73
org.eclipse.jdt.internal.compiler.problem.ProblemReporter,104,63,167
org.apache.tomcat.util.digester.Digester,57,47,104
