UnstableDependenciesPackage,InstabilityUnstableDependenciesPackage,CorrelatedPackage,InstabilityCorrelatedPackage
org.eclipse.jdt.core.compiler,0.05194805194805195,org.eclipse.jdt.internal.compiler.parser,0.90625
org.eclipse.jdt.internal.compiler.lookup,0.37404580152671757,org.eclipse.jdt.internal.compiler.ast,0.6700507614213198
org.eclipse.jdt.internal.compiler.lookup,0.37404580152671757,org.eclipse.jdt.internal.compiler.util,0.43410852713178294
org.eclipse.jdt.internal.compiler.lookup,0.37404580152671757,org.eclipse.jdt.internal.compiler.problem,0.4230769230769231
org.eclipse.jdt.internal.compiler.lookup,0.37404580152671757,org.eclipse.jdt.internal.compiler.codegen,0.4322033898305085
org.eclipse.jdt.internal.compiler.lookup,0.37404580152671757,org.eclipse.jdt.internal.compiler.flow,0.38823529411764707
org.eclipse.jdt.internal.compiler.lookup,0.37404580152671757,org.eclipse.jdt.internal.compiler.classfmt,0.8142857142857143
org.eclipse.jdt.internal.compiler.lookup,0.37404580152671757,org.eclipse.jdt.internal.compiler,0.4472573839662447
org.eclipse.jdt.internal.compiler.codegen,0.4322033898305085,org.eclipse.jdt.internal.compiler.ast,0.6700507614213198
org.eclipse.jdt.internal.compiler.codegen,0.4322033898305085,org.eclipse.jdt.internal.compiler,0.4472573839662447
org.eclipse.jdt.internal.compiler.codegen,0.4322033898305085,org.eclipse.jdt.internal.compiler.util,0.43410852713178294
org.eclipse.jdt.internal.compiler.codegen,0.4322033898305085,org.eclipse.jdt.internal.compiler.classfmt,0.8142857142857143
org.eclipse.jdt.internal.compiler.flow,0.38823529411764707,org.eclipse.jdt.internal.compiler.problem,0.4230769230769231
org.eclipse.jdt.internal.compiler.flow,0.38823529411764707,org.eclipse.jdt.internal.compiler.ast,0.6700507614213198
org.eclipse.jdt.internal.compiler.flow,0.38823529411764707,org.eclipse.jdt.internal.compiler.codegen,0.4322033898305085
org.eclipse.jdt.internal.compiler.problem,0.4230769230769231,org.eclipse.jdt.internal.compiler.util,0.43410852713178294
org.eclipse.jdt.internal.compiler.problem,0.4230769230769231,org.eclipse.jdt.internal.compiler.ast,0.6700507614213198
org.eclipse.jdt.internal.compiler.problem,0.4230769230769231,org.eclipse.jdt.internal.compiler,0.4472573839662447
org.eclipse.jdt.internal.compiler.problem,0.4230769230769231,org.eclipse.jdt.internal.compiler.parser,0.90625
javax.servlet.jsp,0.1388888888888889,javax.servlet,0.16875
org.eclipse.jdt.internal.compiler.impl,0.20689655172413793,org.eclipse.jdt.internal.compiler.problem,0.4230769230769231
org.eclipse.jdt.internal.compiler.impl,0.20689655172413793,org.eclipse.jdt.internal.compiler.util,0.43410852713178294
org.eclipse.jdt.internal.compiler.impl,0.20689655172413793,org.eclipse.jdt.internal.compiler.ast,0.6700507614213198
org.eclipse.jdt.internal.compiler.impl,0.20689655172413793,org.eclipse.jdt.internal.compiler.lookup,0.37404580152671757
