IdCycle,CycleType,ElementList
5917,clique,"org.eclipse.jdt.internal.compiler.problem,org.eclipse.jdt.internal.compiler.ast,org.eclipse.jdt.internal.compiler.impl,org.eclipse.jdt.internal.compiler.problem"
5918,clique,"org.apache.jasper.servlet,org.apache.jasper,org.apache.jasper.compiler,org.apache.jasper.servlet"
6018,chain,"org.apache.tomcat.jdbc.pool,org.apache.tomcat.jdbc.pool.interceptor,org.apache.tomcat.jdbc.pool.jmx"
6019,chain,"org.apache.catalina.connector,org.apache.catalina.authenticator,org.apache.catalina.realm"
6020,chain,"org.apache.el,org.apache.el.util,org.apache.el.lang"
6021,chain,"org.apache.jasper.servlet,org.apache.jasper.xmlparser,org.apache.jasper,org.apache.jasper.compiler"
6022,star,"org.eclipse.jdt.internal.compiler.flow,org.eclipse.jdt.internal.compiler.impl,org.eclipse.jdt.internal.compiler.ast,org.eclipse.jdt.internal.compiler.problem"
6023,chain,"org.apache.catalina.tribes.group,org.apache.catalina.tribes.group.interceptors,org.apache.catalina.tribes.util"
6024,star,"org.eclipse.jdt.internal.compiler.parser.diagnose,org.eclipse.jdt.internal.compiler,org.eclipse.jdt.internal.compiler.parser,org.eclipse.jdt.core.compiler"
6025,star,"org.apache.catalina.tribes.group,org.apache.catalina.tribes.membership,org.apache.catalina.tribes.util,org.apache.catalina.tribes"
