IdCycle,CycleType,ElementList
6067,clique,"org.eclipse.jdt.internal.compiler.problem,org.eclipse.jdt.internal.compiler.ast,org.eclipse.jdt.internal.compiler.impl,org.eclipse.jdt.internal.compiler.problem"
6068,clique,"org.apache.el,org.apache.el.lang,org.apache.el.parser,org.apache.el"
6069,clique,"org.apache.jasper.servlet,org.apache.jasper,org.apache.jasper.compiler,org.apache.jasper.servlet"
6172,star,"org.apache.el,org.apache.el.util,org.apache.el.parser,org.apache.el.lang"
6173,chain,"org.apache.jasper.compiler,org.apache.jasper,org.apache.jasper.xmlparser,org.apache.jasper.servlet"
6174,star,"org.eclipse.jdt.internal.compiler,org.eclipse.jdt.internal.compiler.parser,org.eclipse.jdt.internal.compiler.parser.diagnose,org.eclipse.jdt.core.compiler"
6175,chain,"org.apache.catalina.tribes.io,org.apache.catalina.tribes.util,org.apache.catalina.tribes.membership"
6176,chain,"org.apache.catalina.connector,org.apache.catalina.core,org.apache.catalina.authenticator"
6177,chain,"org.apache.catalina.tribes.group,org.apache.catalina.tribes.util,org.apache.catalina.tribes.group.interceptors"
6178,star,"org.apache.catalina.tribes.util,org.apache.catalina.tribes.group,org.apache.catalina.tribes.membership,org.apache.catalina.tribes"
6179,chain,"org.apache.tomcat.jdbc.pool.jmx,org.apache.tomcat.jdbc.pool,org.apache.tomcat.jdbc.pool.interceptor"
6180,star,"org.eclipse.jdt.internal.compiler.problem,org.eclipse.jdt.internal.compiler.impl,org.eclipse.jdt.internal.compiler.flow,org.eclipse.jdt.internal.compiler.ast"
