IdCycle,CycleType,ElementList
6098,clique,"org.eclipse.jdt.internal.compiler.ast,org.eclipse.jdt.internal.compiler.impl,org.eclipse.jdt.internal.compiler.problem,org.eclipse.jdt.internal.compiler.ast"
6099,clique,"org.eclipse.jdt.internal.compiler.problem,org.eclipse.jdt.internal.compiler,org.eclipse.jdt.internal.compiler.parser,org.eclipse.jdt.internal.compiler.problem"
6100,clique,"org.apache.el,org.apache.el.lang,org.apache.el.parser,org.apache.el"
6101,clique,"org.apache.jasper.servlet,org.apache.jasper,org.apache.jasper.compiler,org.apache.jasper.servlet"
6208,chain,"org.eclipse.jdt.internal.compiler,org.eclipse.jdt.internal.compiler.parser,org.eclipse.jdt.internal.compiler.problem,org.eclipse.jdt.internal.compiler.flow,org.eclipse.jdt.internal.compiler.ast,org.eclipse.jdt.internal.compiler.impl"
6209,chain,"org.apache.jasper.compiler,org.apache.jasper.servlet,org.apache.jasper.xmlparser,org.apache.jasper"
6210,star,"org.apache.el.util,org.apache.el.lang,org.apache.el,org.apache.el.parser"
6211,chain,"org.apache.catalina.tribes.group,org.apache.catalina.tribes.group.interceptors,org.apache.catalina.tribes.util"
6212,star,"org.eclipse.jdt.internal.compiler,org.eclipse.jdt.internal.compiler.parser,org.eclipse.jdt.core.compiler,org.eclipse.jdt.internal.compiler.parser.diagnose"
6213,chain,"org.apache.catalina.tribes.io,org.apache.catalina.tribes.membership,org.apache.catalina.tribes.util"
6214,star,"org.apache.catalina.tribes.group,org.apache.catalina.tribes,org.apache.catalina.tribes.membership,org.apache.catalina.tribes.util"
6215,chain,"org.apache.tomcat.jdbc.pool,org.apache.tomcat.jdbc.pool.jmx,org.apache.tomcat.jdbc.pool.interceptor"
