UnstableDependenciesPackage,InstabilityUnstableDependenciesPackage,CorrelatedPackage,InstabilityCorrelatedPackage
org.apache.tomcat.jdbc.pool,0.90625,org.apache.tomcat.jdbc.pool.interceptor,0.9818181818181818
org.apache.catalina.tribes,0.1896551724137931,org.apache.catalina.tribes.util,0.6065573770491803
org.apache.tomcat.util.http.fileupload.util,0.6818181818181818,org.apache.tomcat.util.http.fileupload,0.8260869565217391
org.apache.catalina.connector,0.6108597285067874,org.apache.tomcat.util.http.parser,0.8125
org.apache.catalina.connector,0.6108597285067874,org.apache.tomcat.util.net,0.6521739130434783
org.apache.catalina.connector,0.6108597285067874,org.apache.catalina.security,0.673469387755102
org.apache.catalina.connector,0.6108597285067874,org.apache.catalina.core,0.9331306990881459
org.apache.catalina.connector,0.6108597285067874,org.apache.tomcat.util.http.mapper,0.65
org.apache.catalina.connector,0.6108597285067874,org.apache.tomcat.util.http.fileupload.disk,0.9230769230769231
org.apache.catalina.connector,0.6108597285067874,org.apache.tomcat.util.http.fileupload.servlet,0.8571428571428571
org.apache.catalina.connector,0.6108597285067874,org.apache.catalina.realm,0.923728813559322
org.apache.catalina.connector,0.6108597285067874,org.apache.catalina.mbeans,0.8666666666666667
org.apache.jasper,0.6862745098039216,org.apache.jasper.compiler,0.9109947643979057
org.apache.jasper,0.6862745098039216,org.apache.jasper.servlet,0.9230769230769231
org.eclipse.jdt.internal.compiler.problem,0.4267241379310345,org.eclipse.jdt.internal.compiler.ast,0.6702702702702703
org.eclipse.jdt.internal.compiler.problem,0.4267241379310345,org.eclipse.jdt.internal.compiler,0.45454545454545453
org.eclipse.jdt.internal.compiler.problem,0.4267241379310345,org.eclipse.jdt.internal.compiler.util,0.4462809917355372
org.eclipse.jdt.internal.compiler.problem,0.4267241379310345,org.eclipse.jdt.internal.compiler.parser,0.9056603773584906
org.eclipse.jdt.internal.compiler.batch,0.8901098901098901,org.eclipse.jdt.internal.compiler.parser,0.9056603773584906
org.eclipse.jdt.internal.compiler.parser,0.9056603773584906,org.eclipse.jdt.internal.compiler.parser.diagnose,0.9411764705882353
javax.servlet.jsp,0.1388888888888889,javax.servlet,0.17647058823529413
org.apache.tomcat.util.http.fileupload,0.8260869565217391,org.apache.tomcat.util.http.fileupload.util.mime,0.9166666666666666
org.apache.catalina.ha,0.3870967741935484,org.apache.tomcat.util.digester,0.48598130841121495
org.apache.catalina.ha.session,0.9512195121951219,org.apache.catalina.ha.tcp,0.967741935483871
org.apache.catalina.util,0.6071428571428571,org.apache.naming.resources,0.8809523809523809
org.apache.catalina.util,0.6071428571428571,org.apache.tomcat.util.modeler,0.6451612903225806
org.apache.catalina.security,0.673469387755102,org.apache.catalina.startup,0.9583333333333334
org.apache.catalina.tribes.transport,0.7209302325581395,org.apache.catalina.tribes.transport.nio,0.9636363636363636
org.apache.tomcat.util.net,0.6521739130434783,org.apache.tomcat.util.net.jsse,0.9649122807017544
org.apache.tomcat.util.net,0.6521739130434783,org.apache.tomcat.util.threads,0.8260869565217391
org.eclipse.jdt.internal.compiler.util,0.4462809917355372,org.eclipse.jdt.internal.compiler.batch,0.8901098901098901
org.eclipse.jdt.internal.compiler.util,0.4462809917355372,org.eclipse.jdt.internal.compiler,0.45454545454545453
org.apache.tomcat.util.modeler,0.6451612903225806,org.apache.tomcat.util.modeler.modules,0.98
org.eclipse.jdt.internal.compiler.ast,0.6702702702702703,org.eclipse.jdt.internal.compiler.parser,0.9056603773584906
org.apache.catalina.valves,0.8839285714285714,org.apache.catalina.session,0.9393939393939394
org.apache.tomcat.jdbc.pool.jmx,0.8,org.apache.tomcat.jdbc.pool,0.90625
org.apache.jasper.compiler,0.9109947643979057,org.apache.jasper.servlet,0.9230769230769231
org.apache.jasper.compiler,0.9109947643979057,org.apache.jasper.runtime,0.9578947368421052
org.apache.catalina.mbeans,0.8666666666666667,org.apache.catalina.realm,0.923728813559322
org.apache.catalina.mbeans,0.8666666666666667,org.apache.catalina.session,0.9393939393939394
org.apache.catalina.mbeans,0.8666666666666667,org.apache.catalina.authenticator,0.9605263157894737
org.apache.catalina.mbeans,0.8666666666666667,org.apache.catalina.loader,0.941747572815534
org.apache.catalina.mbeans,0.8666666666666667,org.apache.catalina.valves,0.8839285714285714
org.apache.catalina.mbeans,0.8666666666666667,org.apache.coyote.ajp,0.984375
org.apache.catalina.mbeans,0.8666666666666667,org.apache.coyote.http11,0.9090909090909091
org.apache.catalina.mbeans,0.8666666666666667,org.apache.catalina.startup,0.9583333333333334
org.apache.catalina.mbeans,0.8666666666666667,org.apache.catalina.core,0.9331306990881459
org.apache.el.util,0.7021276595744681,org.apache.el.lang,0.7611940298507462
org.apache.jasper.util,0.5625,org.apache.jasper.compiler,0.9109947643979057
org.apache.catalina.tribes.util,0.6065573770491803,org.apache.catalina.tribes.membership,0.85
org.apache.catalina.tribes.util,0.6065573770491803,org.apache.catalina.tribes.group,0.746268656716418
org.apache.catalina.tribes.io,0.5230769230769231,org.apache.catalina.tribes.util,0.6065573770491803
org.apache.catalina.tribes.io,0.5230769230769231,org.apache.catalina.tribes.membership,0.85
org.apache.coyote.http11.filters,0.8076923076923077,org.apache.coyote.http11,0.9090909090909091
org.apache.tomcat.websocket,0.9057971014492754,org.apache.tomcat.websocket.pojo,0.9365079365079365
org.eclipse.jdt.core.compiler,0.05517241379310345,org.eclipse.jdt.internal.compiler.parser,0.9056603773584906
org.eclipse.jdt.internal.compiler.lookup,0.388,org.eclipse.jdt.internal.compiler.problem,0.4267241379310345
org.eclipse.jdt.internal.compiler.lookup,0.388,org.eclipse.jdt.internal.compiler.util,0.4462809917355372
org.eclipse.jdt.internal.compiler.lookup,0.388,org.eclipse.jdt.internal.compiler.ast,0.6702702702702703
org.eclipse.jdt.internal.compiler.lookup,0.388,org.eclipse.jdt.internal.compiler.codegen,0.4322033898305085
org.eclipse.jdt.internal.compiler.lookup,0.388,org.eclipse.jdt.internal.compiler,0.45454545454545453
org.eclipse.jdt.internal.compiler.lookup,0.388,org.eclipse.jdt.internal.compiler.classfmt,0.7857142857142857
org.apache.catalina.deploy,0.574468085106383,org.apache.catalina.util,0.6071428571428571
org.apache.catalina.deploy,0.574468085106383,org.apache.catalina.core,0.9331306990881459
org.apache.catalina.deploy,0.574468085106383,org.apache.naming,0.7142857142857143
org.apache.catalina.deploy,0.574468085106383,org.apache.catalina.mbeans,0.8666666666666667
org.eclipse.jdt.internal.compiler.codegen,0.4322033898305085,org.eclipse.jdt.internal.compiler,0.45454545454545453
org.eclipse.jdt.internal.compiler.codegen,0.4322033898305085,org.eclipse.jdt.internal.compiler.util,0.4462809917355372
org.eclipse.jdt.internal.compiler.codegen,0.4322033898305085,org.eclipse.jdt.internal.compiler.ast,0.6702702702702703
org.eclipse.jdt.internal.compiler.codegen,0.4322033898305085,org.eclipse.jdt.internal.compiler.classfmt,0.7857142857142857
org.eclipse.jdt.internal.compiler.impl,0.20238095238095238,org.eclipse.jdt.internal.compiler.ast,0.6702702702702703
org.eclipse.jdt.internal.compiler.impl,0.20238095238095238,org.eclipse.jdt.internal.compiler.lookup,0.388
org.eclipse.jdt.internal.compiler.impl,0.20238095238095238,org.eclipse.jdt.internal.compiler.util,0.4462809917355372
org.eclipse.jdt.internal.compiler.impl,0.20238095238095238,org.eclipse.jdt.internal.compiler.problem,0.4267241379310345
javax.servlet,0.17647058823529413,javax.servlet.annotation,0.46153846153846156
org.apache.catalina,0.07386363636363637,org.apache.catalina.core,0.9331306990881459
org.apache.jasper.servlet,0.9230769230769231,org.apache.jasper.runtime,0.9578947368421052
org.apache.catalina.startup,0.9583333333333334,org.apache.juli,0.9649122807017544
org.apache.catalina.startup,0.9583333333333334,org.apache.catalina.authenticator,0.9605263157894737
org.apache.tomcat.dbcp.dbcp,0.9032258064516129,org.apache.tomcat.dbcp.pool.impl,0.9090909090909091
org.apache.tomcat.dbcp.dbcp,0.9032258064516129,org.apache.tomcat.dbcp.jocl,0.9629629629629629
org.apache.el.lang,0.7611940298507462,org.apache.el.parser,0.9491525423728814
org.apache.el.lang,0.7611940298507462,org.apache.el,0.95
org.apache.coyote,0.4074074074074074,org.apache.coyote.http11.upgrade,0.7659574468085106
org.apache.coyote,0.4074074074074074,org.apache.tomcat.util.net,0.6521739130434783
org.apache.coyote,0.4074074074074074,org.apache.tomcat.util.http,0.589041095890411
org.apache.coyote,0.4074074074074074,org.apache.tomcat.util.modeler,0.6451612903225806
org.apache.coyote,0.4074074074074074,org.apache.tomcat.util.http.parser,0.8125
org.eclipse.jdt.internal.compiler.flow,0.38095238095238093,org.eclipse.jdt.internal.compiler.ast,0.6702702702702703
org.eclipse.jdt.internal.compiler.flow,0.38095238095238093,org.eclipse.jdt.internal.compiler.lookup,0.388
org.eclipse.jdt.internal.compiler.flow,0.38095238095238093,org.eclipse.jdt.internal.compiler.problem,0.4267241379310345
org.eclipse.jdt.internal.compiler.flow,0.38095238095238093,org.eclipse.jdt.internal.compiler.codegen,0.4322033898305085
org.apache.jasper.xmlparser,0.8775510204081632,org.apache.jasper.compiler,0.9109947643979057
org.eclipse.jdt.internal.compiler.apt.dispatch,0.8118811881188119,org.eclipse.jdt.internal.compiler.batch,0.8901098901098901
org.eclipse.jdt.internal.compiler.apt.dispatch,0.8118811881188119,org.eclipse.jdt.internal.compiler.apt.util,0.9508196721311475
org.eclipse.jdt.internal.compiler.apt.dispatch,0.8118811881188119,org.eclipse.jdt.internal.compiler.apt.model,0.9619047619047619
org.apache.catalina.tribes.group,0.746268656716418,org.apache.catalina.tribes.group.interceptors,0.9666666666666667
org.apache.catalina.tribes.group,0.746268656716418,org.apache.catalina.tribes.membership,0.85
org.apache.catalina.tribes.group,0.746268656716418,org.apache.catalina.tribes.transport.nio,0.9636363636363636
org.eclipse.jdt.internal.compiler,0.45454545454545453,org.eclipse.jdt.internal.compiler.ast,0.6702702702702703
org.eclipse.jdt.internal.compiler,0.45454545454545453,org.eclipse.jdt.internal.compiler.parser,0.9056603773584906
org.eclipse.jdt.internal.compiler,0.45454545454545453,org.eclipse.jdt.core,0.975609756097561
org.eclipse.jdt.internal.compiler,0.45454545454545453,org.eclipse.jdt.internal.compiler.classfmt,0.7857142857142857
org.apache.catalina.core,0.9331306990881459,org.apache.catalina.loader,0.941747572815534
org.apache.catalina.core,0.9331306990881459,org.apache.catalina.session,0.9393939393939394
org.apache.catalina.core,0.9331306990881459,org.apache.catalina.startup,0.9583333333333334
org.apache.catalina.core,0.9331306990881459,org.apache.naming.factory,0.9814814814814815
