Package,CA,CE,RMI,RMA,RMD
org.apache.tomcat.util.modeler,61.0,3.0,0.046875,0.06666666666666667,0.437465564738292
org.apache.catalina.mbeans,0.0,57.0,1.0,0.0,0.0
org.apache.catalina.deploy,30.0,3.0,0.09090909090909091,0.0,0.6666666666666667
javax.servlet.jsp.tagext,28.0,1.0,0.034482758620689655,0.5384615384615384,0.1444652908067543
org.apache.naming,18.0,2.0,0.1,0.05,0.2269230769230769
org.apache.catalina,154.0,3.0,0.01910828025477707,0.7857142857142857,0.13644140290846885
org.apache.catalina.valves,12.0,43.0,0.7818181818181819,0.03896103896103896,0.07113070415822709
org.apache.catalina.connector,77.0,70.0,0.47619047619047616,0.0,0.3811881188118812
org.apache.catalina.util,124.0,19.0,0.13286713286713286,0.0,0.5740740740740741
org.apache.juli.logging,299.0,0.0,0.0,0.25,0.7083333333333333
org.apache.tomcat.dbcp.pool.impl,5.0,9.0,0.6428571428571429,0.0,0.09090909090909094
org.eclipse.jdt.internal.compiler.flow,47.0,23.0,0.32857142857142857,0.07142857142857142,0.5552380952380952
org.eclipse.jdt.internal.compiler.ast,51.0,84.0,0.6222222222222222,0.13559322033898305,0.19993309545049065
org.apache.tomcat.util.digester,45.0,4.0,0.08163265306122448,0.2413793103448276,0.2531261841606669
org.apache.catalina.realm,7.0,34.0,0.8292682926829268,0.09523809523809523,0.03217503217503204
org.eclipse.jdt.internal.compiler,117.0,72.0,0.38095238095238093,0.2,0.3416666666666667
org.eclipse.jdt.internal.compiler.parser,13.0,110.0,0.8943089430894309,0.19230769230769232,0.10678137651821862
org.apache.catalina.core,29.0,136.0,0.8242424242424242,0.02,0.08861423220973785
org.apache.naming.resources,9.0,10.0,0.5263157894736842,0.05263157894736842,0.0706560922855084
org.apache.tomcat.util.res,48.0,0.0,0.0,0.0,0.8727272727272728
org.apache.tomcat.util.http,28.0,9.0,0.24324324324324326,0.0,0.3835616438356164
javax.servlet,82.0,0.0,0.0,0.68,0.18315789473684208
org.apache.catalina.startup,6.0,61.0,0.9104477611940298,0.02,0.02444444444444438
org.apache.jk.core,17.0,10.0,0.37037037037037035,0.4,0.004761904761904745
org.apache.jk.common,1.0,27.0,0.9642857142857143,0.0,0.013157894736842146
org.apache.tomcat.util.threads,13.0,3.0,0.1875,0.3333333333333333,0.10000000000000009
org.apache.coyote,62.0,8.0,0.11428571428571428,0.5384615384615384,0.21763602251407133
org.apache.coyote.memory,0.0,7.0,1.0,0.0,0.0
org.apache.tomcat.util.buf,80.0,3.0,0.03614457831325301,0.15384615384615385,0.48615384615384616
org.apache.tomcat.dbcp.dbcp.datasources,0.0,7.0,1.0,0.15789473684210525,0.1578947368421053
org.apache.juli,2.0,0.0,0.0,0.0,0.036363636363636376
org.eclipse.jdt.core.compiler,125.0,1.0,0.007936507936507936,0.6,0.3398496240601504
org.eclipse.jdt.internal.compiler.lookup,141.0,53.0,0.27319587628865977,0.1643835616438356,0.4914303918445364
org.eclipse.jdt.internal.compiler.problem,119.0,62.0,0.3425414364640884,0.1,0.5040609137055837
org.eclipse.jdt.internal.compiler.util,58.0,9.0,0.13432835820895522,0.08,0.44727272727272727
org.eclipse.jdt.internal.compiler.apt.dispatch,17.0,34.0,0.6666666666666666,0.1875,0.010416666666666519
org.eclipse.jdt.internal.compiler.batch,10.0,32.0,0.7619047619047619,0.15789473684210525,0.048004626951995366
org.eclipse.jdt.internal.compiler.classfmt,10.0,21.0,0.6774193548387096,0.14285714285714285,0.0494505494505495
org.eclipse.jdt.internal.compiler.env,34.0,1.0,0.02857142857142857,0.7272727272727273,0.16746411483253587
org.apache.coyote.ajp,1.0,25.0,0.9615384615384616,0.0,0.019607843137254943
org.apache.tomcat.util.net,22.0,20.0,0.47619047619047616,0.14516129032258066,0.042872897711607405
org.apache.catalina.loader,5.0,19.0,0.7916666666666666,0.15384615384615385,0.10334110334110336
org.apache.tomcat.dbcp.pool,21.0,0.0,0.0,0.37037037037037035,0.16809116809116809
org.apache.catalina.session,10.0,32.0,0.7619047619047619,0.13043478260869565,0.03142488161859669
org.apache.catalina.ha.session,4.0,44.0,0.9166666666666666,0.11764705882352941,0.07463630613535743
org.apache.catalina.ha,21.0,11.0,0.34375,0.7,0.08235294117647052
org.apache.catalina.tribes.io,30.0,5.0,0.14285714285714285,0.2,0.2615384615384615
org.apache.jasper.compiler,17.0,57.0,0.7702702702702703,0.04225352112676056,0.055447628298526785
org.apache.jasper.util,2.0,0.0,0.0,0.0,0.25
org.apache.catalina.manager.util,12.0,2.0,0.14285714285714285,0.3333333333333333,0.1282051282051282
org.apache.catalina.tribes.group,19.0,28.0,0.5957446808510638,0.13333333333333333,0.1635416666666667
org.apache.catalina.tribes.group.interceptors,2.0,24.0,0.9230769230769231,0.0,0.032786885245901676
org.apache.tomcat.dbcp.jocl,1.0,0.0,0.0,0.0,0.03703703703703709
org.apache.tomcat.util,35.0,2.0,0.05405405405405406,0.25,0.21666666666666667
org.apache.tomcat.util.http.mapper,7.0,5.0,0.4166666666666667,0.14285714285714285,0.20714285714285707
javax.el,47.0,0.0,0.0,0.34615384615384615,0.18193604148660336
org.apache.jasper.el,6.0,23.0,0.7931034482758621,0.0,0.16216216216216217
org.apache.naming.factory,1.0,5.0,0.8333333333333334,0.0,0.019607843137254943
org.apache.catalina.ssi,0.0,20.0,1.0,0.14285714285714285,0.1428571428571428
org.eclipse.jdt.internal.compiler.impl,62.0,5.0,0.07462686567164178,0.2,0.5948717948717949
org.apache.el.lang,17.0,21.0,0.5526315789473685,0.07142857142857142,0.17142857142857149
org.apache.el.parser,3.0,16.0,0.8421052631578947,0.1,0.04444444444444451
org.apache.jasper,33.0,16.0,0.32653061224489793,0.16666666666666666,0.18817204301075274
org.apache.jasper.runtime,4.0,52.0,0.9285714285714286,0.07142857142857142,0.032593619972260734
javax.servlet.jsp.el,9.0,10.0,0.5263157894736842,0.22727272727272727,0.022727272727272707
org.apache.jasper.security,5.0,2.0,0.2857142857142857,0.0,0.41666666666666663
org.eclipse.jdt.internal.compiler.codegen,64.0,25.0,0.2808988764044944,0.13043478260869565,0.4733388022969647
org.apache.tomcat.util.collections,0.0,3.0,1.0,0.0,0.0
org.apache.catalina.servlets,0.0,29.0,1.0,0.0,0.0
javax.servlet.http,72.0,8.0,0.1,0.5294117647058824,0.1696173615077099
org.apache.coyote.http11.filters,6.0,12.0,0.6666666666666666,0.0,0.24
org.apache.tomcat.util.log,6.0,1.0,0.14285714285714285,0.0,0.4285714285714286
org.apache.tomcat.util.http.fileupload,1.0,1.0,0.5,0.25,0.2065217391304348
org.apache.tomcat.dbcp.collections,0.0,0.0,0.0,0.07692307692307693,0.07692307692307687
javax.servlet.jsp,29.0,2.0,0.06451612903225806,0.6666666666666666,0.18627450980392157
org.apache.catalina.tribes,46.0,1.0,0.02127659574468085,0.7,0.10701754385964923
org.apache.coyote.http11,10.0,56.0,0.8484848484848485,0.0625,0.03183962264150941
org.apache.catalina.manager,0.0,34.0,1.0,0.0,0.0
org.apache.jasper.compiler.tagplugin,16.0,0.0,0.0,1.0,0.0
org.apache.jasper.tagplugins.jstl.core,0.0,3.0,1.0,0.0,0.0
javax.ejb,1.0,0.0,0.0,1.0,0.75
org.apache.jasper.xmlparser,6.0,6.0,0.5,0.0,0.13043478260869568
org.eclipse.jdt.internal.compiler.tool,0.0,22.0,1.0,0.0,0.0
org.apache.catalina.authenticator,2.0,34.0,0.9444444444444444,0.07692307692307693,0.044136191677175196
org.apache.tomcat.jni,9.0,0.0,0.0,0.12903225806451613,0.5138248847926268
org.eclipse.jdt.internal.compiler.apt.model,4.0,30.0,0.8823529411764706,0.08333333333333333,0.0444983818770226
org.apache.catalina.ant,1.0,3.0,0.75,0.10526315789473684,0.07192982456140351
org.apache.el.util,14.0,4.0,0.2222222222222222,0.0,0.3783783783783784
org.apache.tomcat.dbcp.dbcp,6.0,8.0,0.5714285714285714,0.03571428571428571,0.06264637002341922
org.apache.catalina.filters,0.0,16.0,1.0,0.125,0.125
org.apache.el,4.0,12.0,0.75,0.0,0.17391304347826086
javax.annotation,2.0,0.0,0.0,0.8333333333333334,0.5
org.apache.catalina.security,14.0,8.0,0.36363636363636365,0.0,0.3589743589743589
javax.xml.ws,1.0,0.0,0.0,1.0,0.75
org.eclipse.jdt.core,1.0,4.0,0.8,0.0,0.032258064516129004
org.eclipse.jdt.internal.antadapter,1.0,0.0,0.0,0.0,0.1428571428571429
org.apache.catalina.ha.deploy,0.0,11.0,1.0,0.125,0.125
org.apache.tomcat.dbcp.dbcp.cpdsadapter,0.0,7.0,1.0,0.0,0.0
org.apache.jk.apr,4.0,5.0,0.5555555555555556,0.0,0.18181818181818177
org.apache.catalina.tribes.membership,9.0,10.0,0.5263157894736842,0.0,0.1875
org.apache.catalina.tribes.util,20.0,8.0,0.2857142857142857,0.0,0.37735849056603776
org.apache.catalina.ha.context,0.0,13.0,1.0,0.0,0.0
org.apache.tomcat.util.net.jsse,4.0,6.0,0.6,0.0,0.07272727272727275
org.apache.catalina.ant.jmx,0.0,1.0,1.0,0.0,0.0
javax.annotation.security,1.0,0.0,0.0,1.0,0.75
org.apache.catalina.tribes.tipis,3.0,15.0,0.8333333333333334,0.5,0.42307692307692313
org.apache.jk.config,0.0,13.0,1.0,0.1,0.10000000000000009
org.apache.catalina.tribes.transport,12.0,10.0,0.45454545454545453,0.5833333333333334,0.27564102564102555
org.apache.catalina.tribes.transport.nio,2.0,22.0,0.9166666666666666,0.0,0.039215686274509776
org.apache.catalina.tribes.transport.bio,0.0,20.0,1.0,0.0,0.0
org.eclipse.jdt.internal.compiler.parser.diagnose,1.0,11.0,0.9166666666666666,0.0,0.0625
org.apache.jasper.tagplugins.jstl,4.0,5.0,0.5555555555555556,0.0,0.25
org.apache.commons.daemon,4.0,0.0,0.0,0.7142857142857143,0.4065934065934065
org.apache.commons.daemon.support,0.0,4.0,1.0,0.0,0.0
org.apache.tomcat.util.modeler.modules,2.0,11.0,0.8461538461538461,0.14285714285714285,0.1020408163265305
org.apache.jasper.servlet,5.0,24.0,0.8275862068965517,0.0,0.09433962264150941
org.apache.jk.server,0.0,13.0,1.0,0.0,0.0
javax.persistence,1.0,0.0,0.0,0.8333333333333334,0.6333333333333333
org.apache.catalina.tribes.transport.bio.util,2.0,4.0,0.6666666666666666,0.0,0.2222222222222222
org.apache.catalina.users,0.0,10.0,1.0,0.25,0.25
org.apache,8.0,0.0,0.0,1.0,0.0
org.eclipse.jdt.internal.compiler.apt.util,3.0,8.0,0.7272727272727273,0.0,0.050000000000000044
org.apache.catalina.ha.tcp,1.0,39.0,0.975,0.0,0.016949152542372836
org.apache.catalina.ha.util,1.0,0.0,0.0,1.0,0.0
org.apache.naming.resources.jndi,0.0,1.0,1.0,0.0,0.0
org.apache.catalina.manager.host,0.0,20.0,1.0,0.0,0.0
org.apache.naming.java,0.0,3.0,1.0,0.0,0.0
org.apache.catalina.ha.authenticator,0.0,14.0,1.0,0.0,0.0
org.eclipse.jdt.core.compiler.batch,0.0,1.0,1.0,0.0,0.0
