Package,CA,CE,RMI,RMA,RMD
org.apache.tomcat.util.modeler,33.0,3.0,0.08333333333333333,0.06666666666666667,0.2881720430107527
org.apache.catalina.mbeans,13.0,61.0,0.8243243243243243,0.0,0.125
org.apache.catalina.deploy,35.0,27.0,0.43548387096774194,0.034482758620689655,0.33393829401088937
javax.servlet.jsp.tagext,28.0,1.0,0.034482758620689655,0.5384615384615384,0.17948717948717952
org.apache.naming,18.0,2.0,0.1,0.0,0.29508196721311475
org.apache.catalina,160.0,1.0,0.006211180124223602,0.7894736842105263,0.14075887392900854
org.apache.catalina.valves,13.0,44.0,0.7719298245614035,0.0379746835443038,0.08129137150156773
org.apache.catalina.connector,84.0,79.0,0.48466257668711654,0.02,0.3653211009174312
org.apache.tomcat.util,102.0,2.0,0.019230769230769232,0.25,0.45833333333333326
javax.servlet,113.0,5.0,0.0423728813559322,0.6428571428571429,0.16428571428571426
org.apache.catalina.util,70.0,23.0,0.24731182795698925,0.05405405405405406,0.3753937987066821
org.apache.tomcat.util.res,175.0,0.0,0.0,0.0,0.9510869565217391
org.apache.juli.logging,310.0,0.0,0.0,0.25,0.7097523219814241
org.apache.tomcat.util.bcel.classfile,1.0,3.0,0.75,0.14705882352941177,0.11764705882352944
org.apache.tomcat.util.bcel.util,9.0,0.0,0.0,0.3333333333333333,0.48484848484848486
org.eclipse.jdt.internal.compiler.flow,44.0,20.0,0.3125,0.07142857142857142,0.5662525879917184
org.eclipse.jdt.internal.compiler.ast,48.0,84.0,0.6363636363636364,0.1391304347826087,0.19889773423147583
org.apache.tomcat.util.digester,51.0,5.0,0.08928571428571429,0.21428571428571427,0.29066478076379065
org.apache.catalina.realm,9.0,39.0,0.8125,0.09090909090909091,0.013322884012539227
org.apache.jasper.compiler,18.0,64.0,0.7804878048780488,0.046357615894039736,0.04837922621122337
org.eclipse.jdt.internal.compiler,117.0,72.0,0.38095238095238093,0.2,0.3416666666666667
org.eclipse.jdt.internal.compiler.parser,13.0,110.0,0.8943089430894309,0.19230769230769232,0.10734037204625446
org.apache.catalina.core,24.0,182.0,0.883495145631068,0.013888888888888888,0.06018518518518523
org.apache.tomcat.util.http.fileupload,8.0,4.0,0.3333333333333333,0.28205128205128205,0.11538461538461542
org.apache.catalina.filters,0.0,21.0,1.0,0.06896551724137931,0.06896551724137923
org.apache.naming.resources,10.0,12.0,0.5454545454545454,0.047619047619047616,0.07286288009179587
org.apache.coyote,62.0,18.0,0.225,0.45454545454545453,0.14739629302736101
org.apache.tomcat.util.http,30.0,10.0,0.25,0.0,0.4225352112676056
org.apache.tomcat.dbcp.pool.impl,5.0,9.0,0.6428571428571429,0.0,0.09090909090909094
org.apache.catalina.startup,8.0,89.0,0.9175257731958762,0.013333333333333334,0.030622710622710603
org.apache.juli,2.0,0.0,0.0,0.0,0.036363636363636376
org.eclipse.jdt.internal.compiler.apt.dispatch,17.0,34.0,0.6666666666666666,0.1875,0.010416666666666519
org.eclipse.jdt.internal.compiler.batch,10.0,32.0,0.7619047619047619,0.15789473684210525,0.048004626951995366
org.eclipse.jdt.internal.compiler.classfmt,10.0,21.0,0.6774193548387096,0.14285714285714285,0.0494505494505495
org.eclipse.jdt.internal.compiler.env,33.0,1.0,0.029411764705882353,0.7272727272727273,0.1646191646191646
org.eclipse.jdt.core.compiler,125.0,1.0,0.007936507936507936,0.6,0.3398496240601504
org.eclipse.jdt.internal.compiler.lookup,138.0,49.0,0.2620320855614973,0.1643835616438356,0.5022831050228311
org.eclipse.jdt.internal.compiler.util,58.0,9.0,0.13432835820895522,0.08,0.44727272727272727
org.apache.tomcat.util.net,39.0,22.0,0.36065573770491804,0.2033898305084746,0.11112629852378353
org.apache.coyote.ajp,1.0,37.0,0.9736842105263158,0.1875,0.171875
org.apache.catalina.loader,6.0,22.0,0.7857142857142857,0.08333333333333333,0.02450980392156854
org.apache.tomcat.jdbc.pool,9.0,5.0,0.35714285714285715,0.1111111111111111,0.01637426900584793
org.apache.tomcat.dbcp.pool,21.0,0.0,0.0,0.37037037037037035,0.16809116809116809
org.apache.catalina.session,6.0,32.0,0.8421052631578947,0.13636363636363635,0.07450796626054368
org.apache.catalina.ha.session,5.0,38.0,0.8837209302325582,0.14285714285714285,0.08333333333333326
org.apache.catalina.ha,19.0,10.0,0.3448275862068966,0.7777777777777778,0.16487455197132617
org.apache.catalina.tribes.io,31.0,5.0,0.1388888888888889,0.2222222222222222,0.2547008547008547
org.apache.jasper.util,14.0,1.0,0.06666666666666667,0.0,0.4516129032258065
org.apache.tomcat.jdbc.pool.interceptor,1.0,9.0,0.9,0.1875,0.16863207547169812
org.apache.catalina.manager.util,12.0,3.0,0.2,0.3333333333333333,0.11111111111111116
org.apache.catalina.tribes.group,17.0,29.0,0.6304347826086957,0.17647058823529413,0.08506787330316734
org.apache.catalina.tribes.group.interceptors,2.0,23.0,0.92,0.0,0.03448275862068961
org.apache.tomcat.dbcp.jocl,1.0,0.0,0.0,0.0,0.03703703703703709
org.apache.tomcat.util.buf,68.0,3.0,0.04225352112676056,0.16666666666666666,0.462962962962963
org.apache.tomcat.util.http.mapper,7.0,6.0,0.46153846153846156,0.125,0.22499999999999998
org.apache.tomcat.util.threads,3.0,3.0,0.5,0.1,0.036363636363636376
javax.el,47.0,0.0,0.0,0.2727272727272727,0.17489177489177488
org.apache.jasper.el,5.0,23.0,0.8214285714285714,0.0,0.1351351351351351
org.apache.naming.factory,1.0,5.0,0.8333333333333334,0.0,0.01851851851851849
javax.servlet.annotation,6.0,0.0,0.0,0.8181818181818182,0.31818181818181834
org.apache.catalina.ssi,0.0,22.0,1.0,0.14285714285714285,0.1428571428571428
org.eclipse.jdt.internal.compiler.impl,63.0,5.0,0.07352941176470588,0.2,0.5974683544303797
org.apache.el.lang,16.0,19.0,0.5428571428571428,0.07142857142857142,0.16737739872068236
org.apache.el.parser,3.0,17.0,0.85,0.09615384615384616,0.045306388526727526
org.apache.jasper,32.0,17.0,0.3469387755102041,0.16666666666666666,0.1470588235294118
org.apache.jasper.runtime,4.0,51.0,0.9272727272727272,0.07142857142857142,0.03221288515406173
javax.servlet.jsp.el,9.0,10.0,0.5263157894736842,0.22727272727272727,0.03743315508021383
org.apache.jasper.security,5.0,2.0,0.2857142857142857,0.0,0.4545454545454546
org.eclipse.jdt.internal.compiler.codegen,64.0,25.0,0.2808988764044944,0.13043478260869565,0.4733388022969647
org.eclipse.jdt.internal.compiler.problem,116.0,59.0,0.33714285714285713,0.1,0.5073298429319372
javax.servlet.http,86.0,8.0,0.0851063829787234,0.5555555555555556,0.17325800376647837
org.apache.catalina.servlets,0.0,26.0,1.0,0.0,0.0
org.apache.catalina.ha.backend,0.0,6.0,1.0,0.14285714285714285,0.1428571428571428
javax.servlet.descriptor,5.0,0.0,0.0,1.0,0.0
org.apache.coyote.http11.filters,5.0,12.0,0.7058823529411765,0.0,0.19999999999999996
org.apache.tomcat.util.log,9.0,1.0,0.1,0.0,0.5294117647058824
org.apache.tomcat,18.0,0.0,0.0,1.0,0.0
javax.servlet.jsp,30.0,2.0,0.0625,0.6666666666666666,0.19047619047619047
org.apache.catalina.tribes,47.0,1.0,0.020833333333333332,0.7,0.12456140350877198
org.apache.coyote.http11,10.0,61.0,0.8591549295774648,0.21212121212121213,0.1159673659673659
org.apache.catalina.manager,0.0,36.0,1.0,0.0,0.0
org.apache.jasper.compiler.tagplugin,16.0,0.0,0.0,1.0,0.0
org.apache.jasper.tagplugins.jstl.core,0.0,3.0,1.0,0.0,0.0
javax.ejb,1.0,0.0,0.0,1.0,0.75
org.apache.jasper.xmlparser,6.0,6.0,0.5,0.0,0.13043478260869568
org.eclipse.jdt.internal.compiler.tool,0.0,22.0,1.0,0.0,0.0
org.apache.catalina.authenticator,3.0,37.0,0.925,0.06666666666666667,0.023809523809523947
org.apache.tomcat.jni,10.0,0.0,0.0,0.12903225806451613,0.39728353140916806
org.eclipse.jdt.internal.compiler.apt.model,4.0,30.0,0.8823529411764706,0.08333333333333333,0.0444983818770226
org.apache.catalina.ant,1.0,3.0,0.75,0.16666666666666666,0.13541666666666674
org.apache.el.util,14.0,2.0,0.125,0.0,0.31818181818181823
org.apache.catalina.ha.jmx,1.0,11.0,0.9166666666666666,0.0,0.05555555555555558
org.apache.catalina.ha.tcp,2.0,38.0,0.95,0.0,0.0357142857142857
org.apache.catalina.ha.deploy,1.0,14.0,0.9333333333333333,0.1111111111111111,0.08408408408408419
org.apache.catalina.ha.authenticator,1.0,15.0,0.9375,0.0,0.045454545454545414
org.apache.tomcat.dbcp.dbcp.datasources,0.0,7.0,1.0,0.25,0.25
org.apache.tomcat.dbcp.dbcp,6.0,8.0,0.5714285714285714,0.03571428571428571,0.06105990783410142
org.apache.coyote.http11.upgrade,8.0,8.0,0.5,0.2857142857142857,0.04761904761904767
org.apache.tomcat.util.http.parser,2.0,0.0,0.0,0.17647058823529413,0.07120743034055721
javax.annotation,2.0,0.0,0.0,0.8333333333333334,0.5
org.apache.catalina.comet,9.0,2.0,0.18181818181818182,0.6666666666666666,0.08333333333333337
org.apache.catalina.security,16.0,11.0,0.4074074074074074,0.0,0.326530612244898
javax.xml.ws,1.0,0.0,0.0,1.0,0.75
org.eclipse.jdt.core,1.0,4.0,0.8,0.0,0.032258064516129004
org.eclipse.jdt.internal.antadapter,1.0,0.0,0.0,0.0,0.1428571428571429
org.apache.tomcat.dbcp.dbcp.cpdsadapter,0.0,7.0,1.0,0.0,0.0
org.apache.catalina.tribes.membership,9.0,14.0,0.6086956521739131,0.0,0.15254237288135597
org.apache.catalina.tribes.util,24.0,8.0,0.25,0.0,0.39344262295081966
org.apache.catalina.ha.context,0.0,10.0,1.0,0.0,0.0
org.apache.tomcat.util.bcel,4.0,0.0,0.0,1.0,0.0
org.apache.catalina.ant.jmx,0.0,1.0,1.0,0.0,0.0
javax.annotation.security,1.0,0.0,0.0,1.0,0.75
org.apache.tomcat.util.net.jsse,2.0,9.0,0.8181818181818182,0.0,0.03703703703703709
org.apache.catalina.tribes.tipis,3.0,15.0,0.8333333333333334,0.5,0.42307692307692313
org.apache.catalina.tribes.transport,12.0,11.0,0.4782608695652174,0.5384615384615384,0.2593917710196778
org.apache.catalina.tribes.transport.nio,2.0,20.0,0.9090909090909091,0.0,0.03703703703703709
org.apache.tomcat.util.http.fileupload.servlet,1.0,3.0,0.75,0.0,0.16666666666666663
org.apache.tomcat.jdbc.pool.jmx,4.0,5.0,0.5555555555555556,0.5,0.30000000000000004
org.apache.catalina.tribes.transport.bio,0.0,18.0,1.0,0.0,0.0
org.eclipse.jdt.internal.compiler.parser.diagnose,1.0,11.0,0.9166666666666666,0.0,0.0625
org.apache.jasper.tagplugins.jstl,4.0,5.0,0.5555555555555556,0.0,0.2666666666666667
org.apache.tomcat.util.scan,6.0,7.0,0.5384615384615384,0.14285714285714285,0.03896103896103886
org.apache.commons.daemon,4.0,0.0,0.0,0.7142857142857143,0.4065934065934065
org.apache.commons.daemon.support,0.0,4.0,1.0,0.0,0.0
org.apache.el,1.0,12.0,0.9230769230769231,0.0,0.050000000000000044
org.apache.tomcat.util.modeler.modules,1.0,11.0,0.9166666666666666,0.2857142857142857,0.26571428571428557
org.apache.jasper.servlet,5.0,27.0,0.84375,0.0,0.078125
org.apache.catalina.websocket,0.0,12.0,1.0,0.375,0.375
org.apache.tomcat.util.http.fileupload.util,7.0,2.0,0.2222222222222222,0.5,0.18181818181818166
javax.persistence,1.0,0.0,0.0,0.8333333333333334,0.6333333333333333
org.apache.catalina.tribes.transport.bio.util,2.0,4.0,0.6666666666666666,0.0,0.25
org.apache.tomcat.util.http.fileupload.disk,2.0,9.0,0.8181818181818182,0.0,0.07692307692307687
org.apache.catalina.users,0.0,10.0,1.0,0.25,0.25
org.eclipse.jdt.internal.compiler.apt.util,3.0,8.0,0.7272727272727273,0.0,0.050000000000000044
org.apache.catalina.ha.util,1.0,0.0,0.0,1.0,0.0
org.apache.naming.resources.jndi,0.0,1.0,1.0,0.0,0.0
org.apache.catalina.manager.host,0.0,21.0,1.0,0.0,0.0
org.apache.tomcat.jdbc.naming,0.0,2.0,1.0,0.0,0.0
org.apache.naming.java,0.0,3.0,1.0,0.0,0.0
org.apache.tomcat.util.file,1.0,3.0,0.75,0.0,0.09999999999999998
org.eclipse.jdt.core.compiler.batch,0.0,1.0,1.0,0.0,0.0
