UnstableDependenciesPackage,InstabilityUnstableDependenciesPackage,CorrelatedPackage,InstabilityCorrelatedPackage
org.eclipse.jdt.core.compiler,0.06015037593984962,org.eclipse.jdt.internal.compiler.parser,0.9150326797385621
org.eclipse.jdt.internal.compiler.lookup,0.3333333333333333,org.eclipse.jdt.internal.compiler,0.4583333333333333
org.eclipse.jdt.internal.compiler.lookup,0.3333333333333333,org.eclipse.jdt.internal.compiler.codegen,0.39622641509433965
org.eclipse.jdt.internal.compiler.lookup,0.3333333333333333,org.eclipse.jdt.internal.compiler.problem,0.39267015706806285
org.eclipse.jdt.internal.compiler.lookup,0.3333333333333333,org.eclipse.jdt.internal.compiler.util,0.4727272727272727
org.eclipse.jdt.internal.compiler.lookup,0.3333333333333333,org.eclipse.jdt.internal.compiler.ast,0.6619718309859155
org.eclipse.jdt.internal.compiler.lookup,0.3333333333333333,org.eclipse.jdt.internal.compiler.flow,0.36231884057971014
org.apache.catalina.connector,0.6146788990825688,org.apache.catalina.realm,0.9224137931034483
org.apache.catalina.connector,0.6146788990825688,org.apache.tomcat.util.http.mapper,0.65
org.apache.catalina.connector,0.6146788990825688,org.apache.catalina.core,0.9259259259259259
org.apache.catalina.connector,0.6146788990825688,org.apache.tomcat.util.http.parser,0.8947368421052632
org.apache.catalina.connector,0.6146788990825688,org.apache.tomcat.util.net,0.6854838709677419
org.apache.catalina.connector,0.6146788990825688,org.apache.catalina.security,0.673469387755102
org.apache.catalina.connector,0.6146788990825688,org.apache.catalina.mbeans,0.875
org.apache.catalina.connector,0.6146788990825688,org.apache.tomcat.util.http.fileupload.servlet,0.8333333333333334
org.apache.catalina.connector,0.6146788990825688,org.apache.tomcat.util.http.fileupload.disk,0.9230769230769231
org.eclipse.jdt.internal.compiler.codegen,0.39622641509433965,org.eclipse.jdt.internal.compiler.ast,0.6619718309859155
org.eclipse.jdt.internal.compiler.codegen,0.39622641509433965,org.eclipse.jdt.internal.compiler,0.4583333333333333
org.eclipse.jdt.internal.compiler.codegen,0.39622641509433965,org.eclipse.jdt.internal.compiler.util,0.4727272727272727
org.eclipse.jdt.internal.compiler.codegen,0.39622641509433965,org.eclipse.jdt.internal.compiler.classfmt,0.8076923076923077
org.eclipse.jdt.internal.compiler.flow,0.36231884057971014,org.eclipse.jdt.internal.compiler.problem,0.39267015706806285
org.eclipse.jdt.internal.compiler.flow,0.36231884057971014,org.eclipse.jdt.internal.compiler.ast,0.6619718309859155
org.eclipse.jdt.internal.compiler.flow,0.36231884057971014,org.eclipse.jdt.internal.compiler.codegen,0.39622641509433965
org.eclipse.jdt.internal.compiler.problem,0.39267015706806285,org.eclipse.jdt.internal.compiler.ast,0.6619718309859155
org.eclipse.jdt.internal.compiler.problem,0.39267015706806285,org.eclipse.jdt.internal.compiler.parser,0.9150326797385621
org.eclipse.jdt.internal.compiler.problem,0.39267015706806285,org.eclipse.jdt.internal.compiler.util,0.4727272727272727
org.eclipse.jdt.internal.compiler.problem,0.39267015706806285,org.eclipse.jdt.internal.compiler,0.4583333333333333
javax.servlet.jsp,0.14285714285714285,javax.servlet,0.19285714285714287
org.eclipse.jdt.internal.compiler,0.4583333333333333,org.eclipse.jdt.core,0.967741935483871
org.eclipse.jdt.internal.compiler,0.4583333333333333,org.eclipse.jdt.internal.compiler.ast,0.6619718309859155
org.eclipse.jdt.internal.compiler,0.4583333333333333,org.eclipse.jdt.internal.compiler.util,0.4727272727272727
org.eclipse.jdt.internal.compiler,0.4583333333333333,org.eclipse.jdt.internal.compiler.parser,0.9150326797385621
org.eclipse.jdt.internal.compiler,0.4583333333333333,org.eclipse.jdt.internal.compiler.classfmt,0.8076923076923077
org.apache.catalina.mbeans,0.875,org.apache.catalina.valves,0.8807339449541285
org.apache.catalina.mbeans,0.875,org.apache.coyote.http11,0.9038461538461539
org.apache.catalina.mbeans,0.875,org.apache.coyote.ajp,0.984375
org.apache.catalina.mbeans,0.875,org.apache.catalina.session,0.9381443298969072
org.apache.catalina.mbeans,0.875,org.apache.catalina.loader,0.9411764705882353
org.apache.catalina.mbeans,0.875,org.apache.catalina.authenticator,0.9571428571428572
org.apache.catalina.mbeans,0.875,org.apache.catalina.realm,0.9224137931034483
org.apache.catalina.mbeans,0.875,org.apache.catalina.core,0.9259259259259259
org.apache.catalina.mbeans,0.875,org.apache.catalina.startup,0.9560439560439561
org.eclipse.jdt.internal.compiler.impl,0.20253164556962025,org.eclipse.jdt.internal.compiler.ast,0.6619718309859155
org.eclipse.jdt.internal.compiler.impl,0.20253164556962025,org.eclipse.jdt.internal.compiler.util,0.4727272727272727
org.eclipse.jdt.internal.compiler.impl,0.20253164556962025,org.eclipse.jdt.internal.compiler.lookup,0.3333333333333333
org.eclipse.jdt.internal.compiler.impl,0.20253164556962025,org.eclipse.jdt.internal.compiler.problem,0.39267015706806285
