IdCycle,CycleType,ElementList
6265,circle,"org.apache.catalina.core.ApplicationDispatcher,org.apache.catalina.core.ApplicationContext,org.apache.catalina.core.StandardWrapperFacade,org.apache.catalina.core.StandardWrapper,org.apache.catalina.core.ApplicationDispatcher"
6266,circle,"org.apache.catalina.realm.MemoryUserRule,org.apache.catalina.realm.MemoryRuleSet,org.apache.catalina.realm.MemoryRealm,org.apache.catalina.realm.MemoryUserRule"
6267,circle,"org.apache.tomcat.util.bcel.classfile.Utility,org.apache.tomcat.util.bcel.classfile.Constant,org.apache.tomcat.util.bcel.classfile.ConstantPool,org.apache.tomcat.util.bcel.classfile.Utility"
6268,circle,"org.apache.tomcat.util.bcel.classfile.ElementValue,org.apache.tomcat.util.bcel.classfile.ElementValuePair,org.apache.tomcat.util.bcel.classfile.AnnotationEntry,org.apache.tomcat.util.bcel.classfile.ElementValue"
6269,circle,"org.apache.tomcat.util.net.SocketWrapperBase,org.apache.tomcat.util.net.SocketProcessorBase,org.apache.tomcat.util.net.AbstractEndpoint,org.apache.tomcat.util.net.SocketWrapperBase"
6270,circle,"javax.el.StandardELContext,javax.el.ELManager,javax.el.ELContext,javax.el.StandardELContext"
6271,circle,"javax.el.BeanELResolver,javax.el.StandardELContext,javax.el.ELManager,javax.el.BeanELResolver"
6272,circle,"org.eclipse.jdt.internal.compiler.lookup.InferenceSubstitution,org.eclipse.jdt.internal.compiler.lookup.TypeBound,org.eclipse.jdt.internal.compiler.lookup.TypeVariableBinding,org.eclipse.jdt.internal.compiler.lookup.InferenceSubstitution"
6273,circle,"org.eclipse.jdt.internal.compiler.lookup.ConstraintFormula,org.eclipse.jdt.internal.compiler.lookup.ConstraintTypeFormula,org.eclipse.jdt.internal.compiler.lookup.ReductionResult$1,org.eclipse.jdt.internal.compiler.lookup.ReductionResult,org.eclipse.jdt.internal.compiler.lookup.ConstraintFormula"
6274,circle,"org.eclipse.jdt.internal.compiler.lookup.ConstraintTypeFormula,org.eclipse.jdt.internal.compiler.lookup.ReductionResult$1,org.eclipse.jdt.internal.compiler.lookup.ReductionResult,org.eclipse.jdt.internal.compiler.lookup.TypeBound,org.eclipse.jdt.internal.compiler.lookup.ConstraintTypeFormula"
6275,circle,"org.eclipse.jdt.internal.compiler.classfmt.ExternalAnnotationProvider$BasicAnnotationWalker,org.eclipse.jdt.internal.compiler.classfmt.ExternalAnnotationProvider$TypeParametersAnnotationWalker,org.eclipse.jdt.internal.compiler.classfmt.ExternalAnnotationProvider$DispatchingAnnotationWalker,org.eclipse.jdt.internal.compiler.classfmt.ExternalAnnotationProvider,org.eclipse.jdt.internal.compiler.classfmt.ExternalAnnotationProvider$BasicAnnotationWalker"
6276,circle,"org.eclipse.jdt.internal.compiler.apt.model.TypeMirrorImpl,org.eclipse.jdt.internal.compiler.apt.model.PrimitiveTypeImpl,org.eclipse.jdt.internal.compiler.apt.model.Factory,org.eclipse.jdt.internal.compiler.apt.model.TypeMirrorImpl"
6277,circle,"org.apache.tomcat.jdbc.pool.DataSource,org.apache.tomcat.jdbc.pool.DataSourceFactory,org.apache.tomcat.jdbc.pool.DataSourceProxy,org.apache.tomcat.jdbc.pool.DataSource"
6278,circle,"org.apache.jasper.compiler.TextOptimizer$TextCatVisitor,org.apache.jasper.compiler.TextOptimizer,org.apache.jasper.compiler.Compiler,org.apache.jasper.compiler.TextOptimizer$TextCatVisitor"
6279,circle,"org.apache.tomcat.websocket.WsSession,org.apache.tomcat.websocket.pojo.PojoMessageHandlerWholeBase,org.apache.tomcat.websocket.pojo.PojoMessageHandlerWholeBinary,org.apache.tomcat.websocket.Util,org.apache.tomcat.websocket.WsSession"
6280,circle,"org.apache.catalina.ssi.ExpressionParseTree$CompareNode,org.apache.catalina.ssi.ExpressionParseTree$EqualNode,org.apache.catalina.ssi.ExpressionParseTree,org.apache.catalina.ssi.ExpressionParseTree$CompareNode"
6281,circle,"org.apache.catalina.ha.tcp.ReplicationValve,org.apache.catalina.ha.session.ClusterManagerBase,org.apache.catalina.ha.session.DeltaSession,org.apache.catalina.ha.tcp.ReplicationValve"
6282,circle,"org.apache.catalina.ha.session.DeltaManager,org.apache.catalina.ha.tcp.ReplicationValve,org.apache.catalina.ha.session.ClusterManagerBase,org.apache.catalina.ha.session.DeltaManager"
6283,clique,"org.apache.tomcat.util.net.SSLUtilBase,org.apache.tomcat.util.net.SSLHostConfig,org.apache.tomcat.util.net.SSLHostConfigCertificate,org.apache.tomcat.util.net.SSLUtilBase"
6284,clique,"org.apache.catalina.connector.Request,org.apache.catalina.connector.Connector,org.apache.catalina.connector.Response,org.apache.catalina.connector.Request"
6285,clique,"org.apache.tomcat.util.http.fileupload.FileUploadBase$FileItemIteratorImpl$FileItemStreamImpl,org.apache.tomcat.util.http.fileupload.FileUploadBase$FileItemIteratorImpl,org.apache.tomcat.util.http.fileupload.FileUploadBase,org.apache.tomcat.util.http.fileupload.FileUploadBase$FileItemIteratorImpl$FileItemStreamImpl"
6286,clique,"org.eclipse.jdt.internal.compiler.parser.RecoveredMethod,org.eclipse.jdt.internal.compiler.parser.RecoveredType,org.eclipse.jdt.internal.compiler.parser.RecoveredElement,org.eclipse.jdt.internal.compiler.parser.RecoveredMethod"
6287,clique,"org.eclipse.jdt.internal.compiler.parser.RecoveredInitializer,org.eclipse.jdt.internal.compiler.parser.RecoveredType,org.eclipse.jdt.internal.compiler.parser.RecoveredElement,org.eclipse.jdt.internal.compiler.parser.RecoveredInitializer"
6288,clique,"org.eclipse.jdt.internal.compiler.problem.ProblemReporter,org.eclipse.jdt.internal.compiler.ast.ArrayTypeReference,org.eclipse.jdt.internal.compiler.ast.SingleTypeReference,org.eclipse.jdt.internal.compiler.problem.ProblemReporter"
6289,clique,"org.eclipse.jdt.internal.compiler.lookup.Scope,org.eclipse.jdt.internal.compiler.lookup.BlockScope,org.eclipse.jdt.internal.compiler.lookup.MethodScope,org.eclipse.jdt.internal.compiler.lookup.Scope"
6290,clique,"org.eclipse.jdt.internal.compiler.lookup.BlockScope,org.eclipse.jdt.internal.compiler.lookup.MethodScope,org.eclipse.jdt.internal.compiler.lookup.LocalVariableBinding,org.eclipse.jdt.internal.compiler.lookup.BlockScope"
6291,clique,"org.apache.jasper.servlet.JspServletWrapper,org.apache.jasper.compiler.JspRuntimeContext,org.apache.jasper.JspCompilationContext,org.apache.jasper.servlet.JspServletWrapper"
6292,clique,"org.apache.tomcat.util.net.AprEndpoint$AprSocketWrapper,org.apache.tomcat.util.net.AprEndpoint$Poller,org.apache.tomcat.util.net.AprEndpoint,org.apache.tomcat.util.net.AprEndpoint$AprSocketWrapper"
6293,clique,"org.apache.coyote.http2.Stream$StreamOutputBuffer,org.apache.coyote.http2.Stream,org.apache.coyote.http2.Http2UpgradeHandler,org.apache.coyote.http2.Stream$StreamOutputBuffer"
6294,clique,"org.apache.coyote.http2.Stream$StreamInputBuffer,org.apache.coyote.http2.Stream,org.apache.coyote.http2.Http2UpgradeHandler,org.apache.coyote.http2.Stream$StreamInputBuffer"
6301,chain,"org.apache.tomcat.dbcp.dbcp2.DelegatingStatement,org.apache.tomcat.dbcp.dbcp2.DelegatingConnection,org.apache.tomcat.dbcp.dbcp2.DelegatingResultSet"
6302,star,"org.apache.tomcat.dbcp.dbcp2.DelegatingStatement,org.apache.tomcat.dbcp.dbcp2.DelegatingConnection,org.apache.tomcat.dbcp.dbcp2.DelegatingPreparedStatement,org.apache.tomcat.dbcp.dbcp2.DelegatingDatabaseMetaData"
6303,star,"org.apache.tomcat.jdbc.pool.PoolProperties$InterceptorProperty,org.apache.tomcat.jdbc.pool.PoolProperties,org.apache.tomcat.jdbc.pool.DataSourceProxy,org.apache.tomcat.jdbc.pool.PoolProperties$InterceptorDefinition"
6304,star,"org.apache.catalina.connector.Response$1,org.apache.catalina.connector.Connector,org.apache.catalina.connector.Response$2,org.apache.catalina.connector.Response"
6305,star,"javax.el.ExpressionFactory$2,javax.el.ExpressionFactory$3,javax.el.Util,javax.el.ExpressionFactory"
6306,star,"org.apache.catalina.connector.Connector,org.apache.catalina.connector.RequestFacade,org.apache.catalina.connector.Request$2,org.apache.catalina.connector.Request$3,org.apache.catalina.connector.Request$5,org.apache.catalina.connector.Request$6,org.apache.catalina.connector.Request$7,org.apache.catalina.connector.Request,org.apache.catalina.core.AsyncContextImpl"
6307,star,"org.apache.tomcat.jdbc.pool.ConnectionPool$PoolCleaner,org.apache.tomcat.jdbc.pool.ConnectionPool,org.apache.tomcat.jdbc.pool.ConnectionPool$PrivilegedNewTimer,org.apache.tomcat.jdbc.pool.ConnectionPool$ConnectionFuture,org.apache.tomcat.jdbc.pool.ProxyConnection,org.apache.tomcat.jdbc.pool.PooledConnection"
6308,star,"org.apache.catalina.core.ApplicationDispatcher$PrivilegedInclude,org.apache.catalina.core.ApplicationDispatcher$PrivilegedDispatch,org.apache.catalina.core.ApplicationDispatcher$PrivilegedForward,org.apache.catalina.core.ApplicationDispatcher"
6309,star,"org.apache.catalina.users.MemoryUserCreationFactory,org.apache.catalina.users.MemoryGroupCreationFactory,org.apache.catalina.users.MemoryGroup,org.apache.catalina.users.MemoryUserDatabase,org.apache.catalina.users.MemoryRoleCreationFactory"
6310,chain,"org.apache.catalina.startup.Bootstrap,org.apache.catalina.startup.CatalinaProperties,org.apache.catalina.startup.ClassLoaderFactory"
6311,star,"org.eclipse.jdt.internal.compiler.apt.dispatch.BatchFilerImpl,org.eclipse.jdt.internal.compiler.apt.dispatch.HookedJavaFileObject,org.eclipse.jdt.internal.compiler.apt.dispatch.HookedJavaFileObject$ForwardingOutputStream,org.eclipse.jdt.internal.compiler.apt.dispatch.HookedJavaFileObject$ForwardingWriter"
6312,chain,"javax.el.Util$ConstructorWrapper,javax.el.Util$MethodWrapper,javax.el.Util$Wrapper"
6313,chain,"org.eclipse.jdt.internal.compiler.lookup.MethodVerifier15,org.eclipse.jdt.internal.compiler.lookup.UnresolvedReferenceBinding,org.eclipse.jdt.internal.compiler.lookup.LookupEnvironment"
6314,star,"org.eclipse.jdt.internal.compiler.lookup.ReferenceBinding$1,org.eclipse.jdt.internal.compiler.lookup.ReferenceBinding$2,org.eclipse.jdt.internal.compiler.lookup.ReferenceBinding$3,org.eclipse.jdt.internal.compiler.lookup.ReferenceBinding"
6315,chain,"org.eclipse.jdt.internal.compiler.lookup.PackageBinding,org.eclipse.jdt.internal.compiler.util.HashtableOfPackage,org.eclipse.jdt.internal.compiler.lookup.BinaryTypeBinding,org.eclipse.jdt.internal.compiler.lookup.ElementValuePair$UnresolvedEnumConstant"
6316,star,"org.apache.tomcat.util.net.NioEndpoint$PollerEvent,org.apache.tomcat.util.net.NioEndpoint$Poller,org.apache.tomcat.util.net.NioChannel,org.apache.tomcat.util.net.NioEndpoint"
6317,chain,"org.apache.jasper.compiler.Node,org.apache.jasper.compiler.Node$NamedAttribute,org.apache.jasper.compiler.Node$Comment"
6318,chain,"org.apache.tomcat.util.buf.StringCache,org.apache.tomcat.util.buf.ByteChunk,org.apache.tomcat.util.buf.CharChunk"
6319,star,"org.apache.tomcat.util.net.AprEndpoint$Acceptor,org.apache.tomcat.util.net.AprEndpoint$Poller,org.apache.tomcat.util.net.AprEndpoint$SocketProcessor,org.apache.tomcat.util.net.AprEndpoint$SocketWithOptionsProcessor,org.apache.tomcat.util.net.AprEndpoint"
6320,chain,"org.eclipse.jdt.internal.compiler.tool.EclipseCompilerImpl$3,org.eclipse.jdt.internal.compiler.tool.EclipseCompilerImpl$3$1,org.eclipse.jdt.internal.compiler.tool.EclipseCompilerImpl$3$2"
6321,chain,"org.apache.catalina.tribes.group.interceptors.StaticMembershipInterceptor$1,org.apache.catalina.tribes.group.interceptors.TcpPingInterceptor,org.apache.catalina.tribes.group.interceptors.StaticMembershipInterceptor,org.apache.catalina.tribes.group.interceptors.TcpPingInterceptor$PingThread"
6322,chain,"org.apache.tomcat.websocket.WsSession,org.apache.tomcat.websocket.WsWebSocketContainer,org.apache.tomcat.websocket.WsRemoteEndpointImplBase"
6323,chain,"org.apache.catalina.tribes.io.ChannelData,org.apache.catalina.tribes.io.BufferPool,org.apache.catalina.tribes.io.XByteBuffer"
6324,star,"org.apache.tomcat.websocket.WsRemoteEndpointImplBase$EndMessageHandler,org.apache.tomcat.websocket.WsRemoteEndpointImplBase$OutputBufferSendHandler,org.apache.tomcat.websocket.WsSession,org.apache.tomcat.websocket.WsRemoteEndpointImplBase$IntermediateMessageHandler,org.apache.tomcat.websocket.WsRemoteEndpointImplBase$WsOutputStream,org.apache.tomcat.websocket.WsRemoteEndpointImplBase$StateMachine,org.apache.tomcat.websocket.WsRemoteEndpointImplBase$TextMessageSendHandler,org.apache.tomcat.websocket.WsRemoteEndpointImplBase,org.apache.tomcat.websocket.WsRemoteEndpointImplBase$WsWriter"
6325,star,"org.apache.tomcat.util.net.Nio2Endpoint$Nio2SocketWrapper$5,org.apache.tomcat.util.net.Nio2Endpoint$Nio2SocketWrapper$ScatterReadCompletionHandler,org.apache.tomcat.util.net.Nio2Endpoint$Nio2SocketWrapper,org.apache.tomcat.util.net.Nio2Endpoint$Nio2SocketWrapper$GatherWriteCompletionHandler,org.apache.tomcat.util.net.Nio2Endpoint,org.apache.tomcat.util.net.Nio2Endpoint$Nio2SocketWrapper$6,org.apache.tomcat.util.net.Nio2Endpoint$Nio2SocketWrapper$2,org.apache.tomcat.util.net.Nio2Endpoint$Nio2SocketWrapper$3,org.apache.tomcat.util.net.Nio2Endpoint$Nio2SocketWrapper$4"
6326,chain,"org.apache.jasper.compiler.Compiler,org.apache.jasper.compiler.JspRuntimeContext,org.apache.jasper.servlet.JspServletWrapper,org.apache.jasper.JspCompilationContext"
6327,chain,"org.apache.tomcat.jdbc.pool.interceptor.SlowQueryReport,org.apache.tomcat.jdbc.pool.interceptor.AbstractQueryReport$StatementProxy,org.apache.tomcat.jdbc.pool.interceptor.AbstractQueryReport"
6328,chain,"org.apache.tomcat.jdbc.pool.interceptor.ConnectionState,org.apache.tomcat.jdbc.pool.ConnectionPool,org.apache.tomcat.jdbc.pool.PooledConnection"
6329,star,"org.apache.tomcat.websocket.AsyncChannelWrapperSecure$WriteTask,org.apache.tomcat.websocket.AsyncChannelWrapperSecure,org.apache.tomcat.websocket.AsyncChannelWrapperSecure$WebSocketSslHandshakeThread,org.apache.tomcat.websocket.AsyncChannelWrapperSecure$ReadTask,org.apache.tomcat.websocket.AsyncChannelWrapperSecure$LongToIntegerFuture"
6330,star,"org.apache.tomcat.util.net.SSLHostConfig$CertificateVerification,org.apache.tomcat.util.net.SSLUtilBase,org.apache.tomcat.util.net.SSLHostConfigCertificate,org.apache.tomcat.util.net.SSLHostConfig"
6331,chain,"org.apache.coyote.RequestGroupInfo,org.apache.coyote.RequestInfo,org.apache.coyote.Request"
6332,star,"org.apache.el.lang.ELArithmetic$DoubleDelegate,org.apache.el.lang.ELArithmetic$BigDecimalDelegate,org.apache.el.lang.ELArithmetic$BigIntegerDelegate,org.apache.el.lang.ELArithmetic$LongDelegate,org.apache.el.lang.ELArithmetic"
6333,chain,"org.apache.catalina.filters.RestCsrfPreventionFilter,org.apache.catalina.filters.RestCsrfPreventionFilter$FetchRequest,org.apache.catalina.filters.RestCsrfPreventionFilter$StateChangingRequest"
6334,chain,"org.apache.jasper.compiler.JDTCompiler,org.apache.jasper.compiler.JDTCompiler$1,org.apache.jasper.compiler.JDTCompiler$2"
6335,star,"org.apache.catalina.tribes.membership.McastServiceImpl$ReceiverThread,org.apache.catalina.tribes.membership.McastServiceImpl$SenderThread,org.apache.catalina.tribes.membership.McastService,org.apache.catalina.tribes.membership.McastServiceImpl$3,org.apache.catalina.tribes.membership.McastServiceImpl"
6336,chain,"org.eclipse.jdt.internal.compiler.parser.RecoveredType,org.eclipse.jdt.internal.compiler.parser.RecoveredMethod,org.eclipse.jdt.internal.compiler.parser.RecoveredBlock"
6337,star,"org.eclipse.jdt.internal.compiler.parser.Parser,org.eclipse.jdt.internal.compiler.parser.Parser$1MethodVisitor,org.eclipse.jdt.internal.compiler.parser.diagnose.DiagnoseParser,org.eclipse.jdt.internal.compiler.parser.JavadocParser,org.eclipse.jdt.internal.compiler.ast.ReferenceExpression"
6338,chain,"org.eclipse.jdt.internal.compiler.ast.Clinit,org.eclipse.jdt.internal.compiler.ast.CompilationUnitDeclaration,org.eclipse.jdt.internal.compiler.ast.TypeDeclaration,org.eclipse.jdt.internal.compiler.lookup.SourceTypeBinding"
6339,chain,"org.eclipse.jdt.internal.compiler.batch.FileSystem,org.eclipse.jdt.internal.compiler.batch.Main,org.eclipse.jdt.internal.compiler.util.Util"
6340,chain,"org.apache.el.lang.ExpressionBuilder,org.apache.el.ValueExpressionImpl,org.apache.el.MethodExpressionImpl"
6341,chain,"org.apache.coyote.ajp.AjpProcessor,org.apache.coyote.ajp.AjpProcessor$SocketInputBuffer,org.apache.coyote.ajp.AjpProcessor$SocketOutputBuffer"
6342,chain,"org.apache.catalina.core.StandardWrapper,org.apache.catalina.core.StandardContext,org.apache.catalina.core.StandardWrapperValve,org.apache.catalina.core.StandardContext$2"
6343,star,"org.apache.jasper.compiler.Compiler,org.apache.jasper.compiler.Validator,org.apache.jasper.compiler.Collector,org.apache.jasper.servlet.JspServletWrapper,org.apache.jasper.compiler.ParserController"
6344,star,"org.apache.tomcat.util.digester.ObjectCreateRule,org.apache.tomcat.util.digester.CallMethodRule,org.apache.tomcat.util.digester.SetNextRule,org.apache.tomcat.util.digester.Digester,org.apache.tomcat.util.digester.Digester$SystemPropertySource,org.apache.tomcat.util.digester.CallParamRule,org.apache.tomcat.util.digester.FactoryCreateRule,org.apache.tomcat.util.digester.SetPropertiesRule"
6345,chain,"org.apache.catalina.ha.backend.MultiCastSender,org.apache.catalina.ha.backend.TcpSender,org.apache.catalina.ha.backend.HeartbeatListener"
6346,chain,"org.apache.jasper.compiler.Compiler,org.apache.jasper.compiler.Validator$ValidateVisitor,org.apache.jasper.compiler.Validator"
6347,star,"org.eclipse.jdt.internal.compiler.ast.Expression,org.eclipse.jdt.internal.compiler.ast.Statement$1,org.eclipse.jdt.internal.compiler.ast.Statement$2,org.eclipse.jdt.internal.compiler.ast.Statement"
6348,star,"org.eclipse.jdt.internal.compiler.ast.FakedTrackingVariable$IteratorForReporting,org.eclipse.jdt.internal.compiler.lookup.MethodScope,org.eclipse.jdt.internal.compiler.lookup.Scope,org.eclipse.jdt.internal.compiler.lookup.BlockScope"
6349,chain,"org.apache.tomcat.util.http.fileupload.FileUploadBase$FileItemIteratorImpl,org.apache.tomcat.util.http.fileupload.FileUploadBase,org.apache.tomcat.util.http.fileupload.FileUploadBase$FileItemIteratorImpl$FileItemStreamImpl$1,org.apache.tomcat.util.http.fileupload.FileUploadBase$FileItemIteratorImpl$FileItemStreamImpl"
6350,chain,"org.eclipse.jdt.internal.compiler.ast.ConditionalExpression,org.eclipse.jdt.internal.compiler.ast.NullAnnotationMatching,org.eclipse.jdt.internal.compiler.ast.NullAnnotationMatching$1"
6351,chain,"org.eclipse.jdt.internal.compiler.flow.ConditionalFlowInfo,org.eclipse.jdt.internal.compiler.flow.UnconditionalFlowInfo,org.eclipse.jdt.internal.compiler.flow.FlowInfo"
6352,star,"org.eclipse.jdt.internal.compiler.lookup.Scope$2,org.eclipse.jdt.internal.compiler.lookup.Scope$Substitutor,org.eclipse.jdt.internal.compiler.lookup.Scope,org.eclipse.jdt.internal.compiler.lookup.BlockScope"
6353,star,"org.eclipse.jdt.internal.compiler.batch.BatchCompilerRequestor,org.eclipse.jdt.internal.compiler.batch.Main$Logger,org.eclipse.jdt.internal.compiler.batch.Main,org.eclipse.jdt.internal.compiler.util.Util,org.eclipse.jdt.internal.compiler.batch.Main$3"
6354,star,"org.apache.tomcat.util.net.NioEndpoint$Acceptor,org.apache.tomcat.util.net.NioEndpoint$SocketProcessor,org.apache.tomcat.util.net.NioEndpoint$Poller,org.apache.tomcat.util.net.NioEndpoint"
6355,chain,"org.apache.tomcat.util.http.NamesEnumerator,org.apache.tomcat.util.http.ValuesEnumerator,org.apache.tomcat.util.http.MimeHeaders"
6356,star,"org.apache.catalina.connector.Connector,org.apache.catalina.connector.Response,org.apache.catalina.connector.CoyoteAdapter,org.apache.catalina.connector.Request"
6357,chain,"org.apache.catalina.session.StandardManager,org.apache.catalina.session.StandardManager$PrivilegedDoLoad,org.apache.catalina.session.StandardManager$PrivilegedDoUnload"
6358,star,"org.apache.jasper.compiler.Validator$ValidateVisitor,org.apache.jasper.compiler.Validator,org.apache.jasper.compiler.Validator$ValidateVisitor$1FVVisitor,org.apache.jasper.compiler.Validator$ValidateVisitor$1MapperELVisitor"
6359,chain,"org.apache.catalina.core.ContainerBase$ContainerBackgroundProcessor,org.apache.catalina.core.ContainerBase$PrivilegedAddChild,org.apache.catalina.core.ContainerBase"
6360,chain,"org.eclipse.jdt.internal.compiler.lookup.CaptureBinding,org.eclipse.jdt.internal.compiler.lookup.AnnotatableTypeSystem,org.eclipse.jdt.internal.compiler.lookup.TypeSystem$HashedParameterizedTypes,org.eclipse.jdt.internal.compiler.lookup.TypeSystem"
6361,chain,"org.apache.catalina.servlets.CGIServlet$CGIRunner$1,org.apache.catalina.servlets.CGIServlet$CGIEnvironment,org.apache.catalina.servlets.CGIServlet$CGIRunner,org.apache.catalina.servlets.CGIServlet"
6362,star,"org.apache.tomcat.util.bcel.classfile.ConstantClass,org.apache.tomcat.util.bcel.classfile.ConstantInteger,org.apache.tomcat.util.bcel.classfile.ConstantFloat,org.apache.tomcat.util.bcel.classfile.ConstantLong,org.apache.tomcat.util.bcel.classfile.ConstantDouble,org.apache.tomcat.util.bcel.classfile.ConstantUtf8,org.apache.tomcat.util.bcel.classfile.Constant"
6363,chain,"org.apache.catalina.filters.ExpiresFilter$XHttpServletResponse,org.apache.catalina.filters.ExpiresFilter$XServletOutputStream,org.apache.catalina.filters.ExpiresFilter$XPrintWriter"
6364,star,"org.eclipse.jdt.internal.compiler.ast.ExpressionContext$3,org.eclipse.jdt.internal.compiler.ast.ExpressionContext$2,org.eclipse.jdt.internal.compiler.ast.ExpressionContext$1,org.eclipse.jdt.internal.compiler.ast.ExpressionContext$4,org.eclipse.jdt.internal.compiler.ast.ExpressionContext"
6365,chain,"org.eclipse.jdt.internal.compiler.apt.model.ElementsImpl,org.eclipse.jdt.internal.compiler.apt.model.TypesImpl,org.eclipse.jdt.internal.compiler.apt.dispatch.BaseProcessingEnvImpl"
6366,star,"org.eclipse.jdt.internal.compiler.apt.model.DeclaredTypeImpl,org.eclipse.jdt.internal.compiler.apt.model.ArrayTypeImpl,org.eclipse.jdt.internal.compiler.apt.model.TypeVariableImpl,org.eclipse.jdt.internal.compiler.apt.model.ErrorTypeImpl,org.eclipse.jdt.internal.compiler.apt.model.TypeParameterElementImpl,org.eclipse.jdt.internal.compiler.apt.model.AnnotationMirrorImpl,org.eclipse.jdt.internal.compiler.apt.model.Factory,org.eclipse.jdt.internal.compiler.apt.model.ErrorTypeElement,org.eclipse.jdt.internal.compiler.apt.model.PackageElementImpl,org.eclipse.jdt.internal.compiler.apt.model.WildcardTypeImpl,org.eclipse.jdt.internal.compiler.apt.model.ExecutableTypeImpl"
6367,chain,"org.apache.catalina.startup.Tomcat$DefaultWebXmlListener,org.apache.catalina.startup.Tomcat,org.apache.catalina.startup.Tomcat$1"
6368,chain,"org.apache.tomcat.util.net.AprEndpoint$AprSocketWrapper,org.apache.tomcat.util.net.AprEndpoint$Poller,org.apache.tomcat.util.net.AprEndpoint"
6369,chain,"org.eclipse.jdt.internal.compiler.ast.StringLiteral,org.eclipse.jdt.internal.compiler.ast.ExtendedStringLiteral,org.eclipse.jdt.internal.compiler.ast.StringLiteralConcatenation"
6370,star,"org.apache.catalina.startup.HostConfig,org.apache.catalina.startup.HostConfig$DeployDescriptor,org.apache.catalina.startup.HostConfig$DeployWar,org.apache.catalina.startup.HostConfig$DeployDirectory"
6371,star,"org.eclipse.jdt.internal.compiler.impl.LongConstant,org.eclipse.jdt.internal.compiler.impl.StringConstant,org.eclipse.jdt.internal.compiler.impl.FloatConstant,org.eclipse.jdt.internal.compiler.impl.Constant,org.eclipse.jdt.internal.compiler.impl.BooleanConstant,org.eclipse.jdt.internal.compiler.impl.IntConstant,org.eclipse.jdt.internal.compiler.impl.CharConstant,org.eclipse.jdt.internal.compiler.impl.ByteConstant,org.eclipse.jdt.internal.compiler.impl.ShortConstant,org.eclipse.jdt.internal.compiler.impl.DoubleConstant"
6372,chain,"org.eclipse.jdt.internal.compiler.ast.SingleNameReference,org.eclipse.jdt.internal.compiler.ast.QualifiedNameReference,org.eclipse.jdt.internal.compiler.ast.FieldReference"
6373,star,"org.apache.jasper.compiler.Generator$1DeclarationVisitor,org.apache.jasper.compiler.JspUtil,org.apache.jasper.compiler.Generator$1ScriptingVarVisitor,org.apache.jasper.compiler.Generator$FragmentHelperClass,org.apache.jasper.compiler.Generator$GenerateVisitor,org.apache.jasper.compiler.Generator"
6374,star,"org.apache.coyote.http2.StreamProcessor,org.apache.coyote.http2.Http2UpgradeHandler$PingManager,org.apache.coyote.http2.Http2UpgradeHandler,org.apache.coyote.http2.Stream"
6375,star,"org.eclipse.jdt.internal.compiler.ast.NullAnnotationMatching$CheckMode$2,org.eclipse.jdt.internal.compiler.ast.NullAnnotationMatching$CheckMode,org.eclipse.jdt.internal.compiler.ast.NullAnnotationMatching$CheckMode$1,org.eclipse.jdt.internal.compiler.ast.NullAnnotationMatching$CheckMode$3"
6376,star,"org.apache.tomcat.util.net.SecureNio2Channel$2,org.apache.tomcat.util.net.SecureNio2Channel$3,org.apache.tomcat.util.net.SecureNio2Channel$4,org.apache.tomcat.util.net.SecureNio2Channel,org.apache.tomcat.util.net.Nio2Endpoint,org.apache.tomcat.util.net.SecureNio2Channel$FutureRead,org.apache.tomcat.util.net.SecureNio2Channel$FutureWrite,org.apache.tomcat.util.net.SecureNio2Channel$1"
6377,star,"org.apache.tomcat.util.net.Nio2Endpoint$1,org.apache.tomcat.util.net.Nio2Endpoint$SocketProcessor,org.apache.tomcat.util.net.Nio2Endpoint$Nio2SocketWrapper,org.apache.tomcat.util.net.Nio2Endpoint$Acceptor,org.apache.tomcat.util.net.SecureNio2Channel,org.apache.tomcat.util.net.Nio2Endpoint"
6378,star,"org.apache.jasper.compiler.Generator$GenerateVisitor$2ParamVisitor,org.apache.jasper.compiler.Generator$GenerateVisitor,org.apache.jasper.compiler.Generator,org.apache.jasper.compiler.Generator$GenerateVisitor$1ParamVisitor"
6379,chain,"org.apache.tomcat.dbcp.pool2.impl.LinkedBlockingDeque,org.apache.tomcat.dbcp.pool2.impl.LinkedBlockingDeque$DescendingItr,org.apache.tomcat.dbcp.pool2.impl.LinkedBlockingDeque$Itr"
6380,star,"org.apache.tomcat.util.bcel.classfile.ElementValue,org.apache.tomcat.util.bcel.classfile.ArrayElementValue,org.apache.tomcat.util.bcel.classfile.EnumElementValue,org.apache.tomcat.util.bcel.classfile.SimpleElementValue,org.apache.tomcat.util.bcel.classfile.ClassElementValue,org.apache.tomcat.util.bcel.classfile.AnnotationElementValue"
6381,star,"org.apache.catalina.valves.AbstractAccessLogValve,org.apache.catalina.valves.AbstractAccessLogValve$PortElement,org.apache.catalina.valves.AbstractAccessLogValve$1,org.apache.catalina.valves.AbstractAccessLogValve$DateAndTimeElement"
6382,star,"org.apache.jasper.runtime.JspFactoryImpl,org.apache.jasper.runtime.JspFactoryImpl$PrivilegedGetPageContext,org.apache.jasper.runtime.JspFactoryImpl$PrivilegedReleasePageContext,org.apache.jasper.runtime.JspFactoryImpl$PageContextPool"
6383,star,"org.apache.jasper.runtime.PageContextImpl$1,org.apache.jasper.runtime.PageContextImpl$2,org.apache.jasper.runtime.PageContextImpl$3,org.apache.jasper.runtime.PageContextImpl$4,org.apache.jasper.runtime.PageContextImpl,org.apache.jasper.runtime.PageContextImpl$5,org.apache.jasper.runtime.PageContextImpl$6,org.apache.jasper.runtime.PageContextImpl$7,org.apache.jasper.runtime.PageContextImpl$8,org.apache.jasper.runtime.PageContextImpl$9,org.apache.jasper.runtime.JspRuntimeLibrary,org.apache.jasper.runtime.PageContextImpl$11,org.apache.jasper.runtime.PageContextImpl$10,org.apache.jasper.runtime.PageContextImpl$12"
6384,star,"javax.servlet.jsp.el.ImplicitObjectELResolver$ScopeManager$7,javax.servlet.jsp.el.ImplicitObjectELResolver$ScopeManager$9,javax.servlet.jsp.el.ImplicitObjectELResolver$ScopeManager,javax.servlet.jsp.el.ImplicitObjectELResolver$ScopeManager$4,javax.servlet.jsp.el.ImplicitObjectELResolver$ScopeManager$3,javax.servlet.jsp.el.ImplicitObjectELResolver$ScopeManager$6,javax.servlet.jsp.el.ImplicitObjectELResolver$ScopeManager$5,javax.servlet.jsp.el.ImplicitObjectELResolver$ScopeManager$8,javax.servlet.jsp.el.ImplicitObjectELResolver$ScopeManager$2,javax.servlet.jsp.el.ImplicitObjectELResolver$ScopeManager$10,javax.servlet.jsp.el.ImplicitObjectELResolver$ScopeManager$1"
6385,star,"org.eclipse.jdt.internal.compiler.ast.CompilationUnitDeclaration,org.eclipse.jdt.internal.compiler.lookup.ExternalAnnotationSuperimposer,org.eclipse.jdt.internal.compiler.lookup.SourceTypeBinding,org.eclipse.jdt.internal.compiler.lookup.NestedTypeBinding"
6386,star,"org.eclipse.jdt.internal.compiler.ast.LambdaExpression,org.eclipse.jdt.internal.compiler.ast.ReturnStatement,org.eclipse.jdt.internal.compiler.lookup.PolyTypeBinding,org.eclipse.jdt.internal.compiler.ast.LambdaExpression$1LambdaTypeBinding"
6387,star,"org.apache.el.stream.Stream,org.apache.el.stream.Stream$1,org.apache.el.stream.Stream$2,org.apache.el.stream.Stream$3,org.apache.el.stream.Stream$4,org.apache.el.stream.Stream$5,org.apache.el.stream.Stream$6,org.apache.el.stream.Stream$7,org.apache.el.stream.Stream$8"
6388,star,"org.apache.catalina.valves.ExtendedAccessLogValve$RequestHeaderElement,org.apache.catalina.valves.ExtendedAccessLogValve$RequestAttributeElement,org.apache.catalina.valves.ExtendedAccessLogValve,org.apache.catalina.valves.ExtendedAccessLogValve$5,org.apache.catalina.valves.ExtendedAccessLogValve$6,org.apache.catalina.valves.ExtendedAccessLogValve$ResponseAllHeaderElement,org.apache.catalina.valves.ExtendedAccessLogValve$9,org.apache.catalina.valves.ExtendedAccessLogValve$CookieElement,org.apache.catalina.valves.ExtendedAccessLogValve$RequestParameterElement,org.apache.catalina.valves.ExtendedAccessLogValve$12,org.apache.catalina.valves.ExtendedAccessLogValve$SessionAttributeElement,org.apache.catalina.valves.ExtendedAccessLogValve$10,org.apache.catalina.valves.ExtendedAccessLogValve$11,org.apache.catalina.valves.ExtendedAccessLogValve$4,org.apache.catalina.valves.ExtendedAccessLogValve$ServletContextElement,org.apache.catalina.valves.ExtendedAccessLogValve$14,org.apache.catalina.valves.ExtendedAccessLogValve$7,org.apache.catalina.valves.ExtendedAccessLogValve$8,org.apache.catalina.valves.ExtendedAccessLogValve$ResponseHeaderElement"
6389,chain,"org.apache.tomcat.websocket.WsFrameBase$UnmaskTransformation,org.apache.tomcat.websocket.WsFrameBase$NoopTransformation,org.apache.tomcat.websocket.WsFrameBase"
6390,chain,"org.apache.catalina.authenticator.SingleSignOnListener,org.apache.catalina.authenticator.SingleSignOn,org.apache.catalina.authenticator.SingleSignOnEntry"
6391,star,"org.eclipse.jdt.internal.compiler.parser.RecoveredElement,org.eclipse.jdt.internal.compiler.parser.RecoveredType,org.eclipse.jdt.internal.compiler.parser.RecoveredMethod,org.eclipse.jdt.internal.compiler.parser.RecoveredInitializer,org.eclipse.jdt.internal.compiler.parser.RecoveredField"
6392,chain,"org.eclipse.jdt.internal.compiler.ast.ArrayTypeReference,org.eclipse.jdt.internal.compiler.ast.TypeReference,org.eclipse.jdt.internal.compiler.problem.ProblemReporter,org.eclipse.jdt.internal.compiler.ast.SingleTypeReference"
6393,star,"org.apache.jasper.compiler.Compiler,org.apache.jasper.compiler.ParserController,org.apache.jasper.compiler.JspDocumentParser,org.apache.jasper.compiler.Parser"
6394,star,"org.apache.catalina.tribes.transport.nio.NioReplicationTask$1,org.apache.catalina.tribes.transport.nio.NioReplicationTask$2,org.apache.catalina.tribes.transport.nio.NioReceiver,org.apache.catalina.tribes.transport.nio.NioReplicationTask"
6395,chain,"org.apache.jasper.servlet.TldScanner,org.apache.jasper.servlet.TldScanner$TldScannerCallback$1,org.apache.jasper.servlet.TldScanner$TldScannerCallback"
6396,star,"org.apache.coyote.http2.Stream$StreamOutputBuffer,org.apache.coyote.http2.Stream$StreamInputBuffer,org.apache.coyote.http2.Http2UpgradeHandler,org.apache.coyote.http2.StreamStateMachine,org.apache.coyote.http2.Stream"
6397,chain,"org.eclipse.jdt.internal.compiler.lookup.LocalVariableBinding,org.eclipse.jdt.internal.compiler.lookup.MethodScope,org.eclipse.jdt.internal.compiler.lookup.BlockScope"
6398,star,"org.apache.juli.ClassLoaderLogManager$Cleaner,org.apache.juli.ClassLoaderLogManager$LogNode,org.apache.juli.ClassLoaderLogManager,org.apache.juli.ClassLoaderLogManager$2"
6399,star,"org.apache.tomcat.util.net.NioBlockingSelector$BlockPoller$2,org.apache.tomcat.util.net.NioBlockingSelector$BlockPoller$3,org.apache.tomcat.util.net.NioBlockingSelector,org.apache.tomcat.util.net.NioBlockingSelector$BlockPoller"
6400,chain,"org.apache.tomcat.util.net.NioBlockingSelector,org.apache.tomcat.util.net.NioBlockingSelector$BlockPoller,org.apache.tomcat.util.net.NioBlockingSelector$KeyReference"
6401,chain,"org.eclipse.jdt.internal.compiler.parser.Scanner$VanguardParser,org.eclipse.jdt.internal.compiler.parser.Scanner$VanguardScanner,org.eclipse.jdt.internal.compiler.parser.Scanner"
6402,chain,"org.apache.catalina.webresources.CachedResource,org.apache.catalina.webresources.StandardRoot,org.apache.catalina.webresources.Cache"
6403,chain,"org.eclipse.jdt.internal.compiler.ast.Wildcard,org.eclipse.jdt.internal.compiler.lookup.TypeVariableBinding,org.eclipse.jdt.internal.compiler.lookup.WildcardBinding"
