Package,CA,CE,RMI,RMA,RMD
org.apache.tomcat.util.modeler,33.0,3.0,0.08333333333333333,0.0625,0.2923387096774194
org.apache.catalina.mbeans,14.0,61.0,0.8133333333333334,0.0,0.1333333333333333
org.apache.catalina.deploy,40.0,27.0,0.40298507462686567,0.03333333333333333,0.39219858156028364
org.apache.tomcat.util.bcel.classfile,2.0,3.0,0.6,0.1388888888888889,0.0848348348348349
javax.servlet.jsp.tagext,28.0,1.0,0.034482758620689655,0.5384615384615384,0.17948717948717952
org.apache.naming,18.0,2.0,0.1,0.0,0.29508196721311475
org.apache.catalina,163.0,1.0,0.006097560975609756,0.7948717948717948,0.13126456876456882
org.apache.catalina.valves,13.0,45.0,0.7758620689655172,0.0375,0.07857142857142863
org.apache.catalina.connector,86.0,80.0,0.4819277108433735,0.02,0.3691402714932126
org.apache.tomcat.util,105.0,2.0,0.018691588785046728,0.25,0.4642857142857143
javax.servlet,126.0,5.0,0.03816793893129771,0.6428571428571429,0.18067226890756294
org.apache.catalina.util,66.0,23.0,0.25842696629213485,0.05263157894736842,0.34022556390977443
org.apache.tomcat.util.res,214.0,0.0,0.0,0.0,0.9511111111111111
org.apache.juli.logging,322.0,0.0,0.0,0.25,0.7111940298507462
org.apache.tomcat.util.bcel.util,9.0,0.0,0.0,0.3333333333333333,0.48484848484848486
org.eclipse.jdt.internal.compiler.flow,49.0,24.0,0.3287671232876712,0.14285714285714285,0.4853479853479854
org.eclipse.jdt.internal.compiler.ast,51.0,86.0,0.6277372262773723,0.13793103448275862,0.19323779668607255
org.apache.tomcat.util.digester,55.0,5.0,0.08333333333333333,0.21428571428571427,0.2997329773030708
org.apache.catalina.realm,9.0,36.0,0.8,0.09090909090909091,0.014637904468412843
org.apache.jasper.compiler,17.0,65.0,0.7926829268292683,0.05161290322580645,0.03786078098471979
org.eclipse.jdt.internal.compiler,118.0,72.0,0.37894736842105264,0.1935483870967742,0.3502304147465438
org.eclipse.jdt.internal.compiler.parser,13.0,110.0,0.8943089430894309,0.19230769230769232,0.10678137651821862
org.apache.catalina.core,23.0,185.0,0.8894230769230769,0.013513513513513514,0.05660843770599866
org.apache.tomcat.util.http.fileupload,8.0,5.0,0.38461538461538464,0.3170731707317073,0.1431601272534464
org.apache.catalina.filters,0.0,21.0,1.0,0.0625,0.0625
org.apache.naming.resources,10.0,13.0,0.5652173913043478,0.047619047619047616,0.0714285714285714
org.apache.coyote,64.0,19.0,0.2289156626506024,0.45454545454545453,0.1435853865760408
org.apache.tomcat.util.http,30.0,10.0,0.25,0.0,0.410958904109589
org.apache.tomcat.dbcp.pool.impl,5.0,9.0,0.6428571428571429,0.0,0.09090909090909094
org.apache.catalina.startup,7.0,96.0,0.9320388349514563,0.01282051282051282,0.023828701839173072
org.apache.juli,2.0,0.0,0.0,0.0,0.03508771929824561
org.eclipse.jdt.internal.compiler.apt.dispatch,17.0,34.0,0.6666666666666666,0.1875,0.010416666666666519
org.eclipse.jdt.internal.compiler.batch,10.0,32.0,0.7619047619047619,0.15789473684210525,0.048004626951995366
org.eclipse.jdt.internal.compiler.classfmt,10.0,21.0,0.6774193548387096,0.14285714285714285,0.0494505494505495
org.eclipse.jdt.internal.compiler.env,34.0,1.0,0.02857142857142857,0.7272727272727273,0.16746411483253587
org.eclipse.jdt.core.compiler,126.0,1.0,0.007874015748031496,0.6,0.34029850746268664
org.eclipse.jdt.internal.compiler.lookup,140.0,54.0,0.27835051546391754,0.1794871794871795,0.47167561121049495
org.eclipse.jdt.internal.compiler.problem,121.0,73.0,0.37628865979381443,0.1,0.47619047619047616
org.eclipse.jdt.internal.compiler.util,59.0,10.0,0.14492753623188406,0.07692307692307693,0.4498626373626373
javax.websocket,37.0,0.0,0.0,0.7333333333333333,0.007843137254901933
org.apache.tomcat.util.net,48.0,22.0,0.3142857142857143,0.1935483870967742,0.1568165764068754
org.apache.coyote.ajp,1.0,37.0,0.9736842105263158,0.1875,0.171875
org.apache.catalina.loader,6.0,22.0,0.7857142857142857,0.09090909090909091,0.032656663724624835
org.apache.tomcat.jdbc.pool,9.0,5.0,0.35714285714285715,0.1111111111111111,0.01736111111111116
org.apache.tomcat.dbcp.pool,21.0,0.0,0.0,0.37037037037037035,0.16809116809116809
org.apache.catalina.session,6.0,33.0,0.8461538461538461,0.13636363636363635,0.07513914656771803
org.apache.catalina.ha.session,4.0,38.0,0.9047619047619048,0.14285714285714285,0.09523809523809512
org.apache.catalina.ha,19.0,10.0,0.3448275862068966,0.7777777777777778,0.16487455197132617
org.apache.catalina.tribes.io,31.0,5.0,0.1388888888888889,0.2222222222222222,0.2547008547008547
org.apache.jasper.util,14.0,1.0,0.06666666666666667,0.0,0.4516129032258065
org.apache.tomcat.jdbc.pool.interceptor,1.0,9.0,0.9,0.1875,0.16931818181818192
org.apache.catalina.manager.util,12.0,3.0,0.2,0.3333333333333333,0.11111111111111116
org.apache.catalina.tribes.group,17.0,29.0,0.6304347826086957,0.17647058823529413,0.07726075504828789
org.apache.catalina.tribes.group.interceptors,2.0,25.0,0.9259259259259259,0.0,0.033333333333333326
org.apache.tomcat.dbcp.jocl,1.0,0.0,0.0,0.0,0.03703703703703709
org.apache.tomcat.util.buf,71.0,3.0,0.04054054054054054,0.18181818181818182,0.4817332200509771
org.apache.tomcat.util.http.mapper,7.0,6.0,0.46153846153846156,0.125,0.22499999999999998
org.apache.tomcat.util.threads,4.0,3.0,0.42857142857142855,0.1,0.07391304347826089
org.apache.tomcat.websocket.server,0.0,51.0,1.0,0.034482758620689655,0.034482758620689724
javax.el,48.0,0.0,0.0,0.2647058823529412,0.16772655007949133
org.apache.jasper.el,5.0,25.0,0.8333333333333334,0.0,0.11363636363636365
org.apache.naming.factory,1.0,5.0,0.8333333333333334,0.0,0.01851851851851849
javax.servlet.annotation,7.0,0.0,0.0,0.8181818181818182,0.2797202797202798
org.apache.catalina.ssi,0.0,22.0,1.0,0.14285714285714285,0.1428571428571428
org.eclipse.jdt.internal.compiler.impl,66.0,5.0,0.07042253521126761,0.2,0.6048780487804878
org.apache.el.lang,16.0,19.0,0.5428571428571428,0.07142857142857142,0.16737739872068236
org.apache.el.parser,3.0,17.0,0.85,0.09615384615384616,0.045306388526727526
org.apache.jasper,32.0,17.0,0.3469387755102041,0.16666666666666666,0.1470588235294118
javax.websocket.server,9.0,2.0,0.18181818181818182,0.6666666666666666,0.21666666666666679
org.apache.jasper.runtime,4.0,44.0,0.9166666666666666,0.07142857142857142,0.02932330827067675
javax.servlet.jsp.el,9.0,10.0,0.5263157894736842,0.22727272727272727,0.03743315508021383
org.apache.jasper.security,5.0,2.0,0.2857142857142857,0.0,0.4545454545454546
org.eclipse.jdt.internal.compiler.codegen,64.0,25.0,0.2808988764044944,0.13043478260869565,0.4733388022969647
javax.servlet.http,93.0,8.0,0.07920792079207921,0.5555555555555556,0.17672790901137359
org.apache.catalina.servlets,0.0,26.0,1.0,0.0,0.0
org.apache.catalina.ha.backend,0.0,6.0,1.0,0.14285714285714285,0.1428571428571428
javax.servlet.descriptor,6.0,0.0,0.0,1.0,0.0
org.apache.tomcat.util.codec,1.0,0.0,0.0,0.6666666666666666,0.16666666666666652
org.apache.coyote.http11.filters,5.0,12.0,0.7058823529411765,0.0,0.1923076923076923
org.apache.tomcat.websocket,13.0,47.0,0.7833333333333333,0.10714285714285714,0.012939958592132594
org.apache.tomcat.util.log,11.0,1.0,0.08333333333333333,0.0,0.55
org.apache.tomcat,19.0,0.0,0.0,1.0,0.0
org.apache.coyote.http11.upgrade,11.0,20.0,0.6451612903225806,0.2631578947368421,0.02911534154535267
javax.servlet.jsp,31.0,2.0,0.06060606060606061,0.6666666666666666,0.19444444444444442
org.apache.catalina.tribes,47.0,1.0,0.020833333333333332,0.7,0.1103448275862069
org.apache.coyote.http11,10.0,66.0,0.868421052631579,0.2,0.10909090909090913
org.apache.catalina.manager,0.0,37.0,1.0,0.0,0.0
org.apache.jasper.compiler.tagplugin,16.0,0.0,0.0,1.0,0.0
org.apache.jasper.tagplugins.jstl.core,0.0,4.0,1.0,0.0,0.0
javax.ejb,1.0,0.0,0.0,1.0,0.75
org.apache.tomcat.util.descriptor,5.0,4.0,0.4444444444444444,0.0,0.18518518518518523
org.apache.jasper.xmlparser,6.0,8.0,0.5714285714285714,0.0,0.13636363636363635
org.eclipse.jdt.internal.compiler.tool,0.0,23.0,1.0,0.0,0.0
org.apache.tomcat.util.http.fileupload.util.mime,1.0,1.0,0.5,0.25,0.16666666666666652
org.apache.tomcat.util.collections,1.0,0.0,0.0,0.0,0.25
org.apache.tomcat.util.http.parser,3.0,1.0,0.25,0.0,0.1875
org.apache.catalina.authenticator,3.0,40.0,0.9302325581395349,0.0625,0.02195945945945943
javax.annotation,2.0,0.0,0.0,0.8571428571428571,0.5238095238095237
org.apache.tomcat.util.codec.binary,7.0,4.0,0.36363636363636365,0.25,0.04166666666666663
org.apache.tomcat.jni,13.0,0.0,0.0,0.12903225806451613,0.4618768328445748
org.eclipse.jdt.internal.compiler.apt.model,4.0,30.0,0.8823529411764706,0.08333333333333333,0.0444983818770226
org.apache.catalina.ant,1.0,3.0,0.75,0.16666666666666666,0.13440860215053774
org.apache.el.util,14.0,2.0,0.125,0.0,0.31818181818181823
org.apache.catalina.ha.jmx,0.0,9.0,1.0,0.0,0.0
org.apache.catalina.ha.tcp,2.0,40.0,0.9523809523809523,0.0,0.032786885245901676
org.apache.catalina.ha.deploy,1.0,14.0,0.9333333333333333,0.1111111111111111,0.08408408408408419
org.apache.tomcat.dbcp.dbcp.datasources,0.0,7.0,1.0,0.25,0.25
org.apache.tomcat.dbcp.dbcp,6.0,8.0,0.5714285714285714,0.03571428571428571,0.06105990783410142
org.apache.catalina.comet,9.0,2.0,0.18181818181818182,0.6666666666666666,0.08333333333333337
org.apache.catalina.security,16.0,11.0,0.4074074074074074,0.0,0.326530612244898
org.apache.coyote.http11.upgrade.servlet31,7.0,0.0,0.0,1.0,0.125
org.apache.tomcat.websocket.pojo,4.0,31.0,0.8857142857142857,0.29411764705882354,0.2306255835667601
javax.xml.ws,1.0,0.0,0.0,1.0,0.75
org.eclipse.jdt.core,1.0,4.0,0.8,0.0,0.024390243902439046
org.eclipse.jdt.internal.antadapter,3.0,0.0,0.0,0.0,0.33333333333333337
org.apache.tomcat.dbcp.dbcp.cpdsadapter,0.0,7.0,1.0,0.0,0.0
org.apache.catalina.tribes.membership,9.0,14.0,0.6086956521739131,0.0,0.15000000000000002
org.apache.catalina.tribes.util,24.0,8.0,0.25,0.0,0.39344262295081966
org.apache.catalina.ha.context,0.0,10.0,1.0,0.0,0.0
org.apache.tomcat.util.bcel,4.0,0.0,0.0,1.0,0.0
org.apache.catalina.ant.jmx,0.0,1.0,1.0,0.0,0.0
javax.annotation.security,1.0,0.0,0.0,1.0,0.75
org.apache.tomcat.util.net.jsse,2.0,9.0,0.8181818181818182,0.0,0.03508771929824561
org.apache.catalina.tribes.tipis,3.0,15.0,0.8333333333333334,0.5,0.42500000000000004
org.apache.catalina.tribes.transport,12.0,11.0,0.4782608695652174,0.5384615384615384,0.2593917710196778
org.apache.catalina.tribes.transport.nio,2.0,20.0,0.9090909090909091,0.0,0.036363636363636376
org.apache.tomcat.util.http.fileupload.servlet,1.0,4.0,0.8,0.3333333333333333,0.19047619047619047
org.apache.tomcat.jdbc.pool.jmx,4.0,5.0,0.5555555555555556,0.5,0.30000000000000004
org.apache.catalina.tribes.transport.bio,0.0,18.0,1.0,0.0,0.0
org.eclipse.jdt.internal.compiler.parser.diagnose,1.0,11.0,0.9166666666666666,0.0,0.0625
org.apache.jasper.tagplugins.jstl,5.0,5.0,0.5,0.0,0.3125
org.apache.tomcat.util.scan,6.0,7.0,0.5384615384615384,0.14285714285714285,0.044642857142857206
org.apache.commons.daemon,4.0,0.0,0.0,0.7142857142857143,0.4065934065934065
org.apache.commons.daemon.support,0.0,4.0,1.0,0.0,0.0
org.apache.el,1.0,12.0,0.9230769230769231,0.0,0.050000000000000044
org.apache.tomcat.util.modeler.modules,1.0,11.0,0.9166666666666666,0.2857142857142857,0.26571428571428557
org.apache.jasper.servlet,5.0,27.0,0.84375,0.0,0.07692307692307687
org.apache.catalina.websocket,0.0,13.0,1.0,0.375,0.375
org.apache.tomcat.util.http.fileupload.util,7.0,2.0,0.2222222222222222,0.6,0.28181818181818175
javax.persistence,1.0,0.0,0.0,0.8333333333333334,0.6333333333333333
org.apache.catalina.tribes.transport.bio.util,2.0,4.0,0.6666666666666666,0.0,0.25
org.apache.tomcat.util.http.fileupload.disk,2.0,8.0,0.8,0.3333333333333333,0.2564102564102564
org.apache.catalina.users,0.0,10.0,1.0,0.25,0.25
org.eclipse.jdt.internal.compiler.apt.util,3.0,9.0,0.75,0.0,0.049180327868852514
org.apache.catalina.ha.util,1.0,0.0,0.0,1.0,0.0
org.apache.naming.resources.jndi,0.0,1.0,1.0,0.0,0.0
org.apache.catalina.manager.host,0.0,21.0,1.0,0.0,0.0
org.apache.tomcat.jdbc.naming,0.0,2.0,1.0,0.0,0.0
javax.annotation.sql,0.0,0.0,0.0,1.0,1.0
org.apache.naming.java,0.0,3.0,1.0,0.0,0.0
org.apache.catalina.ha.authenticator,0.0,15.0,1.0,0.0,0.0
org.apache.tomcat.util.file,1.0,3.0,0.75,0.0,0.09999999999999998
org.eclipse.jdt.core.compiler.batch,0.0,1.0,1.0,0.0,0.0
