UnstableDependenciesPackage,InstabilityUnstableDependenciesPackage,CorrelatedPackage,InstabilityCorrelatedPackage
org.eclipse.jdt.core.compiler,0.05970149253731343,org.eclipse.jdt.internal.compiler.parser,0.9144736842105263
org.eclipse.jdt.internal.compiler.lookup,0.3488372093023256,org.eclipse.jdt.internal.compiler,0.45622119815668205
org.eclipse.jdt.internal.compiler.lookup,0.3488372093023256,org.eclipse.jdt.internal.compiler.problem,0.4238095238095238
org.eclipse.jdt.internal.compiler.lookup,0.3488372093023256,org.eclipse.jdt.internal.compiler.ast,0.6688311688311688
org.eclipse.jdt.internal.compiler.lookup,0.3488372093023256,org.eclipse.jdt.internal.compiler.util,0.4732142857142857
org.eclipse.jdt.internal.compiler.lookup,0.3488372093023256,org.eclipse.jdt.internal.compiler.flow,0.3717948717948718
org.eclipse.jdt.internal.compiler.lookup,0.3488372093023256,org.eclipse.jdt.internal.compiler.codegen,0.39622641509433965
org.eclipse.jdt.internal.compiler.codegen,0.39622641509433965,org.eclipse.jdt.internal.compiler.ast,0.6688311688311688
org.eclipse.jdt.internal.compiler.codegen,0.39622641509433965,org.eclipse.jdt.internal.compiler.problem,0.4238095238095238
org.eclipse.jdt.internal.compiler.codegen,0.39622641509433965,org.eclipse.jdt.internal.compiler.util,0.4732142857142857
org.eclipse.jdt.internal.compiler.codegen,0.39622641509433965,org.eclipse.jdt.internal.compiler,0.45622119815668205
org.eclipse.jdt.internal.compiler.codegen,0.39622641509433965,org.eclipse.jdt.internal.compiler.classfmt,0.8076923076923077
org.eclipse.jdt.internal.compiler.flow,0.3717948717948718,org.eclipse.jdt.internal.compiler.problem,0.4238095238095238
org.eclipse.jdt.internal.compiler.flow,0.3717948717948718,org.eclipse.jdt.internal.compiler.ast,0.6688311688311688
org.eclipse.jdt.internal.compiler.flow,0.3717948717948718,org.eclipse.jdt.internal.compiler.codegen,0.39622641509433965
org.eclipse.jdt.internal.compiler.problem,0.4238095238095238,org.eclipse.jdt.internal.compiler.parser,0.9144736842105263
org.eclipse.jdt.internal.compiler.problem,0.4238095238095238,org.eclipse.jdt.internal.compiler.ast,0.6688311688311688
org.eclipse.jdt.internal.compiler.problem,0.4238095238095238,org.eclipse.jdt.internal.compiler,0.45622119815668205
org.eclipse.jdt.internal.compiler.problem,0.4238095238095238,org.eclipse.jdt.internal.compiler.util,0.4732142857142857
javax.servlet.jsp,0.1388888888888889,javax.servlet,0.17647058823529413
org.eclipse.jdt.internal.compiler,0.45622119815668205,org.eclipse.jdt.internal.compiler.util,0.4732142857142857
org.eclipse.jdt.internal.compiler,0.45622119815668205,org.eclipse.jdt.internal.compiler.ast,0.6688311688311688
org.eclipse.jdt.internal.compiler,0.45622119815668205,org.eclipse.jdt.internal.compiler.parser,0.9144736842105263
org.eclipse.jdt.internal.compiler,0.45622119815668205,org.eclipse.jdt.internal.compiler.classfmt,0.8076923076923077
org.eclipse.jdt.internal.compiler,0.45622119815668205,org.eclipse.jdt.core,0.975609756097561
org.apache.catalina.mbeans,0.8666666666666667,org.apache.coyote.http11,0.9090909090909091
org.apache.catalina.mbeans,0.8666666666666667,org.apache.catalina.valves,0.8839285714285714
org.apache.catalina.mbeans,0.8666666666666667,org.apache.coyote.ajp,0.984375
org.apache.catalina.mbeans,0.8666666666666667,org.apache.catalina.loader,0.941747572815534
org.apache.catalina.mbeans,0.8666666666666667,org.apache.catalina.session,0.9387755102040817
org.apache.catalina.mbeans,0.8666666666666667,org.apache.catalina.realm,0.923728813559322
org.apache.catalina.mbeans,0.8666666666666667,org.apache.catalina.authenticator,0.9594594594594594
org.apache.catalina.mbeans,0.8666666666666667,org.apache.catalina.core,0.9298780487804879
org.apache.catalina.mbeans,0.8666666666666667,org.apache.catalina.startup,0.9633507853403142
org.eclipse.jdt.internal.compiler.impl,0.1951219512195122,org.eclipse.jdt.internal.compiler.lookup,0.3488372093023256
org.eclipse.jdt.internal.compiler.impl,0.1951219512195122,org.eclipse.jdt.internal.compiler.ast,0.6688311688311688
org.eclipse.jdt.internal.compiler.impl,0.1951219512195122,org.eclipse.jdt.internal.compiler.util,0.4732142857142857
org.eclipse.jdt.internal.compiler.impl,0.1951219512195122,org.eclipse.jdt.internal.compiler.problem,0.4238095238095238
