Class,FanIn,FanOut,Total Dependences
org.apache.catalina.connector.Request,83,65,148
org.eclipse.jdt.internal.compiler.lookup.Scope,59,48,107
org.apache.catalina.connector.Response,33,39,72
org.eclipse.jdt.internal.compiler.lookup.SourceTypeBinding,36,39,75
org.eclipse.jdt.internal.compiler.util.Util,40,37,77
org.eclipse.jdt.internal.compiler.problem.ProblemReporter,111,79,190
org.apache.tomcat.util.digester.Digester,53,49,102
org.apache.tomcat.util.modeler.Registry,54,34,88
