IdCycle,CycleType,ElementList
5947,clique,"org.eclipse.jdt.internal.compiler.flow,org.eclipse.jdt.internal.compiler.ast,org.eclipse.jdt.internal.compiler.lookup,org.eclipse.jdt.internal.compiler.flow"
5948,clique,"org.apache.jasper.servlet,org.apache.jasper,org.apache.jasper.compiler,org.apache.jasper.servlet"
6050,chain,"org.apache.tomcat.jdbc.pool.interceptor,org.apache.tomcat.jdbc.pool,org.apache.tomcat.jdbc.pool.jmx"
6051,chain,"org.apache.catalina.connector,org.apache.catalina.authenticator,org.apache.catalina.realm"
6052,chain,"org.apache.el.util,org.apache.el.lang,org.apache.el"
6053,chain,"org.eclipse.jdt.internal.compiler.lookup,org.eclipse.jdt.internal.compiler.flow,org.eclipse.jdt.internal.compiler.ast"
6054,chain,"org.apache.jasper,org.apache.jasper.xmlparser,org.apache.jasper.compiler,org.apache.jasper.servlet"
6055,chain,"org.apache.catalina.tribes.util,org.apache.catalina.tribes.group,org.apache.catalina.tribes.group.interceptors,org.apache.catalina.tribes.membership,org.apache.catalina.tribes.io"
6056,chain,"org.eclipse.jdt.internal.compiler,org.eclipse.jdt.internal.compiler.parser,org.eclipse.jdt.internal.compiler.codegen"
6057,star,"org.eclipse.jdt.core.compiler,org.eclipse.jdt.internal.compiler,org.eclipse.jdt.internal.compiler.parser,org.eclipse.jdt.internal.compiler.parser.diagnose"
