IdCycle,CycleType,ElementList
5915,clique,"org.apache.jasper.servlet,org.apache.jasper,org.apache.jasper.compiler,org.apache.jasper.servlet"
6015,chain,"org.apache.tomcat.jdbc.pool,org.apache.tomcat.jdbc.pool.interceptor,org.apache.tomcat.jdbc.pool.jmx"
6016,chain,"org.apache.catalina.connector,org.apache.catalina.authenticator,org.apache.catalina.realm"
6017,chain,"org.apache.el,org.apache.el.util,org.apache.el.lang"
6018,chain,"org.apache.jasper.servlet,org.apache.jasper.xmlparser,org.apache.jasper,org.apache.jasper.compiler"
6019,chain,"org.eclipse.jdt.internal.compiler.flow,org.eclipse.jdt.internal.compiler.ast,org.eclipse.jdt.internal.compiler.problem"
6020,chain,"org.apache.catalina.tribes.group,org.apache.catalina.tribes.group.interceptors,org.apache.catalina.tribes.util"
6021,star,"org.eclipse.jdt.internal.compiler.parser.diagnose,org.eclipse.jdt.internal.compiler,org.eclipse.jdt.internal.compiler.parser,org.eclipse.jdt.core.compiler"
6022,chain,"org.apache.catalina.tribes.io,org.apache.catalina.tribes.membership,org.apache.catalina.tribes.util"
6023,star,"org.apache.catalina.tribes.group,org.apache.catalina.tribes.membership,org.apache.catalina.tribes.util,org.apache.catalina.tribes"
