Package,CA,CE,RMI,RMA,RMD
org.apache.tomcat.util.modeler,28.0,3.0,0.0967741935483871,0.07692307692307693,0.24125874125874125
org.apache.catalina.mbeans,5.0,49.0,0.9074074074074074,0.0,0.06172839506172845
org.apache.tomcat.util.descriptor.web,23.0,28.0,0.5490196078431373,0.03571428571428571,0.234873949579832
org.eclipse.jdt.internal.compiler.lookup,156.0,71.0,0.31277533039647576,0.14655172413793102,0.46521298174442194
javax.servlet.jsp.tagext,30.0,1.0,0.03225806451612903,0.5384615384615384,0.19324577861163228
org.apache.naming,12.0,2.0,0.14285714285714285,0.0,0.2142857142857143
org.apache.catalina,203.0,0.0,0.0,0.8367346938775511,0.10308012093726371
org.apache.catalina.valves,9.0,44.0,0.8301886792452831,0.04819277108433735,0.03514056224899598
org.apache.catalina.connector,86.0,80.0,0.4819277108433735,0.018518518518518517,0.3654100529100529
org.apache.tomcat.util,103.0,3.0,0.02830188679245283,0.25,0.43666666666666665
org.apache.coyote,90.0,20.0,0.18181818181818182,0.45454545454545453,0.20238885202388857
org.apache.catalina.util,66.0,21.0,0.2413793103448276,0.1,0.3370860927152318
org.apache.tomcat.util.res,270.0,0.0,0.0,0.0,0.9608540925266904
org.apache.juli.logging,366.0,0.0,0.0,0.25,0.7131578947368421
org.apache.el.parser,3.0,22.0,0.88,0.11290322580645161,0.06942496493688632
org.eclipse.jdt.internal.compiler.flow,52.0,26.0,0.3333333333333333,0.14285714285714285,0.4761904761904763
org.eclipse.jdt.internal.compiler.ast,62.0,99.0,0.6149068322981367,0.13380281690140844,0.19251297257227584
org.apache.tomcat.util.digester,63.0,5.0,0.07352941176470588,0.35294117647058826,0.2647058823529411
org.apache.catalina.realm,7.0,39.0,0.8478260869565217,0.1111111111111111,0.059640522875817004
org.apache.catalina.webresources,2.0,17.0,0.8947368421052632,0.1724137931034483,0.14300202839756593
org.eclipse.jdt.internal.compiler,127.0,77.0,0.37745098039215685,0.1875,0.3599137931034483
org.eclipse.jdt.internal.compiler.parser,15.0,115.0,0.8846153846153846,0.21875,0.125
org.apache.catalina.core,25.0,185.0,0.8809523809523809,0.014925373134328358,0.06176174343008878
javax.servlet,134.0,5.0,0.03597122302158273,0.6590909090909091,0.1732072275550537
org.apache.tomcat.util.http.fileupload,7.0,5.0,0.4166666666666667,0.3611111111111111,0.18611111111111112
org.apache.tomcat.dbcp.pool2.impl,10.0,11.0,0.5238095238095238,0.20588235294117646,0.07767722473604821
org.apache.catalina.filters,0.0,21.0,1.0,0.0625,0.0625
org.apache.tomcat.util.bcel.classfile,2.0,1.0,0.3333333333333333,0.09523809523809523,0.022408963585434205
org.apache.tomcat.util.security,14.0,0.0,0.0,0.0,0.5833333333333333
org.apache.tomcat.util.http,33.0,11.0,0.25,0.05555555555555555,0.36752136752136755
org.apache.catalina.mapper,6.0,20.0,0.7692307692307693,0.09090909090909091,0.051948051948051965
org.apache.tomcat.dbcp.dbcp2.datasources,0.0,12.0,1.0,0.3076923076923077,0.3076923076923077
org.apache.jasper.compiler,20.0,72.0,0.782608695652174,0.04697986577181208,0.054542976867781756
org.apache.catalina.startup,6.0,88.0,0.9361702127659575,0.020833333333333332,0.01325757575757569
org.apache.juli,3.0,0.0,0.0,0.045454545454545456,0.0029325513196480912
org.eclipse.jdt.internal.compiler.apt.dispatch,19.0,37.0,0.6607142857142857,0.1875,6.188118811880639E-4
org.eclipse.jdt.internal.compiler.batch,10.0,33.0,0.7674418604651163,0.15789473684210525,0.048004626951995366
org.eclipse.jdt.internal.compiler.classfmt,12.0,23.0,0.6571428571428571,0.09523809523809523,0.11528822055137844
org.eclipse.jdt.core.compiler,138.0,1.0,0.007194244604316547,0.6,0.3452054794520548
org.eclipse.jdt.internal.compiler.env,40.0,1.0,0.024390243902439025,0.7391304347826086,0.1699604743083004
org.eclipse.jdt.internal.compiler.problem,134.0,83.0,0.3824884792626728,0.1,0.47264957264957264
org.eclipse.jdt.internal.compiler.util,69.0,11.0,0.1375,0.07407407407407407,0.48690153568202343
javax.websocket,43.0,0.0,0.0,0.7333333333333333,0.021052631578947434
org.apache.tomcat.util.net,70.0,25.0,0.2631578947368421,0.1728395061728395,0.2204189207934526
org.apache.coyote.ajp,0.0,44.0,1.0,0.14285714285714285,0.1428571428571428
org.apache.catalina.valves.rewrite,0.0,28.0,1.0,0.2,0.19999999999999996
org.apache.catalina.loader,4.0,19.0,0.8260869565217391,0.1111111111111111,0.06715506715506714
org.apache.tomcat.jdbc.pool,11.0,5.0,0.3125,0.10714285714285714,0.0017680339462518013
org.apache.catalina.session,7.0,34.0,0.8292682926829268,0.14285714285714285,0.07355021216407365
org.apache.catalina.ha.session,3.0,36.0,0.9230769230769231,0.25,0.21153846153846168
org.apache.catalina.ha,19.0,10.0,0.3448275862068966,0.8888888888888888,0.2759856630824373
org.apache.catalina.tribes.io,31.0,6.0,0.16216216216216217,0.2222222222222222,0.2621527777777778
org.apache.catalina.ha.tcp,2.0,35.0,0.9459459459459459,0.0,0.03703703703703709
org.apache.tomcat.jdbc.pool.interceptor,1.0,9.0,0.9,0.17647058823529413,0.15861344537815114
org.apache.catalina.manager.util,12.0,3.0,0.2,0.3333333333333333,0.11111111111111116
org.apache.catalina.tribes.group,17.0,29.0,0.6304347826086957,0.17647058823529413,0.08506787330316734
org.apache.catalina.tribes.group.interceptors,3.0,25.0,0.8928571428571429,0.0,0.049180327868852514
org.apache.coyote.spdy,0.0,34.0,1.0,0.0,0.0
org.apache.coyote.http11,10.0,73.0,0.8795180722891566,0.17647058823529413,0.10013471037269861
org.apache.tomcat.util.buf,89.0,3.0,0.03260869565217391,0.16666666666666666,0.5396825396825397
org.apache.catalina.authenticator,4.0,42.0,0.9130434782608695,0.05,6.172839506173311E-4
org.apache.tomcat.util.threads,4.0,4.0,0.5,0.08333333333333333,0.07051282051282048
org.apache.tomcat.websocket.server,0.0,55.0,1.0,0.034482758620689655,0.034482758620689724
javax.el,56.0,0.0,0.0,0.22807017543859648,0.20603835169318652
org.apache.jasper.el,4.0,27.0,0.8709677419354839,0.0,0.0888888888888889
org.apache.naming.factory,1.0,5.0,0.8333333333333334,0.0625,0.044642857142857206
javax.servlet.annotation,8.0,0.0,0.0,0.8181818181818182,0.24675324675324672
org.apache.jasper.util,9.0,1.0,0.1,0.0,0.40909090909090906
org.apache.catalina.ssi,0.0,22.0,1.0,0.14285714285714285,0.1428571428571428
org.eclipse.jdt.internal.compiler.impl,67.0,5.0,0.06944444444444445,0.2,0.5976190476190476
org.apache.el.lang,18.0,20.0,0.5263157894736842,0.06666666666666667,0.17990867579908676
org.apache.jasper,30.0,20.0,0.4,0.16666666666666666,0.12745098039215685
javax.websocket.server,9.0,2.0,0.18181818181818182,0.6666666666666666,0.21666666666666679
javax.servlet.descriptor,5.0,0.0,0.0,1.0,0.0
org.apache.tomcat.dbcp.dbcp2,6.0,15.0,0.7142857142857143,0.125,0.05182926829268286
org.apache.tomcat.dbcp.pool2,24.0,0.0,0.0,0.4583333333333333,0.08712121212121215
org.apache.tomcat.util.net.jsse.openssl,2.0,3.0,0.6,0.0,0.09999999999999998
org.apache.jasper.runtime,5.0,45.0,0.9,0.11428571428571428,0.06273932253313697
javax.servlet.jsp.el,9.0,12.0,0.5714285714285714,0.22727272727272727,0.01597051597051591
org.eclipse.jdt.internal.compiler.codegen,67.0,29.0,0.3020833333333333,0.15384615384615385,0.4139504563233376
org.apache.tomcat,22.0,0.0,0.0,0.75,0.09615384615384615
org.apache.tomcat.spdy,8.0,5.0,0.38461538461538464,0.22727272727272727,0.06060606060606055
javax.servlet.http,95.0,9.0,0.08653846153846154,0.52,0.20519083969465646
org.apache.catalina.servlets,0.0,32.0,1.0,0.0,0.0
org.apache.catalina.ha.backend,0.0,6.0,1.0,0.16666666666666666,0.16666666666666674
org.apache.tomcat.util.codec,1.0,0.0,0.0,0.6666666666666666,0.16666666666666652
org.apache.tomcat.websocket,14.0,48.0,0.7741935483870968,0.10526315789473684,0.010668563300142209
org.apache.tomcat.util.log,12.0,1.0,0.07692307692307693,0.0,0.6
org.apache.catalina.storeconfig,0.0,55.0,1.0,0.05405405405405406,0.054054054054053946
org.apache.coyote.http11.upgrade,4.0,23.0,0.8518518518518519,0.16666666666666666,0.08503401360544216
org.apache.catalina.ant,1.0,3.0,0.75,0.14285714285714285,0.11059907834101379
javax.servlet.jsp,30.0,2.0,0.0625,0.6666666666666666,0.19047619047619047
org.apache.tomcat.util.scan,15.0,9.0,0.375,0.09090909090909091,0.22159090909090906
org.apache.catalina.tribes,52.0,1.0,0.018867924528301886,0.7368421052631579,0.10186757215619702
org.apache.coyote.http11.filters,6.0,13.0,0.6842105263157895,0.0,0.2142857142857143
org.apache.tomcat.util.descriptor.tld,9.0,12.0,0.5714285714285714,0.0625,0.1570121951219512
org.apache.catalina.manager,0.0,38.0,1.0,0.0,0.0
org.apache.jasper.compiler.tagplugin,16.0,0.0,0.0,1.0,0.0
org.apache.jasper.tagplugins.jstl.core,0.0,4.0,1.0,0.0,0.0
org.apache.tomcat.jni.socket,5.0,11.0,0.6875,0.38461538461538464,0.2865761689291102
javax.ejb,1.0,0.0,0.0,1.0,0.75
org.apache.tomcat.util.collections,10.0,0.0,0.0,0.0,0.41666666666666663
org.eclipse.jdt.internal.compiler.tool,0.0,23.0,1.0,0.0,0.0
org.apache.catalina.tribes.util,23.0,7.0,0.23333333333333334,0.0,0.3770491803278688
org.apache.tomcat.util.http.fileupload.util.mime,1.0,1.0,0.5,0.25,0.16666666666666652
org.apache.tomcat.util.http.parser,5.0,9.0,0.6428571428571429,0.0,0.16666666666666663
org.apache.tomcat.util.codec.binary,8.0,5.0,0.38461538461538464,0.25,0.06999999999999995
javax.annotation,2.0,0.0,0.0,0.875,0.5416666666666665
org.apache.tomcat.jni,18.0,0.0,0.0,0.11428571428571428,0.578021978021978
org.eclipse.jdt.internal.compiler.apt.model,4.0,30.0,0.8823529411764706,0.08333333333333333,0.0452380952380953
org.apache.el.util,17.0,2.0,0.10526315789473684,0.0,0.33999999999999997
org.apache.catalina.deploy,9.0,25.0,0.7352941176470589,0.0,0.18367346938775508
org.apache.catalina.comet,9.0,2.0,0.18181818181818182,0.6666666666666666,0.08333333333333337
org.apache.catalina.security,15.0,13.0,0.4642857142857143,0.0,0.2941176470588235
org.apache.tomcat.websocket.pojo,4.0,31.0,0.8857142857142857,0.29411764705882354,0.23257918552036205
javax.xml.ws,1.0,0.0,0.0,1.0,0.75
org.eclipse.jdt.core,1.0,4.0,0.8,0.0,0.024390243902439046
org.eclipse.jdt.internal.antadapter,3.0,0.0,0.0,0.0,0.33333333333333337
org.apache.catalina.ha.deploy,0.0,15.0,1.0,0.1111111111111111,0.11111111111111116
org.apache.catalina.tribes.membership,8.0,14.0,0.6363636363636364,0.0,0.13793103448275867
org.apache.catalina.ha.context,0.0,11.0,1.0,0.0,0.0
org.apache.tomcat.util.bcel,1.0,0.0,0.0,1.0,0.0
org.apache.catalina.ant.jmx,0.0,1.0,1.0,0.09090909090909091,0.09090909090909083
javax.annotation.security,1.0,0.0,0.0,1.0,0.75
org.apache.tomcat.util.net.jsse,4.0,11.0,0.7333333333333333,0.0,0.05882352941176472
org.apache.catalina.tribes.transport,14.0,11.0,0.44,0.5384615384615384,0.2202797202797202
org.apache.catalina.tribes.transport.nio,2.0,21.0,0.9130434782608695,0.0,0.0357142857142857
org.apache.jasper.servlet,5.0,48.0,0.9056603773584906,0.0,0.05102040816326525
org.apache.tomcat.util.http.fileupload.servlet,1.0,4.0,0.8,0.3333333333333333,0.19047619047619047
org.apache.tomcat.jdbc.pool.jmx,4.0,5.0,0.5555555555555556,0.5,0.30000000000000004
org.apache.catalina.tribes.transport.bio,0.0,18.0,1.0,0.0,0.0
org.eclipse.jdt.internal.compiler.parser.diagnose,1.0,12.0,0.9230769230769231,0.0,0.05882352941176472
org.apache.jasper.tagplugins.jstl,5.0,5.0,0.5,0.0,0.2941176470588235
org.apache.catalina.tribes.tipis,4.0,14.0,0.7777777777777778,0.42857142857142855,0.3204633204633205
org.apache.commons.daemon,4.0,0.0,0.0,0.7142857142857143,0.4065934065934065
org.apache.commons.daemon.support,0.0,4.0,1.0,0.0,0.0
org.apache.el,2.0,14.0,0.875,0.0,0.08695652173913049
org.apache.tomcat.util.modeler.modules,1.0,8.0,0.8888888888888888,0.3333333333333333,0.3063063063063063
org.apache.tomcat.dbcp.dbcp2.cpdsadapter,0.0,10.0,1.0,0.2,0.19999999999999996
org.apache.jasper.xmlparser,1.0,5.0,0.8333333333333334,0.0,0.050000000000000044
org.apache.el.stream,2.0,7.0,0.7777777777777778,0.07142857142857142,0.002645502645502673
org.apache.tomcat.util.http.fileupload.util,7.0,3.0,0.3,0.6,0.29565217391304355
javax.persistence,1.0,0.0,0.0,0.8333333333333334,0.6333333333333333
org.apache.catalina.tribes.transport.bio.util,2.0,4.0,0.6666666666666666,0.0,0.2222222222222222
org.apache.tomcat.util.http.fileupload.disk,2.0,7.0,0.7777777777777778,0.3333333333333333,0.25
org.apache.catalina.users,0.0,10.0,1.0,0.25,0.25
org.apache.tomcat.util.descriptor,6.0,5.0,0.45454545454545453,0.0,0.19999999999999996
org.eclipse.jdt.internal.compiler.apt.util,3.0,9.0,0.75,0.0,0.049180327868852514
org.apache.tomcat.util.descriptor.tagplugin,1.0,6.0,0.8571428571428571,0.0,0.06666666666666665
org.apache.jasper.security,4.0,2.0,0.3333333333333333,0.0,0.4
org.apache.catalina.manager.host,0.0,20.0,1.0,0.0,0.0
org.apache.tomcat.jdbc.naming,0.0,3.0,1.0,0.0,0.0
javax.annotation.sql,0.0,0.0,0.0,1.0,1.0
org.apache.naming.java,0.0,3.0,1.0,0.0,0.0
org.apache.catalina.ha.authenticator,0.0,11.0,1.0,0.0,0.0
org.apache.tomcat.util.file,1.0,0.0,0.0,0.0,0.19999999999999996
org.eclipse.jdt.core.compiler.batch,0.0,1.0,1.0,0.0,0.0
