IdCycle,CycleType,ElementList
5830,clique,"org.apache.jasper.servlet,org.apache.jasper,org.apache.jasper.compiler,org.apache.jasper.servlet"
5930,chain,"org.apache.catalina.startup,org.apache.catalina.authenticator,org.apache.catalina.security"
5931,chain,"org.apache.tomcat.jdbc.pool.jmx,org.apache.tomcat.jdbc.pool,org.apache.tomcat.jdbc.pool.interceptor"
5932,star,"org.apache.el.util,org.apache.el.lang,org.apache.el.parser,org.apache.el"
5933,chain,"org.apache.jasper,org.apache.jasper.compiler,org.apache.jasper.xmlparser,org.apache.jasper.servlet"
5934,chain,"org.eclipse.jdt.internal.compiler.parser,org.eclipse.jdt.internal.compiler.flow,org.eclipse.jdt.internal.compiler.ast"
5935,chain,"org.apache.catalina.tribes.membership,org.apache.catalina.tribes.io,org.apache.catalina.tribes.util,org.apache.catalina.tribes"
5936,chain,"org.eclipse.jdt.internal.compiler.codegen,org.eclipse.jdt.internal.compiler,org.eclipse.jdt.internal.compiler.problem"
5937,star,"org.eclipse.jdt.internal.compiler.parser,org.eclipse.jdt.internal.compiler.parser.diagnose,org.eclipse.jdt.internal.compiler.ast,org.eclipse.jdt.core.compiler"
