IdCycle,CycleType,ElementList
5866,clique,"org.apache.jasper.servlet,org.apache.jasper,org.apache.jasper.compiler,org.apache.jasper.servlet"
5966,chain,"org.apache.catalina.startup,org.apache.catalina.authenticator,org.apache.catalina.security"
5967,chain,"org.apache.tomcat.jdbc.pool,org.apache.tomcat.jdbc.pool.jmx,org.apache.tomcat.jdbc.pool.interceptor"
5968,chain,"org.apache.el.util,org.apache.el.lang,org.apache.el"
5969,chain,"org.apache.jasper.compiler,org.apache.jasper,org.apache.jasper.xmlparser,org.apache.jasper.servlet"
5970,chain,"org.eclipse.jdt.internal.compiler.parser,org.eclipse.jdt.internal.compiler.flow,org.eclipse.jdt.internal.compiler.ast"
5971,chain,"org.apache.catalina.tribes.group,org.apache.catalina.tribes.group.interceptors,org.apache.catalina.tribes.util"
5972,chain,"org.eclipse.jdt.internal.compiler.codegen,org.eclipse.jdt.internal.compiler,org.eclipse.jdt.internal.compiler.batch,org.eclipse.jdt.internal.compiler.util"
5973,star,"org.eclipse.jdt.internal.compiler.parser,org.eclipse.jdt.internal.compiler.ast,org.eclipse.jdt.internal.compiler.parser.diagnose,org.eclipse.jdt.core.compiler"
5974,chain,"org.apache.catalina.tribes.io,org.apache.catalina.tribes.membership,org.apache.catalina.tribes.util"
5975,star,"org.apache.catalina.tribes.group,org.apache.catalina.tribes.membership,org.apache.catalina.tribes.util,org.apache.catalina.tribes"
