UnstableDependenciesPackage,InstabilityUnstableDependenciesPackage,CorrelatedPackage,InstabilityCorrelatedPackage
org.apache.catalina.session,0.9278350515463918,org.apache.catalina.realm,0.9385964912280702
org.apache.catalina.tribes,0.17543859649122806,org.apache.catalina.tribes.util,0.6065573770491803
org.apache.catalina.connector,0.6150234741784038,org.apache.catalina.mbeans,0.8842105263157894
org.apache.catalina.connector,0.6150234741784038,org.apache.tomcat.util.http.fileupload.servlet,0.8333333333333334
org.apache.catalina.connector,0.6150234741784038,org.apache.tomcat.util.http.fileupload.disk,0.9230769230769231
org.apache.catalina.connector,0.6150234741784038,org.apache.catalina.realm,0.9385964912280702
org.apache.catalina.connector,0.6150234741784038,org.apache.tomcat.util.net,0.7327586206896551
org.apache.catalina.connector,0.6150234741784038,org.apache.catalina.security,0.6595744680851063
org.apache.catalina.connector,0.6150234741784038,org.apache.catalina.core,0.9120521172638436
org.apache.catalina.connector,0.6150234741784038,org.apache.tomcat.util.http.mapper,0.65
org.apache.jasper,0.68,org.apache.jasper.servlet,0.921875
org.apache.jasper,0.68,org.apache.jasper.compiler,0.9042553191489362
org.eclipse.jdt.internal.compiler.batch,0.8901098901098901,org.eclipse.jdt.internal.compiler.parser,0.9155844155844156
org.apache.catalina.util,0.5359477124183006,org.apache.tomcat.util.modeler,0.6413043478260869
org.apache.catalina.util,0.5359477124183006,org.apache.naming.resources,0.8734177215189873
org.apache.catalina.ha.session,0.9625,org.apache.catalina.ha.tcp,0.9642857142857143
org.apache.catalina.ha.tcp,0.9642857142857143,org.apache.catalina.tribes.group.interceptors,0.9655172413793104
org.apache.catalina.security,0.6595744680851063,org.apache.catalina.startup,0.9520958083832335
org.apache.catalina.tribes.transport,0.7209302325581395,org.apache.catalina.tribes.transport.nio,0.9629629629629629
org.apache.tomcat.util.net,0.7327586206896551,org.apache.tomcat.util.threads,0.8518518518518519
org.apache.tomcat.util.net,0.7327586206896551,org.apache.tomcat.util.net.jsse,0.9629629629629629
org.eclipse.jdt.internal.compiler.util,0.47706422018348627,org.eclipse.jdt.internal.compiler.batch,0.8901098901098901
org.apache.catalina.ha.authenticator,0.95,org.apache.catalina.authenticator,0.9565217391304348
org.apache.catalina.valves,0.8796296296296297,org.apache.catalina.session,0.9278350515463918
org.apache.catalina.valves,0.8796296296296297,org.apache.catalina.mbeans,0.8842105263157894
org.apache.tomcat.jdbc.pool.jmx,0.7894736842105263,org.apache.tomcat.jdbc.pool,0.9058823529411765
org.apache.jasper.compiler,0.9042553191489362,org.apache.jasper.runtime,0.9611650485436893
org.apache.jasper.compiler,0.9042553191489362,org.apache.jasper.servlet,0.921875
org.apache.catalina.tribes.util,0.6065573770491803,org.apache.catalina.tribes.group,0.7384615384615385
org.apache.catalina.tribes.util,0.6065573770491803,org.apache.catalina.tribes.membership,0.847457627118644
org.apache.coyote.http11.filters,0.8,org.apache.coyote.http11,0.9
org.eclipse.jdt.core.compiler,0.0625,org.eclipse.jdt.internal.compiler.parser,0.9155844155844156
org.eclipse.jdt.internal.compiler.lookup,0.33495145631067963,org.eclipse.jdt.internal.compiler.codegen,0.39622641509433965
org.eclipse.jdt.internal.compiler.lookup,0.33495145631067963,org.eclipse.jdt.internal.compiler,0.45794392523364486
org.eclipse.jdt.internal.compiler.lookup,0.33495145631067963,org.eclipse.jdt.internal.compiler.ast,0.6496350364963503
org.eclipse.jdt.internal.compiler.lookup,0.33495145631067963,org.eclipse.jdt.internal.compiler.util,0.47706422018348627
org.eclipse.jdt.internal.compiler.lookup,0.33495145631067963,org.eclipse.jdt.internal.compiler.problem,0.3968253968253968
org.eclipse.jdt.internal.compiler.impl,0.20253164556962025,org.eclipse.jdt.internal.compiler.lookup,0.33495145631067963
org.eclipse.jdt.internal.compiler.impl,0.20253164556962025,org.eclipse.jdt.internal.compiler.ast,0.6496350364963503
org.eclipse.jdt.internal.compiler.impl,0.20253164556962025,org.eclipse.jdt.internal.compiler.util,0.47706422018348627
org.eclipse.jdt.internal.compiler.impl,0.20253164556962025,org.eclipse.jdt.internal.compiler.problem,0.3968253968253968
org.apache.catalina,0.07228915662650602,org.apache.catalina.core,0.9120521172638436
org.apache.jasper.servlet,0.921875,org.apache.jasper.runtime,0.9611650485436893
org.apache.el.lang,0.7727272727272727,org.apache.el.parser,0.9473684210526315
org.apache.el.lang,0.7727272727272727,org.apache.el,0.95
org.eclipse.jdt.internal.compiler.flow,0.3125,org.eclipse.jdt.internal.compiler.codegen,0.39622641509433965
org.eclipse.jdt.internal.compiler.flow,0.3125,org.eclipse.jdt.internal.compiler.problem,0.3968253968253968
org.eclipse.jdt.internal.compiler.flow,0.3125,org.eclipse.jdt.internal.compiler.ast,0.6496350364963503
org.eclipse.jdt.internal.compiler.flow,0.3125,org.eclipse.jdt.internal.compiler.lookup,0.33495145631067963
org.eclipse.jdt.internal.compiler.apt.dispatch,0.8229166666666666,org.eclipse.jdt.internal.compiler.apt.util,0.95
org.eclipse.jdt.internal.compiler.apt.dispatch,0.8229166666666666,org.eclipse.jdt.internal.compiler.apt.model,0.9611650485436893
org.eclipse.jdt.internal.compiler.apt.dispatch,0.8229166666666666,org.eclipse.jdt.internal.compiler.batch,0.8901098901098901
org.apache.catalina.tribes.group,0.7384615384615385,org.apache.catalina.tribes.transport.nio,0.9629629629629629
org.apache.catalina.tribes.group,0.7384615384615385,org.apache.catalina.tribes.membership,0.847457627118644
org.apache.catalina.tribes.group,0.7384615384615385,org.apache.catalina.tribes.group.interceptors,0.9655172413793104
org.eclipse.jdt.internal.compiler,0.45794392523364486,org.eclipse.jdt.core,0.967741935483871
org.eclipse.jdt.internal.compiler,0.45794392523364486,org.eclipse.jdt.internal.compiler.classfmt,0.8076923076923077
org.eclipse.jdt.internal.compiler,0.45794392523364486,org.eclipse.jdt.internal.compiler.util,0.47706422018348627
org.eclipse.jdt.internal.compiler,0.45794392523364486,org.eclipse.jdt.internal.compiler.ast,0.6496350364963503
org.eclipse.jdt.internal.compiler,0.45794392523364486,org.eclipse.jdt.internal.compiler.parser,0.9155844155844156
org.apache.tomcat.jdbc.pool,0.9058823529411765,org.apache.tomcat.jdbc.pool.interceptor,0.9795918367346939
org.apache.tomcat.util.http.fileupload.util,0.6818181818181818,org.apache.tomcat.util.http.fileupload,0.8333333333333334
org.eclipse.jdt.internal.compiler.problem,0.3968253968253968,org.eclipse.jdt.internal.compiler.ast,0.6496350364963503
org.eclipse.jdt.internal.compiler.problem,0.3968253968253968,org.eclipse.jdt.internal.compiler.parser,0.9155844155844156
org.eclipse.jdt.internal.compiler.problem,0.3968253968253968,org.eclipse.jdt.internal.compiler.util,0.47706422018348627
org.eclipse.jdt.internal.compiler.problem,0.3968253968253968,org.eclipse.jdt.internal.compiler,0.45794392523364486
org.eclipse.jdt.internal.compiler.parser,0.9155844155844156,org.eclipse.jdt.internal.compiler.parser.diagnose,0.9375
javax.servlet.jsp,0.14705882352941177,javax.servlet,0.19402985074626866
org.apache.catalina.ha,0.375,org.apache.tomcat.util.digester,0.4897959183673469
org.apache.tomcat.util.scan,0.8181818181818182,org.apache.tomcat.util.file,0.9
org.apache.tomcat.util.modeler,0.6413043478260869,org.apache.tomcat.util.modeler.modules,0.9795918367346939
org.eclipse.jdt.internal.compiler.ast,0.6496350364963503,org.eclipse.jdt.internal.compiler.parser,0.9155844155844156
org.apache.catalina.mbeans,0.8842105263157894,org.apache.catalina.realm,0.9385964912280702
org.apache.catalina.mbeans,0.8842105263157894,org.apache.catalina.authenticator,0.9565217391304348
org.apache.catalina.mbeans,0.8842105263157894,org.apache.catalina.session,0.9278350515463918
org.apache.catalina.mbeans,0.8842105263157894,org.apache.catalina.loader,0.9405940594059405
org.apache.catalina.mbeans,0.8842105263157894,org.apache.catalina.core,0.9120521172638436
org.apache.catalina.mbeans,0.8842105263157894,org.apache.catalina.startup,0.9520958083832335
org.apache.catalina.mbeans,0.8842105263157894,org.apache.coyote.http11,0.9
org.apache.catalina.mbeans,0.8842105263157894,org.apache.coyote.ajp,0.9836065573770492
org.apache.jasper.util,0.5,org.apache.jasper.compiler,0.9042553191489362
org.apache.catalina.ha.jmx,0.9444444444444444,org.apache.catalina.ha.deploy,0.972972972972973
org.apache.catalina.ha.jmx,0.9444444444444444,org.apache.catalina.ha.session,0.9625
org.apache.catalina.ha.jmx,0.9444444444444444,org.apache.catalina.ha.tcp,0.9642857142857143
org.apache.catalina.ha.jmx,0.9444444444444444,org.apache.catalina.ha.authenticator,0.95
org.apache.catalina.tribes.io,0.5230769230769231,org.apache.catalina.tribes.util,0.6065573770491803
org.apache.catalina.tribes.io,0.5230769230769231,org.apache.catalina.tribes.membership,0.847457627118644
org.apache.catalina.deploy,0.6,org.apache.catalina.mbeans,0.8842105263157894
org.apache.catalina.deploy,0.6,org.apache.naming,0.6885245901639344
org.apache.catalina.deploy,0.6,org.apache.catalina.core,0.9120521172638436
org.eclipse.jdt.internal.compiler.codegen,0.39622641509433965,org.eclipse.jdt.internal.compiler.classfmt,0.8076923076923077
org.eclipse.jdt.internal.compiler.codegen,0.39622641509433965,org.eclipse.jdt.internal.compiler.problem,0.3968253968253968
org.eclipse.jdt.internal.compiler.codegen,0.39622641509433965,org.eclipse.jdt.internal.compiler.ast,0.6496350364963503
org.eclipse.jdt.internal.compiler.codegen,0.39622641509433965,org.eclipse.jdt.internal.compiler,0.45794392523364486
org.eclipse.jdt.internal.compiler.codegen,0.39622641509433965,org.eclipse.jdt.internal.compiler.util,0.47706422018348627
javax.servlet,0.19402985074626866,javax.servlet.annotation,0.5
org.apache.catalina.startup,0.9520958083832335,org.apache.tomcat.util.bcel.classfile,0.9696969696969697
org.apache.catalina.startup,0.9520958083832335,org.apache.catalina.authenticator,0.9565217391304348
org.apache.catalina.startup,0.9520958083832335,org.apache.juli,0.9636363636363636
org.apache.tomcat.dbcp.dbcp,0.9032258064516129,org.apache.tomcat.dbcp.jocl,0.9629629629629629
org.apache.tomcat.dbcp.dbcp,0.9032258064516129,org.apache.tomcat.dbcp.pool.impl,0.9090909090909091
org.apache.coyote,0.37373737373737376,org.apache.tomcat.util.net,0.7327586206896551
org.apache.coyote,0.37373737373737376,org.apache.tomcat.util.modeler,0.6413043478260869
org.apache.coyote,0.37373737373737376,org.apache.tomcat.util.http,0.5636363636363636
org.apache.jasper.xmlparser,0.8695652173913043,org.apache.jasper.compiler,0.9042553191489362
org.apache.catalina.core,0.9120521172638436,org.apache.naming.factory,0.9803921568627451
org.apache.catalina.core,0.9120521172638436,org.apache.catalina.realm,0.9385964912280702
org.apache.catalina.core,0.9120521172638436,org.apache.catalina.startup,0.9520958083832335
org.apache.catalina.core,0.9120521172638436,org.apache.catalina.session,0.9278350515463918
org.apache.catalina.core,0.9120521172638436,org.apache.catalina.loader,0.9405940594059405
org.apache.catalina.core,0.9120521172638436,org.apache.tomcat.util.http.fileupload.disk,0.9230769230769231
