IdCycle,CycleType,ElementList
6118,circle,"org.eclipse.jdt.internal.compiler.lookup.ConstraintFormula,org.eclipse.jdt.internal.compiler.lookup.ConstraintTypeFormula,org.eclipse.jdt.internal.compiler.lookup.ReductionResult$1,org.eclipse.jdt.internal.compiler.lookup.ReductionResult,org.eclipse.jdt.internal.compiler.lookup.ConstraintFormula"
6119,circle,"org.eclipse.jdt.internal.compiler.lookup.ConstraintTypeFormula,org.eclipse.jdt.internal.compiler.lookup.ReductionResult$1,org.eclipse.jdt.internal.compiler.lookup.ReductionResult,org.eclipse.jdt.internal.compiler.lookup.TypeBound,org.eclipse.jdt.internal.compiler.lookup.ConstraintTypeFormula"
6120,circle,"org.eclipse.jdt.internal.compiler.ast.ArrayAllocationExpression,org.eclipse.jdt.internal.compiler.ast.Annotation$1LocationCollector,org.eclipse.jdt.internal.compiler.ast.Annotation,org.eclipse.jdt.internal.compiler.ast.ArrayAllocationExpression"
6121,circle,"org.eclipse.jdt.internal.compiler.classfmt.ExternalAnnotationProvider$BasicAnnotationWalker,org.eclipse.jdt.internal.compiler.classfmt.ExternalAnnotationProvider$TypeParametersAnnotationWalker,org.eclipse.jdt.internal.compiler.classfmt.ExternalAnnotationProvider$DispatchingAnnotationWalker,org.eclipse.jdt.internal.compiler.classfmt.ExternalAnnotationProvider,org.eclipse.jdt.internal.compiler.classfmt.ExternalAnnotationProvider$BasicAnnotationWalker"
6122,circle,"org.apache.catalina.core.ApplicationDispatcher,org.apache.catalina.core.ApplicationContext,org.apache.catalina.core.StandardWrapperFacade,org.apache.catalina.core.StandardWrapper,org.apache.catalina.core.ApplicationDispatcher"
6123,circle,"org.apache.catalina.realm.MemoryUserRule,org.apache.catalina.realm.MemoryRuleSet,org.apache.catalina.realm.MemoryRealm,org.apache.catalina.realm.MemoryUserRule"
6124,circle,"org.apache.tomcat.util.bcel.classfile.Utility,org.apache.tomcat.util.bcel.classfile.Constant,org.apache.tomcat.util.bcel.classfile.ConstantPool,org.apache.tomcat.util.bcel.classfile.Utility"
6125,circle,"org.apache.tomcat.util.bcel.classfile.ElementValue,org.apache.tomcat.util.bcel.classfile.ElementValuePair,org.apache.tomcat.util.bcel.classfile.AnnotationEntry,org.apache.tomcat.util.bcel.classfile.ElementValue"
6126,circle,"javax.el.StandardELContext,javax.el.ELManager,javax.el.ELContext,javax.el.StandardELContext"
6127,circle,"javax.el.BeanELResolver,javax.el.StandardELContext,javax.el.ELManager,javax.el.BeanELResolver"
6128,circle,"org.eclipse.jdt.internal.compiler.apt.model.TypeMirrorImpl,org.eclipse.jdt.internal.compiler.apt.model.PrimitiveTypeImpl,org.eclipse.jdt.internal.compiler.apt.model.Factory,org.eclipse.jdt.internal.compiler.apt.model.TypeMirrorImpl"
6129,circle,"org.apache.catalina.ha.session.DeltaSession,org.apache.catalina.ha.tcp.ReplicationValve,org.apache.catalina.ha.session.ClusterManagerBase,org.apache.catalina.ha.session.DeltaSession"
6130,circle,"org.apache.tomcat.jdbc.pool.DataSource,org.apache.tomcat.jdbc.pool.DataSourceFactory,org.apache.tomcat.jdbc.pool.DataSourceProxy,org.apache.tomcat.jdbc.pool.DataSource"
6131,circle,"org.apache.catalina.tribes.transport.nio.NioReceiver,org.apache.catalina.tribes.group.ChannelCoordinator,org.apache.catalina.tribes.group.GroupChannel,org.apache.catalina.tribes.transport.nio.NioReceiver"
6132,circle,"org.apache.jasper.compiler.TextOptimizer$TextCatVisitor,org.apache.jasper.compiler.TextOptimizer,org.apache.jasper.compiler.Compiler,org.apache.jasper.compiler.TextOptimizer$TextCatVisitor"
6133,circle,"org.apache.catalina.ssi.ExpressionParseTree$CompareNode,org.apache.catalina.ssi.ExpressionParseTree$EqualNode,org.apache.catalina.ssi.ExpressionParseTree,org.apache.catalina.ssi.ExpressionParseTree$CompareNode"
6134,clique,"org.eclipse.jdt.internal.compiler.parser.RecoveredMethod,org.eclipse.jdt.internal.compiler.parser.RecoveredType,org.eclipse.jdt.internal.compiler.parser.RecoveredElement,org.eclipse.jdt.internal.compiler.parser.RecoveredMethod"
6135,clique,"org.eclipse.jdt.internal.compiler.parser.RecoveredInitializer,org.eclipse.jdt.internal.compiler.parser.RecoveredType,org.eclipse.jdt.internal.compiler.parser.RecoveredElement,org.eclipse.jdt.internal.compiler.parser.RecoveredInitializer"
6136,clique,"org.eclipse.jdt.internal.compiler.ast.NullAnnotationMatching,org.eclipse.jdt.internal.compiler.lookup.TypeVariableBinding,org.eclipse.jdt.internal.compiler.lookup.ParameterizedTypeBinding,org.eclipse.jdt.internal.compiler.ast.NullAnnotationMatching"
6137,clique,"org.eclipse.jdt.internal.compiler.lookup.BlockScope,org.eclipse.jdt.internal.compiler.lookup.MethodScope,org.eclipse.jdt.internal.compiler.lookup.LocalVariableBinding,org.eclipse.jdt.internal.compiler.lookup.BlockScope"
6138,clique,"org.eclipse.jdt.internal.compiler.lookup.FieldBinding,org.eclipse.jdt.internal.compiler.lookup.ArrayBinding,org.eclipse.jdt.internal.compiler.lookup.Scope,org.eclipse.jdt.internal.compiler.lookup.FieldBinding"
6139,clique,"org.eclipse.jdt.internal.compiler.lookup.ArrayBinding,org.eclipse.jdt.internal.compiler.lookup.Scope,org.eclipse.jdt.internal.compiler.lookup.TypeBinding,org.eclipse.jdt.internal.compiler.lookup.ArrayBinding"
6140,clique,"org.eclipse.jdt.internal.compiler.lookup.Scope,org.eclipse.jdt.internal.compiler.lookup.TypeBinding,org.eclipse.jdt.internal.compiler.lookup.MethodBinding,org.eclipse.jdt.internal.compiler.lookup.Scope"
6141,clique,"org.apache.catalina.connector.Request,org.apache.catalina.connector.Connector,org.apache.catalina.connector.Response,org.apache.catalina.connector.Request"
6142,clique,"org.apache.tomcat.util.http.fileupload.FileUploadBase$FileItemIteratorImpl$FileItemStreamImpl,org.apache.tomcat.util.http.fileupload.FileUploadBase$FileItemIteratorImpl,org.apache.tomcat.util.http.fileupload.FileUploadBase,org.apache.tomcat.util.http.fileupload.FileUploadBase$FileItemIteratorImpl$FileItemStreamImpl"
6143,clique,"org.apache.tomcat.util.net.AprEndpoint$AprSocketWrapper,org.apache.tomcat.util.net.AprEndpoint$Poller,org.apache.tomcat.util.net.AprEndpoint,org.apache.tomcat.util.net.AprEndpoint$AprSocketWrapper"
6144,clique,"org.apache.jasper.servlet.JspServletWrapper,org.apache.jasper.compiler.JspRuntimeContext,org.apache.jasper.JspCompilationContext,org.apache.jasper.servlet.JspServletWrapper"
6150,star,"org.apache.tomcat.websocket.WsRemoteEndpointImplBase,org.apache.tomcat.websocket.WsRemoteEndpointImplBase$StateUpdateSendHandler,org.apache.tomcat.websocket.WsRemoteEndpointImplBase$EndMessageHandler,org.apache.tomcat.websocket.WsRemoteEndpointImplBase$WsOutputStream,org.apache.tomcat.websocket.WsRemoteEndpointImplBase$OutputBufferSendHandler,org.apache.tomcat.websocket.WsRemoteEndpointImplBase$IntermediateMessageHandler,org.apache.tomcat.websocket.WsRemoteEndpointImplBase$TextMessageSendHandler,org.apache.tomcat.websocket.WsRemoteEndpointImplBase$StateMachine,org.apache.tomcat.websocket.WsRemoteEndpointImplBase$WsWriter"
6151,chain,"org.apache.catalina.session.StandardManager$PrivilegedDoLoad,org.apache.catalina.session.StandardManager,org.apache.catalina.session.StandardManager$PrivilegedDoUnload"
6152,chain,"org.eclipse.jdt.internal.compiler.ast.StringLiteralConcatenation,org.eclipse.jdt.internal.compiler.ast.StringLiteral,org.eclipse.jdt.internal.compiler.ast.ExtendedStringLiteral"
6153,star,"org.apache.jasper.compiler.Generator$GenerateVisitor,org.apache.jasper.compiler.Generator$GenerateVisitor$1ParamVisitor,org.apache.jasper.compiler.Generator,org.apache.jasper.compiler.Generator$GenerateVisitor$2ParamVisitor"
6154,star,"org.apache.tomcat.util.net.Nio2Endpoint$SocketProcessor,org.apache.tomcat.util.net.Nio2Endpoint,org.apache.tomcat.util.net.SecureNio2Channel,org.apache.tomcat.util.net.Nio2Endpoint$Acceptor,org.apache.tomcat.util.net.Nio2Endpoint$1,org.apache.tomcat.util.net.Nio2Endpoint$3,org.apache.tomcat.util.net.Nio2Endpoint$2"
6155,star,"org.apache.catalina.connector.Connector,org.apache.catalina.connector.Response$1,org.apache.catalina.connector.Response$2,org.apache.catalina.connector.Response"
6156,star,"org.apache.el.stream.Stream$2,org.apache.el.stream.Stream$8,org.apache.el.stream.Stream$3,org.apache.el.stream.Stream$4,org.apache.el.stream.Stream$5,org.apache.el.stream.Stream$6,org.apache.el.stream.Stream$7,org.apache.el.stream.Stream$1,org.apache.el.stream.Stream"
6157,star,"org.apache.catalina.connector.Request$8,org.apache.catalina.connector.Request$5,org.apache.catalina.connector.RequestFacade,org.apache.catalina.connector.Request$6,org.apache.catalina.connector.Request$9,org.apache.catalina.connector.Request$7,org.apache.catalina.connector.CometEventImpl,org.apache.catalina.connector.Request,org.apache.catalina.connector.Connector,org.apache.catalina.core.AsyncContextImpl,org.apache.catalina.connector.Request$2,org.apache.catalina.connector.Request$3"
6158,star,"org.apache.jasper.compiler.Generator$GenerateVisitor,org.apache.jasper.compiler.Generator$FragmentHelperClass,org.apache.jasper.compiler.Generator$1DeclarationVisitor,org.apache.jasper.compiler.Generator,org.apache.jasper.compiler.Generator$1ScriptingVarVisitor,org.apache.jasper.compiler.Compiler"
6159,chain,"org.apache.catalina.core.ApplicationFilterChain$1,org.apache.catalina.core.ApplicationFilterChain,org.apache.catalina.core.ApplicationFilterChain$2"
6160,chain,"org.eclipse.jdt.internal.compiler.parser.RecoveredBlock,org.eclipse.jdt.internal.compiler.parser.RecoveredMethod,org.eclipse.jdt.internal.compiler.parser.RecoveredType"
6161,star,"org.apache.tomcat.util.digester.Digester,org.apache.tomcat.util.digester.CallParamRule,org.apache.tomcat.util.digester.FactoryCreateRule,org.apache.tomcat.util.digester.CallMethodRule,org.apache.tomcat.util.digester.ObjectCreateRule,org.apache.tomcat.util.digester.SetPropertiesRule,org.apache.tomcat.util.digester.Digester$SystemPropertySource,org.apache.tomcat.util.digester.SetNextRule"
6162,star,"org.apache.catalina.core.ApplicationDispatcher$PrivilegedDispatch,org.apache.catalina.core.ApplicationDispatcher$PrivilegedForward,org.apache.catalina.core.ApplicationDispatcher$PrivilegedInclude,org.apache.catalina.core.ApplicationDispatcher"
6163,chain,"org.apache.tomcat.websocket.Util$DecoderMatch,org.apache.tomcat.websocket.pojo.PojoMessageHandlerWholeText,org.apache.tomcat.websocket.Util"
6164,chain,"org.apache.tomcat.websocket.server.WsHttpUpgradeHandler$WsReadListener,org.apache.tomcat.websocket.server.WsHttpUpgradeHandler,org.apache.tomcat.websocket.server.WsHttpUpgradeHandler$WsWriteListener"
6165,star,"org.apache.tomcat.util.bcel.classfile.EnumElementValue,org.apache.tomcat.util.bcel.classfile.AnnotationElementValue,org.apache.tomcat.util.bcel.classfile.ArrayElementValue,org.apache.tomcat.util.bcel.classfile.ElementValue,org.apache.tomcat.util.bcel.classfile.SimpleElementValue,org.apache.tomcat.util.bcel.classfile.ClassElementValue"
6166,chain,"org.apache.jasper.compiler.Validator,org.apache.jasper.compiler.Validator$ValidateVisitor,org.apache.jasper.compiler.Compiler"
6167,chain,"org.apache.catalina.authenticator.SingleSignOnEntry,org.apache.catalina.authenticator.SingleSignOn,org.apache.catalina.authenticator.SingleSignOnListener"
6168,chain,"org.apache.tomcat.dbcp.pool2.impl.LinkedBlockingDeque$DescendingItr,org.apache.tomcat.dbcp.pool2.impl.LinkedBlockingDeque,org.apache.tomcat.dbcp.pool2.impl.LinkedBlockingDeque$Itr"
6169,star,"org.apache.juli.ClassLoaderLogManager$Cleaner,org.apache.juli.ClassLoaderLogManager$2,org.apache.juli.ClassLoaderLogManager$LogNode,org.apache.juli.ClassLoaderLogManager"
6170,star,"org.eclipse.jdt.internal.compiler.apt.dispatch.HookedJavaFileObject,org.eclipse.jdt.internal.compiler.apt.dispatch.HookedJavaFileObject$ForwardingOutputStream,org.eclipse.jdt.internal.compiler.apt.dispatch.HookedJavaFileObject$ForwardingWriter,org.eclipse.jdt.internal.compiler.apt.dispatch.BatchFilerImpl"
6171,star,"org.eclipse.jdt.internal.compiler.lookup.ReferenceBinding$2,org.eclipse.jdt.internal.compiler.lookup.ReferenceBinding$3,org.eclipse.jdt.internal.compiler.lookup.ReferenceBinding,org.eclipse.jdt.internal.compiler.lookup.ReferenceBinding$1"
6172,chain,"org.eclipse.jdt.internal.compiler.lookup.BinaryTypeBinding,org.eclipse.jdt.internal.compiler.lookup.WildcardBinding,org.eclipse.jdt.internal.compiler.lookup.ElementValuePair$UnresolvedEnumConstant"
6173,star,"org.eclipse.jdt.internal.compiler.lookup.MethodBinding,org.eclipse.jdt.internal.compiler.lookup.TypeBinding,org.eclipse.jdt.internal.compiler.lookup.BaseTypeBinding,org.eclipse.jdt.internal.compiler.lookup.Scope"
6174,chain,"org.eclipse.jdt.internal.compiler.lookup.FieldBinding,org.eclipse.jdt.internal.compiler.lookup.ArrayBinding,org.eclipse.jdt.internal.compiler.lookup.Scope"
6175,chain,"org.eclipse.jdt.internal.compiler.lookup.TypeVariableBinding,org.eclipse.jdt.internal.compiler.ast.ConditionalExpression,org.eclipse.jdt.internal.compiler.ast.NullAnnotationMatching,org.eclipse.jdt.internal.compiler.lookup.ParameterizedTypeBinding"
6176,star,"org.eclipse.jdt.internal.compiler.lookup.TypeBinding,org.eclipse.jdt.internal.compiler.lookup.ArrayBinding,org.eclipse.jdt.internal.compiler.lookup.Scope,org.eclipse.jdt.internal.compiler.lookup.Scope$2"
6177,chain,"org.eclipse.jdt.internal.compiler.lookup.LocalVariableBinding,org.eclipse.jdt.internal.compiler.lookup.BlockScope,org.eclipse.jdt.internal.compiler.lookup.MethodScope,org.eclipse.jdt.internal.compiler.ast.FakedTrackingVariable$IteratorForReporting"
6178,chain,"org.eclipse.jdt.internal.compiler.ast.CompilationUnitDeclaration,org.eclipse.jdt.internal.compiler.lookup.SourceTypeBinding,org.eclipse.jdt.internal.compiler.lookup.NestedTypeBinding"
6179,chain,"org.eclipse.jdt.internal.compiler.batch.FileSystem,org.eclipse.jdt.internal.compiler.util.Util,org.eclipse.jdt.internal.compiler.batch.Main"
6180,star,"org.apache.tomcat.util.net.AprEndpoint,org.apache.tomcat.util.net.AprEndpoint$SocketWithOptionsProcessor,org.apache.tomcat.util.net.AprEndpoint$Acceptor,org.apache.tomcat.util.net.AprEndpoint$SocketProcessor,org.apache.tomcat.util.net.AprEndpoint$Sendfile,org.apache.tomcat.util.net.AprEndpoint$Poller"
6181,star,"org.apache.tomcat.jdbc.pool.PoolProperties,org.apache.tomcat.jdbc.pool.PoolProperties$InterceptorDefinition,org.apache.tomcat.jdbc.pool.PoolProperties$InterceptorProperty,org.apache.tomcat.jdbc.pool.DataSourceProxy"
6182,star,"org.apache.tomcat.util.net.NioEndpoint$Poller,org.apache.tomcat.util.net.NioEndpoint,org.apache.tomcat.util.net.NioEndpoint$Acceptor,org.apache.tomcat.util.net.NioEndpoint$SocketProcessor"
6183,chain,"org.apache.jasper.compiler.Node$NamedAttribute,org.apache.jasper.compiler.Node$Comment,org.apache.jasper.compiler.Node"
6184,star,"org.apache.jasper.runtime.JspFactoryImpl$PrivilegedGetPageContext,org.apache.jasper.runtime.JspFactoryImpl$PrivilegedReleasePageContext,org.apache.jasper.runtime.JspFactoryImpl$PageContextPool,org.apache.jasper.runtime.JspFactoryImpl"
6185,star,"org.apache.jasper.runtime.PageContextImpl$5,org.apache.jasper.runtime.PageContextImpl$10,org.apache.jasper.runtime.PageContextImpl$6,org.apache.jasper.runtime.JspRuntimeLibrary,org.apache.jasper.runtime.PageContextImpl$12,org.apache.jasper.runtime.PageContextImpl$7,org.apache.jasper.runtime.PageContextImpl$8,org.apache.jasper.runtime.PageContextImpl,org.apache.jasper.runtime.PageContextImpl$9,org.apache.jasper.runtime.PageContextImpl$1,org.apache.jasper.runtime.PageContextImpl$11,org.apache.jasper.runtime.PageContextImpl$2,org.apache.jasper.runtime.PageContextImpl$3,org.apache.jasper.runtime.PageContextImpl$4"
6186,chain,"org.apache.catalina.tribes.group.interceptors.StaticMembershipInterceptor$1,org.apache.catalina.tribes.group.interceptors.TcpPingInterceptor,org.apache.catalina.tribes.group.interceptors.StaticMembershipInterceptor,org.apache.catalina.tribes.group.interceptors.TcpPingInterceptor$PingThread"
6187,chain,"org.apache.catalina.tribes.io.ChannelData,org.apache.catalina.tribes.io.BufferPool,org.apache.catalina.tribes.io.XByteBuffer"
6188,chain,"org.apache.tomcat.util.net.AprEndpoint,org.apache.tomcat.util.net.AprEndpoint$Poller,org.apache.tomcat.util.net.AprEndpoint$AprSocketWrapper"
6189,star,"org.eclipse.jdt.internal.compiler.ast.ExpressionContext$1,org.eclipse.jdt.internal.compiler.ast.ExpressionContext$2,org.eclipse.jdt.internal.compiler.ast.ExpressionContext$3,org.eclipse.jdt.internal.compiler.ast.ExpressionContext$4,org.eclipse.jdt.internal.compiler.ast.ExpressionContext"
6190,chain,"org.apache.tomcat.jdbc.pool.interceptor.AbstractQueryReport$StatementProxy,org.apache.tomcat.jdbc.pool.interceptor.SlowQueryReport,org.apache.tomcat.jdbc.pool.interceptor.AbstractQueryReport"
6191,chain,"org.apache.tomcat.jdbc.pool.interceptor.ConnectionState,org.apache.tomcat.jdbc.pool.ConnectionPool,org.apache.tomcat.jdbc.pool.PooledConnection"
6192,chain,"org.apache.coyote.RequestInfo,org.apache.coyote.Request,org.apache.coyote.RequestGroupInfo"
6193,star,"org.apache.catalina.connector.CoyoteAdapter,org.apache.catalina.connector.Request,org.apache.catalina.connector.Connector,org.apache.catalina.connector.Response"
6194,chain,"org.apache.catalina.connector.Request,org.apache.catalina.core.AsyncContextImpl,org.apache.catalina.core.AsyncContextImpl$1"
6195,star,"javax.servlet.jsp.el.ImplicitObjectELResolver$ScopeManager$10,javax.servlet.jsp.el.ImplicitObjectELResolver$ScopeManager$1,javax.servlet.jsp.el.ImplicitObjectELResolver$ScopeManager$2,javax.servlet.jsp.el.ImplicitObjectELResolver$ScopeManager,javax.servlet.jsp.el.ImplicitObjectELResolver$ScopeManager$3,javax.servlet.jsp.el.ImplicitObjectELResolver$ScopeManager$4,javax.servlet.jsp.el.ImplicitObjectELResolver$ScopeManager$5,javax.servlet.jsp.el.ImplicitObjectELResolver$ScopeManager$6,javax.servlet.jsp.el.ImplicitObjectELResolver$ScopeManager$7,javax.servlet.jsp.el.ImplicitObjectELResolver$ScopeManager$8,javax.servlet.jsp.el.ImplicitObjectELResolver$ScopeManager$9"
6196,chain,"org.apache.coyote.http11.InternalNio2InputBuffer$1,org.apache.coyote.http11.InternalNio2InputBuffer$SocketInputBuffer,org.apache.coyote.http11.InternalNio2InputBuffer"
6197,chain,"org.apache.catalina.startup.Bootstrap,org.apache.catalina.startup.CatalinaProperties,org.apache.catalina.startup.ClassLoaderFactory"
6198,chain,"org.apache.catalina.tribes.group.interceptors.MessageDispatchInterceptor,org.apache.catalina.tribes.group.GroupChannel$HeartbeatThread,org.apache.catalina.tribes.group.GroupChannel,org.apache.catalina.tribes.group.interceptors.MessageDispatchInterceptor$1"
6199,chain,"org.apache.catalina.filters.RestCsrfPreventionFilter,org.apache.catalina.filters.RestCsrfPreventionFilter$FetchRequest,org.apache.catalina.filters.RestCsrfPreventionFilter$StateChangingRequest"
6200,star,"org.apache.catalina.valves.ExtendedAccessLogValve$ResponseHeaderElement,org.apache.catalina.valves.ExtendedAccessLogValve$SessionAttributeElement,org.apache.catalina.valves.ExtendedAccessLogValve$CookieElement,org.apache.catalina.valves.ExtendedAccessLogValve$4,org.apache.catalina.valves.ExtendedAccessLogValve$7,org.apache.catalina.valves.ExtendedAccessLogValve$8,org.apache.catalina.valves.ExtendedAccessLogValve$RequestHeaderElement,org.apache.catalina.valves.ExtendedAccessLogValve,org.apache.catalina.valves.ExtendedAccessLogValve$5,org.apache.catalina.valves.ExtendedAccessLogValve$12,org.apache.catalina.valves.ExtendedAccessLogValve$6,org.apache.catalina.valves.ExtendedAccessLogValve$ServletContextElement,org.apache.catalina.valves.ExtendedAccessLogValve$10,org.apache.catalina.valves.ExtendedAccessLogValve$11,org.apache.catalina.valves.ExtendedAccessLogValve$14,org.apache.catalina.valves.ExtendedAccessLogValve$ResponseAllHeaderElement,org.apache.catalina.valves.ExtendedAccessLogValve$9,org.apache.catalina.valves.ExtendedAccessLogValve$RequestParameterElement,org.apache.catalina.valves.ExtendedAccessLogValve$RequestAttributeElement"
6201,chain,"org.eclipse.jdt.internal.compiler.util.HashtableOfPackage,org.eclipse.jdt.internal.compiler.lookup.UnresolvedReferenceBinding,org.eclipse.jdt.internal.compiler.lookup.PackageBinding"
6202,star,"org.apache.catalina.tribes.membership.McastServiceImpl,org.apache.catalina.tribes.membership.McastService,org.apache.catalina.tribes.membership.McastServiceImpl$ReceiverThread,org.apache.catalina.tribes.membership.McastServiceImpl$SenderThread,org.apache.catalina.tribes.membership.McastServiceImpl$3"
6203,star,"org.apache.el.lang.ELArithmetic,org.apache.el.lang.ELArithmetic$BigIntegerDelegate,org.apache.el.lang.ELArithmetic$DoubleDelegate,org.apache.el.lang.ELArithmetic$LongDelegate,org.apache.el.lang.ELArithmetic$BigDecimalDelegate"
6204,chain,"org.apache.catalina.ha.session.DeltaSession,org.apache.catalina.ha.session.DeltaRequest,org.apache.catalina.ha.session.DeltaManager"
6205,chain,"org.apache.catalina.filters.ExpiresFilter$XPrintWriter,org.apache.catalina.filters.ExpiresFilter$XServletOutputStream,org.apache.catalina.filters.ExpiresFilter$XHttpServletResponse"
6206,star,"org.eclipse.jdt.internal.compiler.parser.RecoveredElement,org.eclipse.jdt.internal.compiler.parser.RecoveredInitializer,org.eclipse.jdt.internal.compiler.parser.RecoveredField,org.eclipse.jdt.internal.compiler.parser.RecoveredType,org.eclipse.jdt.internal.compiler.parser.RecoveredMethod"
6207,star,"org.apache.catalina.tribes.transport.nio.NioReplicationTask$1,org.apache.catalina.tribes.transport.nio.NioReplicationTask$2,org.apache.catalina.tribes.transport.nio.NioReceiver,org.apache.catalina.tribes.transport.nio.NioReplicationTask"
6208,star,"org.apache.catalina.valves.AbstractAccessLogValve$1,org.apache.catalina.valves.AbstractAccessLogValve,org.apache.catalina.valves.AbstractAccessLogValve$PortElement,org.apache.catalina.valves.AbstractAccessLogValve$DateAndTimeElement"
6209,star,"org.apache.tomcat.websocket.AsyncChannelWrapperSecure$ReadTask,org.apache.tomcat.websocket.AsyncChannelWrapperSecure$LongToIntegerFuture,org.apache.tomcat.websocket.AsyncChannelWrapperSecure$WebSocketSslHandshakeThread,org.apache.tomcat.websocket.AsyncChannelWrapperSecure$WriteTask,org.apache.tomcat.websocket.AsyncChannelWrapperSecure"
6210,star,"org.apache.coyote.http11.InternalNio2OutputBuffer$SocketOutputBuffer,org.apache.coyote.http11.InternalNio2OutputBuffer$1,org.apache.coyote.http11.InternalNio2OutputBuffer$2,org.apache.coyote.http11.InternalNio2OutputBuffer"
6211,chain,"org.apache.catalina.startup.Tomcat,org.apache.catalina.startup.Tomcat$DefaultWebXmlListener,org.apache.catalina.startup.Tomcat$1"
6212,star,"org.apache.tomcat.util.net.SecureNio2Channel$FutureRead,org.apache.tomcat.util.net.SecureNio2Channel$FutureWrite,org.apache.tomcat.util.net.Nio2Endpoint,org.apache.tomcat.util.net.SecureNio2Channel,org.apache.tomcat.util.net.SecureNio2Channel$3,org.apache.tomcat.util.net.SecureNio2Channel$4,org.apache.tomcat.util.net.SecureNio2Channel$GatherCompletionHandler"
6213,star,"javax.el.ExpressionFactory,javax.el.Util,javax.el.ExpressionFactory$2,javax.el.ExpressionFactory$3"
6214,chain,"org.apache.jasper.servlet.TldScanner,org.apache.jasper.servlet.TldScanner$TldScannerCallback$1,org.apache.jasper.servlet.TldScanner$TldScannerCallback"
6215,star,"org.eclipse.jdt.internal.compiler.parser.JavadocParser,org.eclipse.jdt.internal.compiler.parser.Parser$1MethodVisitor,org.eclipse.jdt.internal.compiler.parser.Parser,org.eclipse.jdt.internal.compiler.ast.ReferenceExpression,org.eclipse.jdt.internal.compiler.parser.diagnose.DiagnoseParser"
6216,star,"org.apache.tomcat.util.net.NioBlockingSelector$BlockPoller,org.apache.tomcat.util.net.NioBlockingSelector$BlockPoller$2,org.apache.tomcat.util.net.NioBlockingSelector$BlockPoller$3,org.apache.tomcat.util.net.NioBlockingSelector"
6217,chain,"org.apache.tomcat.util.net.NioBlockingSelector$KeyReference,org.apache.tomcat.util.net.NioBlockingSelector$BlockPoller,org.apache.tomcat.util.net.NioBlockingSelector"
6218,chain,"org.apache.catalina.core.StandardWrapperValve,org.apache.catalina.core.StandardContext,org.apache.catalina.core.StandardContext$2,org.apache.catalina.core.StandardWrapper"
6219,chain,"org.apache.jasper.compiler.JDTCompiler$2,org.apache.jasper.compiler.JDTCompiler,org.apache.jasper.compiler.JDTCompiler$1"
6220,chain,"org.apache.tomcat.util.net.JIoEndpoint,org.apache.tomcat.util.net.JIoEndpoint$Acceptor,org.apache.tomcat.util.net.JIoEndpoint$SocketProcessor"
6221,chain,"org.apache.tomcat.dbcp.dbcp2.DelegatingResultSet,org.apache.tomcat.dbcp.dbcp2.DelegatingStatement,org.apache.tomcat.dbcp.dbcp2.DelegatingConnection"
6222,star,"org.apache.tomcat.dbcp.dbcp2.DelegatingStatement,org.apache.tomcat.dbcp.dbcp2.DelegatingPreparedStatement,org.apache.tomcat.dbcp.dbcp2.DelegatingConnection,org.apache.tomcat.dbcp.dbcp2.DelegatingDatabaseMetaData"
6223,chain,"org.eclipse.jdt.internal.compiler.ast.FieldReference,org.eclipse.jdt.internal.compiler.ast.QualifiedNameReference,org.eclipse.jdt.internal.compiler.ast.SingleNameReference"
6224,chain,"org.apache.catalina.ha.backend.HeartbeatListener,org.apache.catalina.ha.backend.MultiCastSender,org.apache.catalina.ha.backend.TcpSender"
6226,chain,"org.eclipse.jdt.internal.compiler.ast.ArrayTypeReference,org.eclipse.jdt.internal.compiler.ast.ArrayQualifiedTypeReference,org.eclipse.jdt.internal.compiler.ast.TypeReference,org.eclipse.jdt.internal.compiler.ast.SingleTypeReference,org.eclipse.jdt.internal.compiler.ast.QualifiedTypeReference"
6227,star,"org.eclipse.jdt.internal.compiler.lookup.InferenceContext18,org.eclipse.jdt.internal.compiler.lookup.BoundSet,org.eclipse.jdt.internal.compiler.lookup.ConstraintExpressionFormula,org.eclipse.jdt.internal.compiler.lookup.ParameterizedGenericMethodBinding"
6228,chain,"org.eclipse.jdt.internal.compiler.lookup.CaptureBinding,org.eclipse.jdt.internal.compiler.lookup.AnnotatableTypeSystem,org.eclipse.jdt.internal.compiler.lookup.TypeSystem,org.eclipse.jdt.internal.compiler.lookup.TypeSystem$HashedParameterizedTypes"
6229,star,"org.eclipse.jdt.internal.compiler.ast.Statement,org.eclipse.jdt.internal.compiler.ast.Expression,org.eclipse.jdt.internal.compiler.ast.Statement$1,org.eclipse.jdt.internal.compiler.ast.Statement$2"
6230,chain,"org.eclipse.jdt.internal.compiler.flow.UnconditionalFlowInfo,org.eclipse.jdt.internal.compiler.flow.ConditionalFlowInfo,org.eclipse.jdt.internal.compiler.flow.FlowInfo"
6231,star,"org.eclipse.jdt.internal.compiler.ast.LambdaExpression,org.eclipse.jdt.internal.compiler.codegen.ExceptionLabel,org.eclipse.jdt.internal.compiler.codegen.BranchLabel,org.eclipse.jdt.internal.compiler.codegen.CaseLabel,org.eclipse.jdt.internal.compiler.codegen.CodeStream"
6232,chain,"org.eclipse.jdt.internal.compiler.lookup.InferenceContext18,org.eclipse.jdt.internal.compiler.lookup.ParameterizedGenericMethodBinding,org.eclipse.jdt.internal.compiler.lookup.PolyParameterizedGenericMethodBinding"
6233,star,"org.apache.jasper.servlet.JspServletWrapper,org.apache.jasper.compiler.Collector,org.apache.jasper.compiler.Generator,org.apache.jasper.compiler.Validator,org.apache.jasper.compiler.Compiler,org.apache.jasper.compiler.ParserController"
6234,star,"org.apache.tomcat.jdbc.pool.ConnectionPool$PrivilegedNewTimer,org.apache.tomcat.jdbc.pool.ConnectionPool,org.apache.tomcat.jdbc.pool.ConnectionPool$ConnectionFuture,org.apache.tomcat.jdbc.pool.ProxyConnection,org.apache.tomcat.jdbc.pool.ConnectionPool$PoolCleaner,org.apache.tomcat.jdbc.pool.PooledConnection"
6235,star,"org.apache.tomcat.util.net.NioEndpoint$Poller,org.apache.tomcat.util.net.NioEndpoint,org.apache.tomcat.util.net.NioEndpoint$PollerEvent,org.apache.tomcat.util.net.NioChannel"
6236,star,"org.eclipse.jdt.internal.compiler.util.Util,org.eclipse.jdt.internal.compiler.batch.BatchCompilerRequestor,org.eclipse.jdt.internal.compiler.batch.Main$Logger,org.eclipse.jdt.internal.compiler.batch.Main,org.eclipse.jdt.internal.compiler.batch.Main$3"
6237,star,"org.eclipse.jdt.internal.compiler.ast.FunctionalExpression,org.eclipse.jdt.internal.compiler.ast.LambdaExpression,org.eclipse.jdt.internal.compiler.ast.LambdaExpression$1LambdaTypeBinding,org.eclipse.jdt.internal.compiler.codegen.CodeStream"
6238,star,"org.eclipse.jdt.internal.compiler.impl.FloatConstant,org.eclipse.jdt.internal.compiler.impl.LongConstant,org.eclipse.jdt.internal.compiler.impl.DoubleConstant,org.eclipse.jdt.internal.compiler.impl.IntConstant,org.eclipse.jdt.internal.compiler.impl.BooleanConstant,org.eclipse.jdt.internal.compiler.impl.CharConstant,org.eclipse.jdt.internal.compiler.impl.ByteConstant,org.eclipse.jdt.internal.compiler.impl.Constant,org.eclipse.jdt.internal.compiler.impl.ShortConstant,org.eclipse.jdt.internal.compiler.impl.StringConstant"
6239,star,"org.apache.catalina.startup.HostConfig$DeployDirectory,org.apache.catalina.startup.HostConfig$DeployDescriptor,org.apache.catalina.startup.HostConfig,org.apache.catalina.startup.HostConfig$DeployWar"
6240,chain,"javax.el.Util$ConstructorWrapper,javax.el.Util$MethodWrapper,javax.el.Util$Wrapper"
6241,star,"org.apache.tomcat.util.bcel.classfile.ConstantUtf8,org.apache.tomcat.util.bcel.classfile.ConstantInteger,org.apache.tomcat.util.bcel.classfile.ConstantFloat,org.apache.tomcat.util.bcel.classfile.ConstantLong,org.apache.tomcat.util.bcel.classfile.ConstantDouble,org.apache.tomcat.util.bcel.classfile.ConstantClass,org.apache.tomcat.util.bcel.classfile.Constant"
6242,chain,"org.apache.tomcat.util.buf.ByteChunk,org.apache.tomcat.util.buf.CharChunk,org.apache.tomcat.util.buf.StringCache"
6243,chain,"org.apache.el.ValueExpressionImpl,org.apache.el.MethodExpressionImpl,org.apache.el.lang.ExpressionBuilder"
6244,star,"org.apache.jasper.compiler.Validator$ValidateVisitor$1MapperELVisitor,org.apache.jasper.compiler.Validator,org.apache.jasper.compiler.Validator$ValidateVisitor$1FVVisitor,org.apache.jasper.compiler.Validator$ValidateVisitor"
6245,star,"org.apache.catalina.users.MemoryGroup,org.apache.catalina.users.MemoryGroupCreationFactory,org.apache.catalina.users.MemoryUserCreationFactory,org.apache.catalina.users.MemoryRoleCreationFactory,org.apache.catalina.users.MemoryUserDatabase"
6246,chain,"org.apache.tomcat.websocket.WsWebSocketContainer,org.apache.tomcat.websocket.FutureToSendHandler,org.apache.tomcat.websocket.WsSession"
6247,chain,"org.apache.tomcat.websocket.WsFrameBase$UnmaskTransformation,org.apache.tomcat.websocket.WsFrameBase$NoopTransformation,org.apache.tomcat.websocket.WsFrameBase"
6248,chain,"org.apache.catalina.core.ContainerBase,org.apache.catalina.core.ContainerBase$ContainerBackgroundProcessor,org.apache.catalina.core.ContainerBase$PrivilegedAddChild"
6249,chain,"org.apache.jasper.servlet.JspServletWrapper,org.apache.jasper.JspCompilationContext,org.apache.jasper.compiler.JspRuntimeContext,org.apache.jasper.compiler.Compiler"
6250,star,"org.apache.jasper.compiler.Parser,org.apache.jasper.compiler.ParserController,org.apache.jasper.compiler.Compiler,org.apache.jasper.compiler.JspDocumentParser"
6251,chain,"org.apache.catalina.servlets.CGIServlet$CGIRunner,org.apache.catalina.servlets.CGIServlet,org.apache.catalina.servlets.CGIServlet$CGIEnvironment,org.apache.catalina.servlets.CGIServlet$CGIRunner$1"
6252,chain,"org.apache.catalina.webresources.CachedResource,org.apache.catalina.webresources.Cache,org.apache.catalina.webresources.StandardRoot"
6253,chain,"org.eclipse.jdt.internal.compiler.apt.model.TypesImpl,org.eclipse.jdt.internal.compiler.apt.dispatch.BaseProcessingEnvImpl,org.eclipse.jdt.internal.compiler.apt.model.ElementsImpl"
6254,star,"org.eclipse.jdt.internal.compiler.apt.model.TypeParameterElementImpl,org.eclipse.jdt.internal.compiler.apt.model.AnnotationMirrorImpl,org.eclipse.jdt.internal.compiler.apt.model.ErrorTypeElement,org.eclipse.jdt.internal.compiler.apt.model.Factory,org.eclipse.jdt.internal.compiler.apt.model.PackageElementImpl,org.eclipse.jdt.internal.compiler.apt.model.WildcardTypeImpl,org.eclipse.jdt.internal.compiler.apt.model.ExecutableTypeImpl,org.eclipse.jdt.internal.compiler.apt.model.DeclaredTypeImpl,org.eclipse.jdt.internal.compiler.apt.model.ArrayTypeImpl,org.eclipse.jdt.internal.compiler.apt.model.TypeVariableImpl,org.eclipse.jdt.internal.compiler.apt.model.ErrorTypeImpl"
6255,chain,"org.apache.tomcat.util.http.fileupload.FileUploadBase$FileItemIteratorImpl,org.apache.tomcat.util.http.fileupload.FileUploadBase$FileItemIteratorImpl$FileItemStreamImpl,org.apache.tomcat.util.http.fileupload.FileUploadBase$FileItemIteratorImpl$FileItemStreamImpl$1,org.apache.tomcat.util.http.fileupload.FileUploadBase"
6256,chain,"org.apache.tomcat.util.http.NamesEnumerator,org.apache.tomcat.util.http.ValuesEnumerator,org.apache.tomcat.util.http.MimeHeaders"
6257,chain,"org.eclipse.jdt.internal.compiler.parser.Scanner$VanguardScanner,org.eclipse.jdt.internal.compiler.parser.Scanner$VanguardParser,org.eclipse.jdt.internal.compiler.parser.Scanner"
6258,chain,"org.eclipse.jdt.internal.compiler.tool.EclipseCompilerImpl$3$1,org.eclipse.jdt.internal.compiler.tool.EclipseCompilerImpl$3$2,org.eclipse.jdt.internal.compiler.tool.EclipseCompilerImpl$3"
