Package,CA,CE,RMI,RMA,RMD
org.apache.tomcat.util.modeler,33.0,3.0,0.08333333333333333,0.0625,0.28125
org.apache.catalina.mbeans,14.0,61.0,0.8133333333333334,0.0,0.1333333333333333
org.apache.catalina.deploy,40.0,27.0,0.40298507462686567,0.03333333333333333,0.39219858156028364
org.eclipse.jdt.internal.compiler.lookup,156.0,71.0,0.31277533039647576,0.14655172413793102,0.46521298174442194
javax.servlet.jsp.tagext,28.0,1.0,0.034482758620689655,0.5384615384615384,0.17948717948717952
org.apache.naming,19.0,2.0,0.09523809523809523,0.0,0.296875
org.apache.catalina,170.0,1.0,0.005847953216374269,0.8048780487804879,0.12918788528544622
org.apache.catalina.valves,13.0,47.0,0.7833333333333333,0.037037037037037035,0.07503192848020435
org.apache.catalina.connector,85.0,84.0,0.4970414201183432,0.018867924528301886,0.35723827016196363
org.apache.tomcat.util,108.0,3.0,0.02702702702702703,0.2222222222222222,0.38794726930320156
org.apache.coyote,74.0,21.0,0.22105263157894736,0.47619047619047616,0.14565826330532217
org.apache.catalina.util,64.0,25.0,0.2808988764044944,0.08108108108108109,0.28673501087294184
org.apache.tomcat.util.res,239.0,0.0,0.0,0.0,0.9484126984126984
org.apache.juli.logging,336.0,0.0,0.0,0.25,0.7127507163323783
org.eclipse.jdt.internal.compiler.flow,52.0,26.0,0.3333333333333333,0.14285714285714285,0.4761904761904763
org.eclipse.jdt.internal.compiler.ast,62.0,99.0,0.6149068322981367,0.13380281690140844,0.19251297257227584
org.apache.tomcat.util.digester,55.0,5.0,0.08333333333333333,0.21428571428571427,0.2997329773030708
org.apache.catalina.realm,9.0,37.0,0.8043478260869565,0.09090909090909091,0.02167832167832162
org.eclipse.jdt.internal.compiler,127.0,77.0,0.37745098039215685,0.1875,0.3599137931034483
org.eclipse.jdt.internal.compiler.parser,15.0,115.0,0.8846153846153846,0.21875,0.125
org.apache.jasper.compiler,17.0,67.0,0.7976190476190477,0.05228758169934641,0.03671765390274784
org.apache.catalina.core,22.0,192.0,0.897196261682243,0.014084507042253521,0.0510042503541962
javax.servlet,128.0,5.0,0.03759398496240601,0.6428571428571429,0.18294930875576032
org.apache.tomcat.util.http.fileupload,8.0,5.0,0.38461538461538464,0.3170731707317073,0.14686040477426054
org.apache.catalina.filters,0.0,22.0,1.0,0.09523809523809523,0.09523809523809534
org.apache.naming.resources,10.0,13.0,0.5652173913043478,0.04,0.07627906976744181
org.apache.tomcat.util.bcel.classfile,2.0,1.0,0.3333333333333333,0.09523809523809523,0.022408963585434205
org.apache.tomcat.util.security,17.0,0.0,0.0,0.0,0.6071428571428572
org.apache.tomcat.util.http,35.0,10.0,0.2222222222222222,0.0,0.44303797468354433
org.apache.tomcat.dbcp.pool.impl,5.0,9.0,0.6428571428571429,0.0,0.09090909090909094
org.apache.catalina.startup,8.0,96.0,0.9230769230769231,0.0125,0.028737113402061865
org.apache.juli,2.0,0.0,0.0,0.0,0.03508771929824561
org.eclipse.jdt.internal.compiler.apt.dispatch,19.0,37.0,0.6607142857142857,0.1875,6.188118811880639E-4
org.eclipse.jdt.internal.compiler.batch,10.0,33.0,0.7674418604651163,0.15789473684210525,0.048004626951995366
org.eclipse.jdt.internal.compiler.classfmt,12.0,23.0,0.6571428571428571,0.09523809523809523,0.11528822055137844
org.eclipse.jdt.core.compiler,138.0,1.0,0.007194244604316547,0.6,0.3452054794520548
org.eclipse.jdt.internal.compiler.env,40.0,1.0,0.024390243902439025,0.7391304347826086,0.1699604743083004
org.eclipse.jdt.internal.compiler.problem,134.0,83.0,0.3824884792626728,0.1,0.47264957264957264
org.eclipse.jdt.internal.compiler.util,69.0,11.0,0.1375,0.07407407407407407,0.48690153568202343
javax.websocket,43.0,0.0,0.0,0.7333333333333333,0.021052631578947434
org.apache.tomcat.util.net,48.0,24.0,0.3333333333333333,0.2,0.1404255319148937
org.apache.coyote.ajp,1.0,39.0,0.975,0.15,0.1350746268656715
org.apache.catalina.loader,4.0,24.0,0.8571428571428571,0.13333333333333333,0.09523809523809534
org.apache.tomcat.jdbc.pool,9.0,5.0,0.35714285714285715,0.1111111111111111,0.01637426900584793
org.apache.tomcat.dbcp.pool,21.0,0.0,0.0,0.37037037037037035,0.16809116809116809
org.apache.catalina.session,6.0,37.0,0.8604651162790697,0.14285714285714285,0.08516483516483508
org.apache.catalina.ha.session,3.0,38.0,0.926829268292683,0.2,0.16385542168674694
org.apache.catalina.ha,17.0,10.0,0.37037037037037035,0.7777777777777778,0.1915708812260537
org.apache.catalina.tribes.io,33.0,5.0,0.13157894736842105,0.2222222222222222,0.2703150912106136
org.apache.catalina.ha.tcp,2.0,41.0,0.9534883720930233,0.0,0.032258064516129004
org.apache.jasper.util,14.0,1.0,0.06666666666666667,0.0,0.4375
org.apache.tomcat.jdbc.pool.interceptor,1.0,9.0,0.9,0.16666666666666666,0.14912280701754388
org.apache.catalina.manager.util,11.0,3.0,0.21428571428571427,0.5,0.07692307692307687
org.apache.catalina.tribes.group,17.0,29.0,0.6304347826086957,0.17647058823529413,0.07726075504828789
org.apache.catalina.tribes.group.interceptors,2.0,25.0,0.9259259259259259,0.0,0.032786885245901676
org.apache.catalina.tribes,49.0,1.0,0.02,0.7,0.1166666666666667
org.apache.catalina.tribes.membership,10.0,14.0,0.5833333333333334,0.0,0.16393442622950816
org.apache.tomcat.dbcp.jocl,1.0,0.0,0.0,0.0,0.03703703703703709
org.apache.tomcat.util.buf,75.0,3.0,0.038461538461538464,0.17391304347826086,0.4898037706810312
org.apache.tomcat.util.http.mapper,7.0,6.0,0.46153846153846156,0.1111111111111111,0.13026819923371646
org.apache.catalina.authenticator,5.0,43.0,0.8958333333333334,0.05,0.006818181818181723
org.apache.tomcat.util.threads,4.0,3.0,0.42857142857142855,0.08333333333333333,0.0905797101449275
org.apache.tomcat.websocket.server,0.0,58.0,1.0,0.034482758620689655,0.034482758620689724
javax.el,48.0,0.0,0.0,0.25,0.1747787610619469
org.apache.jasper.el,4.0,25.0,0.8620689655172413,0.0,0.09302325581395354
org.apache.naming.factory,1.0,5.0,0.8333333333333334,0.0,0.017241379310344862
javax.servlet.annotation,7.0,0.0,0.0,0.8181818181818182,0.2797202797202798
org.apache.catalina.ssi,0.0,22.0,1.0,0.14285714285714285,0.1428571428571428
org.eclipse.jdt.internal.compiler.impl,67.0,5.0,0.06944444444444445,0.2,0.5976190476190476
org.apache.el.lang,16.0,19.0,0.5428571428571428,0.07142857142857142,0.16737739872068236
org.apache.el.parser,3.0,17.0,0.85,0.09615384615384616,0.04615384615384621
org.apache.jasper,32.0,17.0,0.3469387755102041,0.16666666666666666,0.1470588235294118
javax.websocket.server,9.0,2.0,0.18181818181818182,0.6666666666666666,0.21666666666666679
org.apache.jasper.runtime,4.0,43.0,0.9148936170212766,0.07692307692307693,0.03436988543371533
javax.servlet.jsp.el,9.0,10.0,0.5263157894736842,0.22727272727272727,0.03743315508021383
org.eclipse.jdt.internal.compiler.codegen,67.0,29.0,0.3020833333333333,0.15384615384615385,0.4139504563233376
javax.servlet.http,99.0,9.0,0.08333333333333333,0.5555555555555556,0.18325041459369817
org.apache.catalina.servlets,0.0,29.0,1.0,0.0,0.0
org.apache.catalina.ha.backend,0.0,6.0,1.0,0.14285714285714285,0.1428571428571428
javax.servlet.descriptor,6.0,0.0,0.0,1.0,0.0
org.apache.tomcat.util.codec,1.0,0.0,0.0,0.6666666666666666,0.16666666666666652
org.apache.coyote.http11.filters,5.0,13.0,0.7222222222222222,0.0,0.16666666666666663
org.apache.tomcat.websocket,14.0,49.0,0.7777777777777778,0.1038961038961039,0.01179084073820924
org.apache.tomcat.util.log,11.0,1.0,0.08333333333333333,0.0,0.55
org.apache.tomcat,22.0,0.0,0.0,1.0,0.0
org.apache.coyote.http11.upgrade,11.0,20.0,0.6451612903225806,0.2631578947368421,0.02911534154535267
javax.servlet.jsp,31.0,2.0,0.06060606060606061,0.6666666666666666,0.19444444444444442
org.apache.coyote.http11,10.0,68.0,0.8717948717948718,0.18421052631578946,0.0980036297640654
org.apache.catalina.manager,0.0,38.0,1.0,0.0,0.0
org.apache.jasper.compiler.tagplugin,16.0,0.0,0.0,1.0,0.0
org.apache.jasper.tagplugins.jstl.core,0.0,4.0,1.0,0.0,0.0
javax.ejb,1.0,0.0,0.0,1.0,0.75
org.apache.tomcat.util.descriptor,5.0,5.0,0.5,0.0,0.1785714285714286
org.apache.jasper.xmlparser,6.0,10.0,0.625,0.0,0.12244897959183676
org.eclipse.jdt.internal.compiler.tool,0.0,23.0,1.0,0.0,0.0
org.apache.tomcat.util.http.fileupload.util.mime,1.0,1.0,0.5,0.25,0.16666666666666652
org.apache.tomcat.util.collections,1.0,0.0,0.0,0.0,0.25
org.apache.tomcat.util.http.parser,3.0,1.0,0.25,0.0,0.1875
javax.annotation,2.0,0.0,0.0,0.8571428571428571,0.5238095238095237
org.apache.tomcat.util.codec.binary,7.0,5.0,0.4166666666666667,0.25,0.030000000000000027
org.apache.tomcat.jni,13.0,0.0,0.0,0.11764705882352941,0.5014005602240896
org.eclipse.jdt.internal.compiler.apt.model,4.0,30.0,0.8823529411764706,0.08333333333333333,0.0452380952380953
org.apache.catalina.ant,1.0,3.0,0.75,0.15,0.11969696969696964
org.apache.el.util,14.0,2.0,0.125,0.0,0.2978723404255319
org.apache.catalina.ha.jmx,0.0,9.0,1.0,0.0,0.0
org.apache.catalina.ha.deploy,1.0,14.0,0.9333333333333333,0.1111111111111111,0.08479532163742687
org.apache.tomcat.dbcp.dbcp.datasources,0.0,7.0,1.0,0.25,0.25
org.apache.tomcat.dbcp.dbcp,6.0,8.0,0.5714285714285714,0.03571428571428571,0.06105990783410142
org.apache.catalina.comet,10.0,2.0,0.16666666666666666,0.6666666666666666,0.10256410256410264
org.apache.catalina.security,16.0,15.0,0.4838709677419355,0.0,0.2962962962962963
org.apache.coyote.http11.upgrade.servlet31,7.0,0.0,0.0,1.0,0.125
org.apache.tomcat.websocket.pojo,4.0,31.0,0.8857142857142857,0.29411764705882354,0.23257918552036205
javax.xml.ws,1.0,0.0,0.0,1.0,0.75
org.eclipse.jdt.core,1.0,4.0,0.8,0.0,0.024390243902439046
org.eclipse.jdt.internal.antadapter,3.0,0.0,0.0,0.0,0.33333333333333337
org.apache.tomcat.dbcp.dbcp.cpdsadapter,0.0,7.0,1.0,0.0,0.0
org.apache.catalina.tribes.util,24.0,8.0,0.25,0.0,0.39344262295081966
org.apache.catalina.ha.context,0.0,11.0,1.0,0.0,0.0
org.apache.tomcat.util.bcel,1.0,0.0,0.0,1.0,0.0
org.apache.catalina.ant.jmx,0.0,1.0,1.0,0.0,0.0
javax.annotation.security,1.0,0.0,0.0,1.0,0.75
org.apache.tomcat.util.net.jsse,2.0,11.0,0.8461538461538461,0.0,0.03448275862068961
org.apache.catalina.tribes.tipis,4.0,16.0,0.8,0.5,0.40909090909090917
org.apache.catalina.tribes.transport,12.0,11.0,0.4782608695652174,0.5384615384615384,0.2593917710196778
org.apache.catalina.tribes.transport.nio,2.0,20.0,0.9090909090909091,0.0,0.036363636363636376
org.apache.tomcat.util.http.fileupload.servlet,1.0,4.0,0.8,0.3333333333333333,0.19047619047619047
org.apache.tomcat.jdbc.pool.jmx,4.0,5.0,0.5555555555555556,0.5,0.30000000000000004
org.apache.catalina.tribes.transport.bio,0.0,18.0,1.0,0.0,0.0
org.eclipse.jdt.internal.compiler.parser.diagnose,1.0,12.0,0.9230769230769231,0.0,0.05882352941176472
org.apache.jasper.tagplugins.jstl,5.0,5.0,0.5,0.0,0.3125
org.apache.tomcat.util.scan,6.0,8.0,0.5714285714285714,0.14285714285714285,0.03896103896103886
org.apache.commons.daemon,4.0,0.0,0.0,0.7142857142857143,0.4065934065934065
org.apache.commons.daemon.support,0.0,4.0,1.0,0.0,0.0
org.apache.el,1.0,12.0,0.9230769230769231,0.0,0.050000000000000044
org.apache.tomcat.util.modeler.modules,1.0,11.0,0.9166666666666666,0.2857142857142857,0.26571428571428557
org.apache.jasper.servlet,5.0,27.0,0.84375,0.0,0.0757575757575758
org.apache.jasper.security,4.0,2.0,0.3333333333333333,0.0,0.4
org.apache.catalina.websocket,0.0,13.0,1.0,0.375,0.375
org.apache.tomcat.util.file,4.0,0.0,0.0,0.0,0.3076923076923077
org.apache.tomcat.util.http.fileupload.util,7.0,2.0,0.2222222222222222,0.6,0.28181818181818175
javax.persistence,1.0,0.0,0.0,0.8333333333333334,0.6333333333333333
org.apache.catalina.tribes.transport.bio.util,2.0,4.0,0.6666666666666666,0.0,0.25
org.apache.tomcat.util.http.fileupload.disk,2.0,8.0,0.8,0.3333333333333333,0.2564102564102564
org.apache.catalina.users,0.0,11.0,1.0,0.25,0.25
org.eclipse.jdt.internal.compiler.apt.util,3.0,9.0,0.75,0.0,0.049180327868852514
org.apache.catalina.ha.util,1.0,0.0,0.0,1.0,0.0
org.apache.naming.resources.jndi,0.0,1.0,1.0,0.0,0.0
org.apache.catalina.manager.host,0.0,21.0,1.0,0.0,0.0
org.apache.tomcat.jdbc.naming,0.0,2.0,1.0,0.0,0.0
org.apache.tomcat.util.compat,5.0,1.0,0.16666666666666666,0.0,0.3125
javax.annotation.sql,0.0,0.0,0.0,1.0,1.0
org.apache.naming.java,0.0,3.0,1.0,0.0,0.0
org.apache.catalina.ha.authenticator,0.0,11.0,1.0,0.0,0.0
org.eclipse.jdt.core.compiler.batch,0.0,1.0,1.0,0.0,0.0
