UnstableDependenciesPackage,InstabilityUnstableDependenciesPackage,CorrelatedPackage,InstabilityCorrelatedPackage
org.apache.tomcat.jdbc.pool,0.90625,org.apache.tomcat.jdbc.pool.interceptor,0.9818181818181818
org.apache.catalina.tribes,0.16129032258064516,org.apache.catalina.tribes.util,0.603448275862069
org.apache.tomcat.util.http.fileupload.util,0.6956521739130435,org.apache.tomcat.util.http.fileupload,0.825
org.apache.catalina.connector,0.6045454545454545,org.apache.tomcat.util.http.fileupload.disk,0.9166666666666666
org.apache.catalina.connector,0.6045454545454545,org.apache.tomcat.util.http.fileupload.servlet,0.8571428571428571
org.apache.catalina.connector,0.6045454545454545,org.apache.catalina.mapper,0.8181818181818182
org.apache.catalina.connector,0.6045454545454545,org.apache.catalina.core,0.9197530864197531
org.apache.catalina.connector,0.6045454545454545,org.apache.catalina.security,0.6875
org.apache.catalina.connector,0.6045454545454545,org.apache.tomcat.util.http.parser,0.8125
org.apache.tomcat.util.descriptor.tld,0.7948717948717948,org.apache.tomcat.util.descriptor,0.8
org.apache.jasper,0.7029702970297029,org.apache.jasper.runtime,0.9473684210526315
org.apache.jasper,0.7029702970297029,org.apache.jasper.servlet,0.9484536082474226
org.apache.jasper,0.7029702970297029,org.apache.jasper.compiler,0.8984771573604061
org.eclipse.jdt.internal.compiler.problem,0.4267241379310345,org.eclipse.jdt.internal.compiler.parser,0.9056603773584906
org.eclipse.jdt.internal.compiler.problem,0.4267241379310345,org.eclipse.jdt.internal.compiler,0.45454545454545453
org.eclipse.jdt.internal.compiler.problem,0.4267241379310345,org.eclipse.jdt.internal.compiler.ast,0.6702702702702703
org.eclipse.jdt.internal.compiler.problem,0.4267241379310345,org.eclipse.jdt.internal.compiler.util,0.4462809917355372
org.eclipse.jdt.internal.compiler.batch,0.8901098901098901,org.eclipse.jdt.internal.compiler.parser,0.9056603773584906
org.eclipse.jdt.internal.compiler.parser,0.9056603773584906,org.eclipse.jdt.internal.compiler.parser.diagnose,0.9411764705882353
javax.servlet.jsp,0.1388888888888889,javax.servlet,0.16770186335403728
org.apache.tomcat.util.http.fileupload,0.825,org.apache.tomcat.util.http.fileupload.util.mime,0.9166666666666666
org.apache.catalina.ha,0.36363636363636365,org.apache.tomcat.util.digester,0.38613861386138615
org.apache.tomcat.util.scan,0.6875,org.apache.tomcat.util.file,0.8
org.apache.catalina.ha.session,0.9493670886075949,org.apache.catalina.ha.tcp,0.9629629629629629
org.apache.catalina.util,0.5637583892617449,org.apache.tomcat.util.modeler,0.6818181818181818
org.apache.catalina.security,0.6875,org.apache.catalina.startup,0.9649122807017544
org.apache.catalina.tribes.transport,0.6818181818181818,org.apache.catalina.tribes.transport.nio,0.9649122807017544
org.apache.tomcat.util.net,0.5988372093023255,org.apache.tomcat.util.threads,0.8461538461538461
org.apache.tomcat.util.net,0.5988372093023255,org.apache.tomcat.util.net.jsse,0.9333333333333333
org.eclipse.jdt.internal.compiler.util,0.4462809917355372,org.eclipse.jdt.internal.compiler.batch,0.8901098901098901
org.eclipse.jdt.internal.compiler.util,0.4462809917355372,org.eclipse.jdt.internal.compiler,0.45454545454545453
org.apache.tomcat.spdy,0.8333333333333334,org.apache.tomcat.jni.socket,0.9019607843137255
org.apache.el,0.9130434782608695,org.apache.el.stream,0.9259259259259259
org.apache.el,0.9130434782608695,org.apache.el.parser,0.9565217391304348
org.apache.tomcat.util.modeler,0.6818181818181818,org.apache.tomcat.util.modeler.modules,0.972972972972973
org.eclipse.jdt.internal.compiler.ast,0.6702702702702703,org.eclipse.jdt.internal.compiler.parser,0.9056603773584906
org.apache.tomcat.jdbc.pool.jmx,0.8,org.apache.tomcat.jdbc.pool,0.90625
org.apache.jasper.compiler,0.8984771573604061,org.apache.jasper.runtime,0.9473684210526315
org.apache.jasper.compiler,0.8984771573604061,org.apache.jasper.xmlparser,0.95
org.apache.jasper.compiler,0.8984771573604061,org.apache.tomcat.util.descriptor.tagplugin,0.9333333333333333
org.apache.jasper.compiler,0.8984771573604061,org.apache.jasper.servlet,0.9484536082474226
org.apache.el.util,0.66,org.apache.el.lang,0.7464788732394366
org.apache.catalina.mbeans,0.9382716049382716,org.apache.catalina.loader,0.9555555555555556
org.apache.catalina.mbeans,0.9382716049382716,org.apache.catalina.realm,0.9391304347826087
org.apache.catalina.mbeans,0.9382716049382716,org.apache.catalina.startup,0.9649122807017544
org.apache.jasper.util,0.5909090909090909,org.apache.jasper.compiler,0.8984771573604061
org.apache.catalina.tribes.util,0.603448275862069,org.apache.catalina.tribes.membership,0.8620689655172413
org.apache.catalina.tribes.util,0.603448275862069,org.apache.catalina.tribes.group,0.7384615384615385
org.apache.tomcat.util.descriptor.web,0.7261904761904762,org.apache.tomcat.util.descriptor,0.8
org.apache.catalina.tribes.io,0.515625,org.apache.catalina.tribes.util,0.603448275862069
org.apache.catalina.tribes.io,0.515625,org.apache.catalina.tribes.membership,0.8620689655172413
org.apache.coyote.http11.filters,0.75,org.apache.coyote.http11,0.9212598425196851
org.apache.tomcat.websocket,0.9057971014492754,org.apache.tomcat.websocket.pojo,0.9365079365079365
org.eclipse.jdt.core.compiler,0.05517241379310345,org.eclipse.jdt.internal.compiler.parser,0.9056603773584906
org.eclipse.jdt.internal.compiler.lookup,0.388,org.eclipse.jdt.internal.compiler.codegen,0.4322033898305085
org.eclipse.jdt.internal.compiler.lookup,0.388,org.eclipse.jdt.internal.compiler.classfmt,0.7857142857142857
org.eclipse.jdt.internal.compiler.lookup,0.388,org.eclipse.jdt.internal.compiler,0.45454545454545453
org.eclipse.jdt.internal.compiler.lookup,0.388,org.eclipse.jdt.internal.compiler.ast,0.6702702702702703
org.eclipse.jdt.internal.compiler.lookup,0.388,org.eclipse.jdt.internal.compiler.util,0.4462809917355372
org.eclipse.jdt.internal.compiler.lookup,0.388,org.eclipse.jdt.internal.compiler.problem,0.4267241379310345
org.apache.catalina.deploy,0.8163265306122449,org.apache.catalina.mbeans,0.9382716049382716
org.eclipse.jdt.internal.compiler.codegen,0.4322033898305085,org.eclipse.jdt.internal.compiler.classfmt,0.7857142857142857
org.eclipse.jdt.internal.compiler.codegen,0.4322033898305085,org.eclipse.jdt.internal.compiler.ast,0.6702702702702703
org.eclipse.jdt.internal.compiler.codegen,0.4322033898305085,org.eclipse.jdt.internal.compiler,0.45454545454545453
org.eclipse.jdt.internal.compiler.codegen,0.4322033898305085,org.eclipse.jdt.internal.compiler.util,0.4462809917355372
org.eclipse.jdt.internal.compiler.impl,0.20238095238095238,org.eclipse.jdt.internal.compiler.lookup,0.388
org.eclipse.jdt.internal.compiler.impl,0.20238095238095238,org.eclipse.jdt.internal.compiler.util,0.4462809917355372
org.eclipse.jdt.internal.compiler.impl,0.20238095238095238,org.eclipse.jdt.internal.compiler.ast,0.6702702702702703
org.eclipse.jdt.internal.compiler.impl,0.20238095238095238,org.eclipse.jdt.internal.compiler.problem,0.4267241379310345
javax.servlet,0.16770186335403728,javax.servlet.annotation,0.42857142857142855
org.apache.catalina.startup,0.9649122807017544,org.apache.catalina.authenticator,0.9726027397260274
org.apache.catalina.startup,0.9649122807017544,org.apache.juli,0.9672131147540983
org.apache.coyote,0.36923076923076925,org.apache.tomcat.util.modeler,0.6818181818181818
org.apache.coyote,0.36923076923076925,org.apache.tomcat.util.net,0.5988372093023255
org.apache.coyote,0.36923076923076925,org.apache.tomcat.util.http,0.5797101449275363
org.apache.coyote,0.36923076923076925,org.apache.tomcat.util.http.parser,0.8125
org.apache.coyote,0.36923076923076925,org.apache.tomcat.util.collections,0.5833333333333334
org.apache.el.lang,0.7464788732394366,org.apache.el,0.9130434782608695
org.apache.el.lang,0.7464788732394366,org.apache.el.parser,0.9565217391304348
org.eclipse.jdt.internal.compiler.flow,0.38095238095238093,org.eclipse.jdt.internal.compiler.codegen,0.4322033898305085
org.eclipse.jdt.internal.compiler.flow,0.38095238095238093,org.eclipse.jdt.internal.compiler.problem,0.4267241379310345
org.eclipse.jdt.internal.compiler.flow,0.38095238095238093,org.eclipse.jdt.internal.compiler.ast,0.6702702702702703
org.eclipse.jdt.internal.compiler.flow,0.38095238095238093,org.eclipse.jdt.internal.compiler.lookup,0.388
org.eclipse.jdt.internal.compiler.apt.dispatch,0.8118811881188119,org.eclipse.jdt.internal.compiler.apt.model,0.9619047619047619
org.eclipse.jdt.internal.compiler.apt.dispatch,0.8118811881188119,org.eclipse.jdt.internal.compiler.apt.util,0.9508196721311475
org.eclipse.jdt.internal.compiler.apt.dispatch,0.8118811881188119,org.eclipse.jdt.internal.compiler.batch,0.8901098901098901
org.apache.catalina.tribes.group,0.7384615384615385,org.apache.catalina.tribes.membership,0.8620689655172413
org.apache.catalina.tribes.group,0.7384615384615385,org.apache.catalina.tribes.transport.nio,0.9649122807017544
org.apache.catalina.tribes.group,0.7384615384615385,org.apache.catalina.tribes.group.interceptors,0.9508196721311475
org.apache.catalina.loader,0.9555555555555556,org.apache.catalina.webresources,0.9705882352941176
org.eclipse.jdt.internal.compiler,0.45454545454545453,org.eclipse.jdt.internal.compiler.classfmt,0.7857142857142857
org.eclipse.jdt.internal.compiler,0.45454545454545453,org.eclipse.jdt.core,0.975609756097561
org.eclipse.jdt.internal.compiler,0.45454545454545453,org.eclipse.jdt.internal.compiler.parser,0.9056603773584906
org.eclipse.jdt.internal.compiler,0.45454545454545453,org.eclipse.jdt.internal.compiler.ast,0.6702702702702703
org.apache.catalina.core,0.9197530864197531,org.apache.naming.factory,0.9814814814814815
org.apache.catalina.core,0.9197530864197531,org.apache.catalina.webresources,0.9705882352941176
org.apache.catalina.core,0.9197530864197531,org.apache.catalina.loader,0.9555555555555556
org.apache.catalina.core,0.9197530864197531,org.apache.catalina.session,0.9292929292929293
org.apache.catalina.core,0.9197530864197531,org.apache.catalina.mbeans,0.9382716049382716
org.apache.catalina.core,0.9197530864197531,org.apache.catalina.startup,0.9649122807017544
org.apache.catalina.core,0.9197530864197531,org.apache.catalina.realm,0.9391304347826087
