UnstableDependenciesPackage,InstabilityUnstableDependenciesPackage,CorrelatedPackage,InstabilityCorrelatedPackage
org.apache.catalina,0.07975460122699386,org.apache.catalina.core,0.8875968992248062
org.apache.catalina,0.07975460122699386,javax.servlet,0.13978494623655913
org.eclipse.jdt.core.compiler,0.05405405405405406,org.eclipse.jdt.internal.compiler.parser,0.912751677852349
org.eclipse.jdt.internal.compiler.lookup,0.3333333333333333,org.eclipse.jdt.internal.compiler.codegen,0.3786407766990291
org.eclipse.jdt.internal.compiler.lookup,0.3333333333333333,org.eclipse.jdt.internal.compiler.util,0.4375
org.eclipse.jdt.internal.compiler.lookup,0.3333333333333333,org.eclipse.jdt.internal.compiler.problem,0.3891891891891892
org.eclipse.jdt.internal.compiler.lookup,0.3333333333333333,org.eclipse.jdt.internal.compiler,0.3804347826086957
org.eclipse.jdt.internal.compiler.lookup,0.3333333333333333,org.eclipse.jdt.internal.compiler.ast,0.6639344262295082
org.eclipse.jdt.internal.compiler.codegen,0.3786407766990291,org.eclipse.jdt.internal.compiler.classfmt,0.8269230769230769
org.eclipse.jdt.internal.compiler.codegen,0.3786407766990291,org.eclipse.jdt.internal.compiler,0.3804347826086957
org.eclipse.jdt.internal.compiler.codegen,0.3786407766990291,org.eclipse.jdt.internal.compiler.util,0.4375
org.eclipse.jdt.internal.compiler.codegen,0.3786407766990291,org.eclipse.jdt.internal.compiler.ast,0.6639344262295082
org.eclipse.jdt.internal.compiler.codegen,0.3786407766990291,org.eclipse.jdt.internal.compiler.problem,0.3891891891891892
org.apache.coyote,0.2345679012345679,org.apache.tomcat.util.http,0.582089552238806
org.apache.coyote,0.2345679012345679,org.apache.tomcat.util.buf,0.3130434782608696
org.eclipse.jdt.internal.compiler.flow,0.31746031746031744,org.eclipse.jdt.internal.compiler.codegen,0.3786407766990291
org.eclipse.jdt.internal.compiler.flow,0.31746031746031744,org.eclipse.jdt.internal.compiler.problem,0.3891891891891892
org.eclipse.jdt.internal.compiler.flow,0.31746031746031744,org.eclipse.jdt.internal.compiler.ast,0.6639344262295082
org.eclipse.jdt.internal.compiler.flow,0.31746031746031744,org.eclipse.jdt.internal.compiler.lookup,0.3333333333333333
org.eclipse.jdt.internal.compiler,0.3804347826086957,org.eclipse.jdt.internal.compiler.parser,0.912751677852349
org.eclipse.jdt.internal.compiler,0.3804347826086957,org.eclipse.jdt.internal.compiler.ast,0.6639344262295082
org.eclipse.jdt.internal.compiler,0.3804347826086957,org.eclipse.jdt.internal.compiler.problem,0.3891891891891892
org.eclipse.jdt.internal.compiler,0.3804347826086957,org.eclipse.jdt.internal.compiler.util,0.4375
org.eclipse.jdt.internal.compiler.impl,0.19736842105263158,org.eclipse.jdt.internal.compiler.util,0.4375
org.eclipse.jdt.internal.compiler.impl,0.19736842105263158,org.eclipse.jdt.internal.compiler.ast,0.6639344262295082
org.eclipse.jdt.internal.compiler.impl,0.19736842105263158,org.eclipse.jdt.internal.compiler.lookup,0.3333333333333333
org.eclipse.jdt.internal.compiler.impl,0.19736842105263158,org.eclipse.jdt.internal.compiler.problem,0.3891891891891892
