IdCycle,CycleType,ElementList
5097,circle,"org.apache.catalina.core.ApplicationDispatcher,org.apache.catalina.core.ApplicationContext,org.apache.catalina.core.StandardWrapperFacade,org.apache.catalina.core.StandardWrapper,org.apache.catalina.core.ApplicationDispatcher"
5098,circle,"org.apache.catalina.realm.MemoryUserRule,org.apache.catalina.realm.MemoryRuleSet,org.apache.catalina.realm.MemoryRealm,org.apache.catalina.realm.MemoryUserRule"
5099,circle,"org.apache.tomcat.util.bcel.classfile.ConstantCP,org.apache.tomcat.util.bcel.classfile.ConstantFieldref,org.apache.tomcat.util.bcel.classfile.Constant,org.apache.tomcat.util.bcel.classfile.ConstantCP"
5100,circle,"org.apache.tomcat.util.bcel.classfile.Annotations,org.apache.tomcat.util.bcel.classfile.RuntimeVisibleAnnotations,org.apache.tomcat.util.bcel.classfile.Attribute,org.apache.tomcat.util.bcel.classfile.Annotations"
5101,circle,"org.apache.tomcat.util.bcel.classfile.ParameterAnnotations,org.apache.tomcat.util.bcel.classfile.RuntimeVisibleParameterAnnotations,org.apache.tomcat.util.bcel.classfile.Attribute,org.apache.tomcat.util.bcel.classfile.ParameterAnnotations"
5102,circle,"org.apache.catalina.startup.TaglibUriRule,org.apache.catalina.startup.TldRuleSet,org.apache.catalina.startup.TldConfig,org.apache.catalina.startup.TaglibUriRule"
5103,circle,"org.apache.catalina.startup.TaglibListenerRule,org.apache.catalina.startup.TldRuleSet,org.apache.catalina.startup.TldConfig,org.apache.catalina.startup.TaglibListenerRule"
5104,circle,"org.eclipse.jdt.internal.compiler.ast.Expression,org.eclipse.jdt.internal.compiler.ast.ASTNode,org.eclipse.jdt.internal.compiler.ast.AbstractMethodDeclaration,org.eclipse.jdt.internal.compiler.ast.Expression"
5105,circle,"org.apache.jasper.compiler.TextOptimizer$TextCatVisitor,org.apache.jasper.compiler.TextOptimizer,org.apache.jasper.compiler.Compiler,org.apache.jasper.compiler.TextOptimizer$TextCatVisitor"
5106,circle,"org.apache.catalina.ssi.ExpressionParseTree$CompareNode,org.apache.catalina.ssi.ExpressionParseTree$EqualNode,org.apache.catalina.ssi.ExpressionParseTree,org.apache.catalina.ssi.ExpressionParseTree$CompareNode"
5107,circle,"org.apache.tomcat.jdbc.pool.DataSourceProxy,org.apache.tomcat.jdbc.pool.DataSource,org.apache.tomcat.jdbc.pool.DataSourceFactory,org.apache.tomcat.jdbc.pool.DataSourceProxy"
5108,clique,"org.apache.tomcat.util.http.fileupload.FileUploadBase$FileItemIteratorImpl$FileItemStreamImpl,org.apache.tomcat.util.http.fileupload.FileUploadBase$FileItemIteratorImpl,org.apache.tomcat.util.http.fileupload.FileUploadBase,org.apache.tomcat.util.http.fileupload.FileUploadBase$FileItemIteratorImpl$FileItemStreamImpl"
5109,clique,"org.eclipse.jdt.internal.compiler.lookup.TypeVariableBinding,org.eclipse.jdt.internal.compiler.lookup.ReferenceBinding,org.eclipse.jdt.internal.compiler.lookup.TypeBinding,org.eclipse.jdt.internal.compiler.lookup.TypeVariableBinding"
5110,clique,"org.eclipse.jdt.internal.compiler.lookup.TypeVariableBinding,org.eclipse.jdt.internal.compiler.lookup.ReferenceBinding,org.eclipse.jdt.internal.compiler.lookup.TypeBinding,org.eclipse.jdt.internal.compiler.lookup.Scope,org.eclipse.jdt.internal.compiler.lookup.TypeVariableBinding"
5111,clique,"org.eclipse.jdt.internal.compiler.lookup.CompilationUnitScope,org.eclipse.jdt.internal.compiler.lookup.LocalTypeBinding,org.eclipse.jdt.internal.compiler.lookup.ClassScope,org.eclipse.jdt.internal.compiler.lookup.CompilationUnitScope"
5112,clique,"org.eclipse.jdt.internal.compiler.parser.RecoveredMethod,org.eclipse.jdt.internal.compiler.parser.RecoveredType,org.eclipse.jdt.internal.compiler.parser.RecoveredElement,org.eclipse.jdt.internal.compiler.parser.RecoveredMethod"
5113,clique,"org.eclipse.jdt.internal.compiler.parser.RecoveredInitializer,org.eclipse.jdt.internal.compiler.parser.RecoveredType,org.eclipse.jdt.internal.compiler.parser.RecoveredElement,org.eclipse.jdt.internal.compiler.parser.RecoveredInitializer"
5114,clique,"org.eclipse.jdt.internal.compiler.parser.Parser,org.eclipse.jdt.internal.compiler.ast.MethodDeclaration,org.eclipse.jdt.internal.compiler.ast.TypeDeclaration,org.eclipse.jdt.internal.compiler.parser.Parser"
5115,clique,"org.eclipse.jdt.internal.compiler.lookup.MethodBinding,org.eclipse.jdt.internal.compiler.lookup.MethodScope,org.eclipse.jdt.internal.compiler.lookup.LocalVariableBinding,org.eclipse.jdt.internal.compiler.lookup.MethodBinding"
5116,clique,"org.eclipse.jdt.internal.compiler.lookup.ReferenceBinding,org.eclipse.jdt.internal.compiler.lookup.TypeBinding,org.eclipse.jdt.internal.compiler.lookup.Scope,org.eclipse.jdt.internal.compiler.lookup.ReferenceBinding"
5117,clique,"org.apache.jasper.servlet.JspServletWrapper,org.apache.jasper.compiler.JspRuntimeContext,org.apache.jasper.JspCompilationContext,org.apache.jasper.servlet.JspServletWrapper"
5121,chain,"org.apache.jasper.compiler.JspReader,org.apache.jasper.compiler.Mark$IncludeState,org.apache.jasper.compiler.Mark"
5122,chain,"org.apache.catalina.connector.ResponseFacade,org.apache.catalina.connector.Response$2,org.apache.catalina.connector.Response"
5123,star,"org.apache.catalina.core.AsyncContextImpl,org.apache.catalina.connector.RequestFacade,org.apache.catalina.connector.Request$3,org.apache.catalina.connector.Request$5,org.apache.catalina.connector.CometEventImpl,org.apache.catalina.connector.Request$2,org.apache.catalina.connector.Connector,org.apache.catalina.connector.Request"
5124,star,"org.apache.tomcat.util.bcel.classfile.StackMap,org.apache.tomcat.util.bcel.classfile.AnnotationDefault,org.apache.tomcat.util.bcel.classfile.LocalVariableTypeTable,org.apache.tomcat.util.bcel.classfile.EnclosingMethod,org.apache.tomcat.util.bcel.classfile.StackMapTable,org.apache.tomcat.util.bcel.classfile.Attribute,org.apache.tomcat.util.bcel.classfile.Unknown,org.apache.tomcat.util.bcel.classfile.ConstantValue,org.apache.tomcat.util.bcel.classfile.SourceFile,org.apache.tomcat.util.bcel.classfile.Code,org.apache.tomcat.util.bcel.classfile.ExceptionTable,org.apache.tomcat.util.bcel.classfile.LineNumberTable,org.apache.tomcat.util.bcel.classfile.InnerClasses,org.apache.tomcat.util.bcel.classfile.Synthetic,org.apache.tomcat.util.bcel.classfile.Deprecated,org.apache.tomcat.util.bcel.classfile.PMGClass,org.apache.tomcat.util.bcel.classfile.Signature"
5125,chain,"org.apache.tomcat.util.http.MimeHeaders,org.apache.tomcat.util.http.NamesEnumerator,org.apache.tomcat.util.http.ValuesEnumerator"
5126,chain,"org.eclipse.jdt.internal.compiler.lookup.Scope,org.eclipse.jdt.internal.compiler.flow.InsideSubRoutineFlowContext,org.eclipse.jdt.internal.compiler.flow.FlowContext,org.eclipse.jdt.internal.compiler.lookup.BlockScope"
5127,star,"org.apache.tomcat.util.digester.CallMethodRule,org.apache.tomcat.util.digester.CallParamRule,org.apache.tomcat.util.digester.ObjectParamRule,org.apache.tomcat.util.digester.PathCallParamRule,org.apache.tomcat.util.digester.FactoryCreateRule,org.apache.tomcat.util.digester.SetNextRule,org.apache.tomcat.util.digester.Digester,org.apache.tomcat.util.digester.ObjectCreateRule,org.apache.tomcat.util.digester.SetRootRule,org.apache.tomcat.util.digester.SetPropertiesRule,org.apache.tomcat.util.digester.SetPropertyRule,org.apache.tomcat.util.digester.SetTopRule"
5128,chain,"org.eclipse.jdt.internal.compiler.parser.Parser,org.eclipse.jdt.internal.compiler.ast.TypeDeclaration,org.eclipse.jdt.internal.compiler.ast.Clinit,org.eclipse.jdt.internal.compiler.ast.MethodDeclaration"
5129,star,"org.eclipse.jdt.internal.compiler.batch.Main$3,org.eclipse.jdt.internal.compiler.batch.Main,org.eclipse.jdt.internal.compiler.util.Util,org.eclipse.jdt.internal.compiler.batch.Main$Logger,org.eclipse.jdt.internal.compiler.batch.Main$5"
5130,star,"org.apache.catalina.core.ApplicationDispatcher$PrivilegedDispatch,org.apache.catalina.core.ApplicationDispatcher,org.apache.catalina.core.ApplicationDispatcher$PrivilegedInclude,org.apache.catalina.core.ApplicationDispatcher$PrivilegedForward"
5131,chain,"org.apache.catalina.ha.session.DeltaManager,org.apache.catalina.ha.tcp.ReplicationValve,org.apache.catalina.ha.session.DeltaSession"
5132,star,"org.apache.tomcat.util.bcel.classfile.EnumElementValue,org.apache.tomcat.util.bcel.classfile.ArrayElementValue,org.apache.tomcat.util.bcel.classfile.ElementValue,org.apache.tomcat.util.bcel.classfile.SimpleElementValue,org.apache.tomcat.util.bcel.classfile.ClassElementValue,org.apache.tomcat.util.bcel.classfile.AnnotationElementValue,org.apache.tomcat.util.bcel.classfile.AnnotationEntry"
5133,star,"org.apache.catalina.ha.session.DeltaManager,org.apache.catalina.ha.session.DeltaRequest,org.apache.catalina.ha.session.BackupManager,org.apache.catalina.ha.session.DeltaSession"
5134,chain,"org.apache.tomcat.jdbc.pool.PoolProperties,org.apache.tomcat.jdbc.pool.PoolProperties$InterceptorDefinition,org.apache.tomcat.jdbc.pool.PoolProperties$InterceptorProperty"
5135,chain,"org.apache.catalina.filters.ExpiresFilter$XServletOutputStream,org.apache.catalina.filters.ExpiresFilter$XHttpServletResponse,org.apache.catalina.filters.ExpiresFilter$XPrintWriter"
5136,chain,"org.apache.catalina.tribes.membership.MemberImpl,org.apache.catalina.tribes.UniqueId,org.apache.catalina.tribes.util.Arrays"
5137,chain,"org.apache.catalina.core.NamingContextListener,org.apache.catalina.startup.Catalina$CatalinaShutdownHook,org.apache.catalina.startup.Catalina,org.apache.catalina.core.StandardServer"
5138,star,"org.apache.juli.ClassLoaderLogManager,org.apache.juli.ClassLoaderLogManager$2,org.apache.juli.ClassLoaderLogManager$LogNode,org.apache.juli.ClassLoaderLogManager$Cleaner"
5139,chain,"org.eclipse.jdt.internal.compiler.lookup.BinaryTypeBinding,org.eclipse.jdt.internal.compiler.lookup.WildcardBinding,org.eclipse.jdt.internal.compiler.lookup.UnresolvedAnnotationBinding"
5140,star,"org.eclipse.jdt.internal.compiler.lookup.ReferenceBinding$1,org.eclipse.jdt.internal.compiler.lookup.ReferenceBinding,org.eclipse.jdt.internal.compiler.lookup.ReferenceBinding$2,org.eclipse.jdt.internal.compiler.lookup.ReferenceBinding$3,org.eclipse.jdt.internal.compiler.lookup.TypeBinding,org.eclipse.jdt.internal.compiler.lookup.TypeVariableBinding"
5141,star,"org.eclipse.jdt.internal.compiler.lookup.ReferenceBinding,org.eclipse.jdt.internal.compiler.lookup.TypeBinding,org.eclipse.jdt.internal.compiler.lookup.BaseTypeBinding,org.eclipse.jdt.internal.compiler.lookup.Scope"
5142,star,"org.eclipse.jdt.internal.compiler.lookup.TypeBinding,org.eclipse.jdt.internal.compiler.lookup.Scope,org.eclipse.jdt.internal.compiler.lookup.Scope$2,org.eclipse.jdt.internal.compiler.lookup.BlockScope"
5143,chain,"org.eclipse.jdt.internal.compiler.lookup.MethodBinding,org.eclipse.jdt.internal.compiler.lookup.LocalVariableBinding,org.eclipse.jdt.internal.compiler.lookup.MethodScope"
5145,star,"org.apache.jasper.runtime.JspFactoryImpl,org.apache.jasper.runtime.JspFactoryImpl$PrivilegedGetPageContext,org.apache.jasper.runtime.JspFactoryImpl$PrivilegedReleasePageContext,org.apache.jasper.runtime.JspFactoryImpl$PageContextPool"
5146,chain,"org.eclipse.jdt.internal.compiler.batch.FileSystem,org.eclipse.jdt.internal.compiler.util.Util,org.eclipse.jdt.internal.compiler.batch.Main"
5147,star,"org.eclipse.jdt.internal.compiler.apt.dispatch.HookedJavaFileObject$ForwardingOutputStream,org.eclipse.jdt.internal.compiler.apt.dispatch.HookedJavaFileObject$ForwardingWriter,org.eclipse.jdt.internal.compiler.apt.dispatch.BatchFilerImpl,org.eclipse.jdt.internal.compiler.apt.dispatch.HookedJavaFileObject"
5148,star,"org.apache.jasper.runtime.PageContextImpl$9,org.apache.jasper.runtime.PageContextImpl$11,org.apache.jasper.runtime.JspRuntimeLibrary,org.apache.jasper.runtime.PageContextImpl$10,org.apache.jasper.runtime.PageContextImpl$12,org.apache.jasper.runtime.PageContextImpl$1,org.apache.jasper.runtime.PageContextImpl$2,org.apache.jasper.runtime.PageContextImpl$3,org.apache.jasper.runtime.PageContextImpl$4,org.apache.jasper.runtime.PageContextImpl$5,org.apache.jasper.runtime.PageContextImpl$6,org.apache.jasper.runtime.PageContextImpl$7,org.apache.jasper.runtime.PageContextImpl,org.apache.jasper.runtime.PageContextImpl$8"
5149,star,"org.apache.tomcat.util.net.AprEndpoint$SocketEventProcessor,org.apache.tomcat.util.net.AprEndpoint$SocketProcessor,org.apache.tomcat.util.net.AprEndpoint$Poller,org.apache.tomcat.util.net.AprEndpoint$Acceptor,org.apache.tomcat.util.net.AprEndpoint$AsyncTimeout,org.apache.tomcat.util.net.AprEndpoint,org.apache.tomcat.util.net.AprEndpoint$SocketWithOptionsProcessor,org.apache.tomcat.util.net.AprEndpoint$Sendfile"
5150,star,"javax.el.ExpressionFactory,javax.el.ExpressionFactory$3,javax.el.ExpressionFactory$4,javax.el.ExpressionFactory$2"
5151,chain,"org.apache.tomcat.dbcp.dbcp.DelegatingDatabaseMetaData,org.apache.tomcat.dbcp.dbcp.DelegatingResultSet,org.apache.tomcat.dbcp.dbcp.DelegatingConnection,org.apache.tomcat.dbcp.dbcp.DelegatingStatement"
5152,star,"org.apache.catalina.loader.WebappLoader,org.apache.catalina.core.StandardWrapper,org.apache.catalina.startup.TldConfig,org.apache.catalina.core.StandardContext"
5153,star,"org.apache.catalina.mbeans.MBeanUtils,org.apache.catalina.valves.ValveBase,org.apache.catalina.connector.Connector,org.apache.catalina.deploy.NamingResources"
5154,star,"javax.servlet.jsp.el.ImplicitObjectELResolver$ScopeManager$1,javax.servlet.jsp.el.ImplicitObjectELResolver$ScopeManager$2,javax.servlet.jsp.el.ImplicitObjectELResolver$ScopeManager$3,javax.servlet.jsp.el.ImplicitObjectELResolver$ScopeManager,javax.servlet.jsp.el.ImplicitObjectELResolver$ScopeManager$4,javax.servlet.jsp.el.ImplicitObjectELResolver$ScopeManager$5,javax.servlet.jsp.el.ImplicitObjectELResolver$ScopeManager$6,javax.servlet.jsp.el.ImplicitObjectELResolver$ScopeManager$7,javax.servlet.jsp.el.ImplicitObjectELResolver$ScopeManager$8,javax.servlet.jsp.el.ImplicitObjectELResolver$ScopeManager$9,javax.servlet.jsp.el.ImplicitObjectELResolver$ScopeManager$10"
5155,chain,"org.apache.tomcat.dbcp.pool.impl.GenericKeyedObjectPool,org.apache.tomcat.dbcp.pool.impl.GenericKeyedObjectPool$Evictor,org.apache.tomcat.dbcp.pool.impl.GenericKeyedObjectPool$ObjectQueue"
5156,chain,"org.apache.tomcat.dbcp.pool.impl.CursorableLinkedList$Cursor,org.apache.tomcat.dbcp.pool.impl.CursorableLinkedList,org.apache.tomcat.dbcp.pool.impl.CursorableSubList"
5157,chain,"org.apache.tomcat.dbcp.pool.PoolUtils$ObjectPoolAdaptor,org.apache.tomcat.dbcp.pool.PoolUtils$KeyedObjectPoolAdaptor,org.apache.tomcat.dbcp.pool.PoolUtils"
5158,chain,"org.apache.jasper.compiler.Node$NamedAttribute,org.apache.jasper.compiler.Node,org.apache.jasper.compiler.Node$Comment"
5159,star,"org.apache.catalina.valves.ExtendedAccessLogValve$CookieElement,org.apache.catalina.valves.ExtendedAccessLogValve$RequestParameterElement,org.apache.catalina.valves.ExtendedAccessLogValve$4,org.apache.catalina.valves.ExtendedAccessLogValve$RequestAttributeElement,org.apache.catalina.valves.ExtendedAccessLogValve$ServletContextElement,org.apache.catalina.valves.ExtendedAccessLogValve$7,org.apache.catalina.valves.ExtendedAccessLogValve$SessionAttributeElement,org.apache.catalina.valves.ExtendedAccessLogValve$8,org.apache.catalina.valves.ExtendedAccessLogValve$RequestHeaderElement,org.apache.catalina.valves.ExtendedAccessLogValve,org.apache.catalina.valves.ExtendedAccessLogValve$12,org.apache.catalina.valves.ExtendedAccessLogValve$10,org.apache.catalina.valves.ExtendedAccessLogValve$5,org.apache.catalina.valves.ExtendedAccessLogValve$11,org.apache.catalina.valves.ExtendedAccessLogValve$6,org.apache.catalina.valves.ExtendedAccessLogValve$14,org.apache.catalina.valves.ExtendedAccessLogValve$ResponseAllHeaderElement,org.apache.catalina.valves.ExtendedAccessLogValve$9,org.apache.catalina.valves.ExtendedAccessLogValve$ResponseHeaderElement"
5160,chain,"org.apache.tomcat.util.threads.TaskQueue,org.apache.tomcat.util.threads.ThreadPoolExecutor$1,org.apache.tomcat.util.threads.ThreadPoolExecutor"
5161,star,"org.apache.catalina.tribes.membership.McastServiceImpl$ReceiverThread,org.apache.catalina.tribes.membership.McastServiceImpl$SenderThread,org.apache.catalina.tribes.membership.McastServiceImpl$3,org.apache.catalina.tribes.membership.McastServiceImpl,org.apache.catalina.tribes.membership.McastService"
5162,chain,"org.apache.tomcat.jdbc.pool.interceptor.AbstractQueryReport,org.apache.tomcat.jdbc.pool.interceptor.SlowQueryReport,org.apache.tomcat.jdbc.pool.interceptor.AbstractQueryReport$StatementProxy"
5163,chain,"org.apache.tomcat.jdbc.pool.PooledConnection,org.apache.tomcat.jdbc.pool.interceptor.ConnectionState,org.apache.tomcat.jdbc.pool.ConnectionPool"
5164,chain,"org.apache.coyote.RequestGroupInfo,org.apache.coyote.Request,org.apache.coyote.RequestInfo"
5165,star,"org.apache.catalina.mbeans.MBeanUtils,org.apache.catalina.connector.CoyoteAdapter,org.apache.catalina.connector.MapperListener,org.apache.catalina.connector.Connector,org.apache.catalina.connector.Request"
5166,chain,"org.apache.naming.resources.WARDirContext,org.apache.naming.resources.FileDirContext,org.apache.naming.resources.BaseDirContext"
5167,chain,"org.apache.catalina.core.AsyncContextImpl,org.apache.catalina.connector.Request,org.apache.catalina.core.AsyncContextImpl$1"
5168,star,"org.eclipse.jdt.internal.compiler.parser.RecoveredElement,org.eclipse.jdt.internal.compiler.parser.RecoveredField,org.eclipse.jdt.internal.compiler.parser.RecoveredType,org.eclipse.jdt.internal.compiler.parser.RecoveredMethod,org.eclipse.jdt.internal.compiler.parser.RecoveredInitializer"
5169,star,"org.apache.catalina.tribes.transport.nio.NioReceiver,org.apache.catalina.tribes.transport.nio.NioReplicationTask$1,org.apache.catalina.tribes.transport.nio.NioReplicationTask$2,org.apache.catalina.tribes.transport.nio.NioReplicationTask"
5170,chain,"org.apache.catalina.valves.AccessLogValve$1,org.apache.catalina.valves.AccessLogValve,org.apache.catalina.valves.AccessLogValve$DateAndTimeElement"
5171,chain,"org.eclipse.jdt.internal.compiler.lookup.UnresolvedReferenceBinding,org.eclipse.jdt.internal.compiler.util.HashtableOfPackage,org.eclipse.jdt.internal.compiler.lookup.PackageBinding"
5172,star,"org.apache.tomcat.util.net.NioBlockingSelector$BlockPoller$2,org.apache.tomcat.util.net.NioBlockingSelector$BlockPoller$3,org.apache.tomcat.util.net.NioBlockingSelector,org.apache.tomcat.util.net.NioBlockingSelector$BlockPoller"
5173,chain,"org.apache.tomcat.util.net.NioBlockingSelector,org.apache.tomcat.util.net.NioBlockingSelector$KeyReference,org.apache.tomcat.util.net.NioBlockingSelector$BlockPoller"
5174,star,"org.apache.el.lang.ELArithmetic$DoubleDelegate,org.apache.el.lang.ELArithmetic$BigIntegerDelegate,org.apache.el.lang.ELArithmetic$BigDecimalDelegate,org.apache.el.lang.ELArithmetic$LongDelegate,org.apache.el.lang.ELArithmetic"
5175,chain,"org.apache.jasper.compiler.JDTCompiler$1,org.apache.jasper.compiler.JDTCompiler$2,org.apache.jasper.compiler.JDTCompiler"
5176,star,"org.apache.catalina.users.MemoryRoleCreationFactory,org.apache.catalina.users.MemoryUserDatabase,org.apache.catalina.users.MemoryUserCreationFactory,org.apache.catalina.users.MemoryGroupCreationFactory,org.apache.catalina.users.MemoryGroup"
5177,chain,"org.apache.jasper.runtime.ProtectedFunctionMapper,org.apache.jasper.runtime.ProtectedFunctionMapper$1,org.apache.jasper.runtime.ProtectedFunctionMapper$3"
5178,star,"org.apache.jasper.compiler.Compiler,org.apache.jasper.compiler.ParserController,org.apache.jasper.compiler.JspDocumentParser,org.apache.jasper.compiler.Parser"
5180,chain,"org.apache.catalina.startup.Tomcat$DefaultWebXmlListener,org.apache.catalina.startup.Tomcat$1,org.apache.catalina.startup.Tomcat"
5181,chain,"org.apache.catalina.core.StandardWrapperValve,org.apache.catalina.core.StandardWrapper,org.apache.catalina.core.StandardContext"
5182,star,"org.eclipse.jdt.internal.compiler.parser.Parser,org.eclipse.jdt.internal.compiler.parser.diagnose.DiagnoseParser,org.eclipse.jdt.internal.compiler.parser.JavadocParser,org.eclipse.jdt.internal.compiler.parser.Parser$1$MethodVisitor,org.eclipse.jdt.internal.compiler.ast.MethodDeclaration"
5183,chain,"org.eclipse.jdt.internal.compiler.lookup.SourceTypeBinding,org.eclipse.jdt.internal.compiler.lookup.FieldBinding,org.eclipse.jdt.internal.compiler.lookup.ArrayBinding,org.eclipse.jdt.internal.compiler.ast.CompilationUnitDeclaration,org.eclipse.jdt.internal.compiler.lookup.ClassScope,org.eclipse.jdt.internal.compiler.lookup.CompilationUnitScope,org.eclipse.jdt.internal.compiler.lookup.LocalTypeBinding"
5184,star,"org.apache.tomcat.jdbc.pool.ProxyConnection,org.apache.tomcat.jdbc.pool.PooledConnection,org.apache.tomcat.jdbc.pool.ConnectionPool$PoolCleaner,org.apache.tomcat.jdbc.pool.ConnectionPool,org.apache.tomcat.jdbc.pool.ConnectionPool$ConnectionFuture"
5185,chain,"org.apache.catalina.ha.backend.MultiCastSender,org.apache.catalina.ha.backend.TcpSender,org.apache.catalina.ha.backend.HeartbeatListener"
5186,star,"org.apache.catalina.startup.HostConfig$DeployWar,org.apache.catalina.startup.HostConfig$DeployDirectory,org.apache.catalina.startup.HostConfig$DeployDescriptor,org.apache.catalina.startup.HostConfig"
5187,chain,"org.eclipse.jdt.internal.compiler.flow.ConditionalFlowInfo,org.eclipse.jdt.internal.compiler.flow.FlowInfo,org.eclipse.jdt.internal.compiler.flow.UnconditionalFlowInfo"
5188,star,"org.eclipse.jdt.internal.compiler.codegen.BranchLabel,org.eclipse.jdt.internal.compiler.ast.FieldDeclaration,org.eclipse.jdt.internal.compiler.codegen.ExceptionLabel,org.eclipse.jdt.internal.compiler.codegen.CodeStream"
5189,chain,"org.apache.tomcat.util.net.NioEndpoint$PollerEvent,org.apache.tomcat.util.net.NioEndpoint$Poller,org.apache.tomcat.util.net.NioChannel"
5190,chain,"org.apache.tomcat.util.buf.CharChunk,org.apache.tomcat.util.buf.StringCache,org.apache.tomcat.util.buf.ByteChunk"
5191,chain,"org.eclipse.jdt.internal.compiler.ast.TypeReference,org.eclipse.jdt.internal.compiler.ast.ArrayTypeReference,org.eclipse.jdt.internal.compiler.ast.ArrayQualifiedTypeReference,org.eclipse.jdt.internal.compiler.ast.QualifiedTypeReference,org.eclipse.jdt.internal.compiler.ast.SingleTypeReference"
5192,chain,"org.eclipse.jdt.internal.compiler.ast.AllocationExpression,org.eclipse.jdt.internal.compiler.ast.FakedTrackingVariable,org.eclipse.jdt.internal.compiler.ast.LocalDeclaration"
5193,chain,"org.apache.catalina.startup.TldConfig$TldJarScannerCallback,org.apache.catalina.startup.TldConfig,org.apache.catalina.core.StandardContext"
5194,star,"org.apache.jasper.compiler.Compiler,org.apache.jasper.servlet.JspServletWrapper,org.apache.jasper.compiler.Generator,org.apache.jasper.compiler.ParserController,org.apache.jasper.compiler.Collector,org.apache.jasper.compiler.Validator"
5195,chain,"org.apache.el.MethodExpressionImpl,org.apache.el.lang.ExpressionBuilder,org.apache.el.ValueExpressionImpl"
5196,star,"org.eclipse.jdt.internal.compiler.impl.BooleanConstant,org.eclipse.jdt.internal.compiler.impl.FloatConstant,org.eclipse.jdt.internal.compiler.impl.CharConstant,org.eclipse.jdt.internal.compiler.impl.ByteConstant,org.eclipse.jdt.internal.compiler.impl.ShortConstant,org.eclipse.jdt.internal.compiler.impl.Constant,org.eclipse.jdt.internal.compiler.impl.IntConstant,org.eclipse.jdt.internal.compiler.impl.StringConstant,org.eclipse.jdt.internal.compiler.impl.LongConstant,org.eclipse.jdt.internal.compiler.impl.DoubleConstant"
5197,chain,"org.apache.catalina.tribes.io.BufferPool,org.apache.catalina.tribes.io.XByteBuffer,org.apache.catalina.tribes.io.ChannelData"
5198,chain,"org.eclipse.jdt.internal.compiler.parser.RecoveredType,org.eclipse.jdt.internal.compiler.parser.RecoveredMethod,org.eclipse.jdt.internal.compiler.parser.RecoveredBlock"
5199,chain,"org.apache.jasper.servlet.JspServletWrapper,org.apache.jasper.compiler.Compiler,org.apache.jasper.JspCompilationContext,org.apache.jasper.compiler.JspRuntimeContext"
5200,star,"org.apache.tomcat.util.bcel.classfile.ConstantUtf8,org.apache.tomcat.util.bcel.classfile.ConstantMethodType,org.apache.tomcat.util.bcel.classfile.ConstantString,org.apache.tomcat.util.bcel.classfile.ConstantDouble,org.apache.tomcat.util.bcel.classfile.ConstantNameAndType,org.apache.tomcat.util.bcel.classfile.ConstantFloat,org.apache.tomcat.util.bcel.classfile.ConstantLong,org.apache.tomcat.util.bcel.classfile.ConstantInteger,org.apache.tomcat.util.bcel.classfile.ConstantMethodHandle,org.apache.tomcat.util.bcel.classfile.ConstantInvokeDynamic,org.apache.tomcat.util.bcel.classfile.Constant$1,org.apache.tomcat.util.bcel.classfile.ConstantClass,org.apache.tomcat.util.bcel.classfile.Constant"
5201,chain,"org.apache.jasper.compiler.Validator$ValidateVisitor$1FVVisitor,org.apache.jasper.compiler.Validator$ValidateVisitor$1MapperELVisitor,org.apache.jasper.compiler.Validator$ValidateVisitor"
5202,chain,"org.apache.tomcat.util.http.fileupload.FileUploadBase$FileItemIteratorImpl$FileItemStreamImpl,org.apache.tomcat.util.http.fileupload.FileUploadBase$FileItemIteratorImpl$FileItemStreamImpl$1,org.apache.tomcat.util.http.fileupload.FileUploadBase,org.apache.tomcat.util.http.fileupload.FileUploadBase$FileItemIteratorImpl"
5203,chain,"org.apache.catalina.core.ContainerBase$PrivilegedAddChild,org.apache.catalina.core.ContainerBase$ContainerBackgroundProcessor,org.apache.catalina.core.ContainerBase"
5204,chain,"org.apache.catalina.session.StandardManager$PrivilegedDoLoad,org.apache.catalina.session.StandardManager$PrivilegedDoUnload,org.apache.catalina.session.StandardManager"
5205,star,"org.apache.jasper.compiler.Generator$GenerateVisitor$1ParamVisitor,org.apache.jasper.compiler.Generator,org.apache.jasper.compiler.Generator$GenerateVisitor$2ParamVisitor,org.apache.jasper.compiler.Generator$GenerateVisitor"
5206,chain,"org.apache.catalina.servlets.CGIServlet$CGIRunner,org.apache.catalina.servlets.CGIServlet,org.apache.catalina.servlets.CGIServlet$CGIRunner$1,org.apache.catalina.servlets.CGIServlet$CGIEnvironment"
5207,star,"org.apache.tomcat.util.net.JIoEndpoint,org.apache.tomcat.util.net.JIoEndpoint$AsyncTimeout,org.apache.tomcat.util.net.JIoEndpoint$Acceptor,org.apache.tomcat.util.net.JIoEndpoint$SocketProcessor"
5208,chain,"org.apache.jasper.runtime.JspRuntimeLibrary,org.apache.jasper.runtime.JspRuntimeLibrary$PrivilegedIntrospectHelper,org.apache.jasper.runtime.PageContextImpl"
5209,chain,"org.eclipse.jdt.internal.compiler.apt.dispatch.BaseProcessingEnvImpl,org.eclipse.jdt.internal.compiler.apt.model.TypesImpl,org.eclipse.jdt.internal.compiler.apt.model.ElementsImpl"
5210,star,"org.eclipse.jdt.internal.compiler.apt.model.AnnotationMirrorImpl,org.eclipse.jdt.internal.compiler.apt.model.Factory,org.eclipse.jdt.internal.compiler.apt.model.ErrorTypeElement,org.eclipse.jdt.internal.compiler.apt.model.PackageElementImpl,org.eclipse.jdt.internal.compiler.apt.model.ExecutableTypeImpl,org.eclipse.jdt.internal.compiler.apt.model.DeclaredTypeImpl,org.eclipse.jdt.internal.compiler.apt.model.ArrayTypeImpl,org.eclipse.jdt.internal.compiler.apt.model.TypeVariableImpl,org.eclipse.jdt.internal.compiler.apt.model.ErrorTypeImpl,org.eclipse.jdt.internal.compiler.apt.model.TypeParameterElementImpl,org.eclipse.jdt.internal.compiler.apt.model.WildcardTypeImpl"
5211,chain,"org.eclipse.jdt.internal.compiler.tool.EclipseCompilerImpl$3$2,org.eclipse.jdt.internal.compiler.tool.EclipseCompilerImpl$3,org.eclipse.jdt.internal.compiler.tool.EclipseCompilerImpl$3$1"
5212,chain,"org.eclipse.jdt.internal.compiler.ast.StringLiteral,org.eclipse.jdt.internal.compiler.ast.ExtendedStringLiteral,org.eclipse.jdt.internal.compiler.ast.StringLiteralConcatenation"
5213,star,"org.apache.jasper.compiler.Compiler,org.apache.jasper.compiler.Generator,org.apache.jasper.compiler.Generator$GenerateVisitor,org.apache.jasper.compiler.Generator$1ScriptingVarVisitor,org.apache.jasper.compiler.Generator$FragmentHelperClass,org.apache.jasper.compiler.Generator$1DeclarationVisitor"
5214,chain,"org.apache.catalina.core.ApplicationFilterChain$1,org.apache.catalina.core.ApplicationFilterChain,org.apache.catalina.core.ApplicationFilterChain$2"
