UnstableDependenciesPackage,InstabilityUnstableDependenciesPackage,CorrelatedPackage,InstabilityCorrelatedPackage
org.apache.tomcat.jdbc.pool,0.9072164948453608,org.apache.tomcat.jdbc.pool.interceptor,0.9824561403508771
org.apache.catalina.tribes,0.18333333333333332,org.apache.catalina.tribes.util,0.6065573770491803
org.apache.tomcat.util.http.fileupload.util,0.6956521739130435,org.apache.tomcat.util.http.fileupload,0.8095238095238095
org.apache.catalina.connector,0.6222222222222222,org.apache.catalina.realm,0.9307692307692308
org.apache.catalina.connector,0.6222222222222222,org.apache.catalina.mbeans,0.8666666666666667
org.apache.catalina.connector,0.6222222222222222,org.apache.tomcat.util.compat,0.6875
org.apache.catalina.connector,0.6222222222222222,org.apache.tomcat.util.http.fileupload.servlet,0.8571428571428571
org.apache.catalina.connector,0.6222222222222222,org.apache.tomcat.util.http.fileupload.disk,0.9166666666666666
org.apache.catalina.connector,0.6222222222222222,org.apache.tomcat.util.net,0.6549295774647887
org.apache.catalina.connector,0.6222222222222222,org.apache.catalina.security,0.7037037037037037
org.apache.catalina.connector,0.6222222222222222,org.apache.tomcat.util.http.parser,0.7647058823529411
org.apache.catalina.connector,0.6222222222222222,org.apache.catalina.core,0.9354838709677419
org.apache.catalina.connector,0.6222222222222222,org.apache.catalina.authenticator,0.9438202247191011
org.apache.catalina.connector,0.6222222222222222,org.apache.catalina.util,0.632183908045977
org.apache.catalina.connector,0.6222222222222222,org.apache.tomcat.util.http.mapper,0.7586206896551724
org.apache.jasper.runtime,0.8857142857142857,org.apache.jasper.el,0.9069767441860465
org.apache.jasper.runtime,0.8857142857142857,org.apache.jasper.compiler,0.9109947643979057
org.apache.jasper,0.6862745098039216,org.apache.jasper.servlet,0.9264705882352942
org.apache.jasper,0.6862745098039216,org.apache.jasper.compiler,0.9109947643979057
org.eclipse.jdt.internal.compiler.problem,0.42735042735042733,org.eclipse.jdt.internal.compiler.parser,0.90625
org.eclipse.jdt.internal.compiler.problem,0.42735042735042733,org.eclipse.jdt.internal.compiler.ast,0.6736842105263158
org.eclipse.jdt.internal.compiler.problem,0.42735042735042733,org.eclipse.jdt.internal.compiler,0.4525862068965517
org.eclipse.jdt.internal.compiler.problem,0.42735042735042733,org.eclipse.jdt.internal.compiler.util,0.43902439024390244
org.eclipse.jdt.internal.compiler.batch,0.8901098901098901,org.eclipse.jdt.internal.compiler.parser,0.90625
org.eclipse.jdt.internal.compiler.parser,0.90625,org.eclipse.jdt.internal.compiler.parser.diagnose,0.9411764705882353
javax.servlet.jsp,0.1388888888888889,javax.servlet,0.17419354838709677
org.apache.tomcat.util.http.fileupload,0.8095238095238095,org.apache.tomcat.util.http.fileupload.util.mime,0.9166666666666666
org.apache.catalina.ha,0.41379310344827586,org.apache.tomcat.util.digester,0.4954128440366973
org.apache.catalina.ha.session,0.9642857142857143,org.apache.catalina.ha.tcp,0.967741935483871
org.apache.catalina.util,0.632183908045977,org.apache.naming.resources,0.8837209302325582
org.apache.catalina.util,0.632183908045977,org.apache.tomcat.util.modeler,0.65625
org.apache.catalina.security,0.7037037037037037,org.apache.catalina.startup,0.9591836734693877
org.apache.catalina.tribes.transport,0.7272727272727273,org.apache.catalina.tribes.transport.nio,0.9642857142857143
org.apache.tomcat.util.net,0.6549295774647887,org.apache.tomcat.util.threads,0.8260869565217391
org.apache.tomcat.util.net,0.6549295774647887,org.apache.tomcat.util.compat,0.6875
org.apache.tomcat.util.net,0.6549295774647887,org.apache.tomcat.util.net.jsse,0.9655172413793104
org.eclipse.jdt.internal.compiler.util,0.43902439024390244,org.eclipse.jdt.internal.compiler.batch,0.8901098901098901
org.eclipse.jdt.internal.compiler.util,0.43902439024390244,org.eclipse.jdt.internal.compiler,0.4525862068965517
org.apache.tomcat.util.modeler,0.65625,org.apache.tomcat.util.modeler.modules,0.98
org.eclipse.jdt.internal.compiler.ast,0.6736842105263158,org.eclipse.jdt.internal.compiler.parser,0.90625
org.apache.catalina.valves,0.8803418803418803,org.apache.catalina.session,0.9433962264150944
org.apache.tomcat.jdbc.pool.jmx,0.8,org.apache.tomcat.jdbc.pool,0.9072164948453608
org.apache.jasper.compiler,0.9109947643979057,org.apache.jasper.servlet,0.9264705882352942
org.apache.catalina.mbeans,0.8666666666666667,org.apache.catalina.core,0.9354838709677419
org.apache.catalina.mbeans,0.8666666666666667,org.apache.catalina.startup,0.9591836734693877
org.apache.catalina.mbeans,0.8666666666666667,org.apache.catalina.realm,0.9307692307692308
org.apache.catalina.mbeans,0.8666666666666667,org.apache.coyote.ajp,0.9852941176470589
org.apache.catalina.mbeans,0.8666666666666667,org.apache.coyote.http11,0.9159663865546218
org.apache.catalina.mbeans,0.8666666666666667,org.apache.catalina.valves,0.8803418803418803
org.apache.catalina.mbeans,0.8666666666666667,org.apache.catalina.loader,0.963302752293578
org.apache.catalina.mbeans,0.8666666666666667,org.apache.catalina.authenticator,0.9438202247191011
org.apache.catalina.mbeans,0.8666666666666667,org.apache.catalina.session,0.9433962264150944
org.apache.el.util,0.7021276595744681,org.apache.el.lang,0.7611940298507462
org.apache.jasper.util,0.8666666666666667,org.apache.jasper.compiler,0.9109947643979057
org.apache.catalina.tribes.util,0.6065573770491803,org.apache.catalina.tribes.membership,0.8387096774193549
org.apache.catalina.tribes.util,0.6065573770491803,org.apache.catalina.tribes.group,0.6842105263157895
org.apache.catalina.tribes.io,0.5074626865671642,org.apache.catalina.tribes.util,0.6065573770491803
org.apache.catalina.tribes.io,0.5074626865671642,org.apache.catalina.tribes.membership,0.8387096774193549
org.apache.coyote.http11.filters,0.8333333333333334,org.apache.coyote.http11,0.9159663865546218
org.apache.tomcat.websocket,0.9084967320261438,org.apache.tomcat.websocket.pojo,0.9384615384615385
org.eclipse.jdt.core.compiler,0.0547945205479452,org.eclipse.jdt.internal.compiler.parser,0.90625
org.eclipse.jdt.internal.compiler.lookup,0.38823529411764707,org.eclipse.jdt.internal.compiler.classfmt,0.7894736842105263
org.eclipse.jdt.internal.compiler.lookup,0.38823529411764707,org.eclipse.jdt.internal.compiler,0.4525862068965517
org.eclipse.jdt.internal.compiler.lookup,0.38823529411764707,org.eclipse.jdt.internal.compiler.codegen,0.4322033898305085
org.eclipse.jdt.internal.compiler.lookup,0.38823529411764707,org.eclipse.jdt.internal.compiler.problem,0.42735042735042733
org.eclipse.jdt.internal.compiler.lookup,0.38823529411764707,org.eclipse.jdt.internal.compiler.ast,0.6736842105263158
org.eclipse.jdt.internal.compiler.lookup,0.38823529411764707,org.eclipse.jdt.internal.compiler.util,0.43902439024390244
org.apache.catalina.deploy,0.574468085106383,org.apache.naming,0.703125
org.apache.catalina.deploy,0.574468085106383,org.apache.catalina.mbeans,0.8666666666666667
org.apache.catalina.deploy,0.574468085106383,org.apache.catalina.core,0.9354838709677419
org.apache.catalina.deploy,0.574468085106383,org.apache.catalina.util,0.632183908045977
org.eclipse.jdt.internal.compiler.codegen,0.4322033898305085,org.eclipse.jdt.internal.compiler,0.4525862068965517
org.eclipse.jdt.internal.compiler.codegen,0.4322033898305085,org.eclipse.jdt.internal.compiler.util,0.43902439024390244
org.eclipse.jdt.internal.compiler.codegen,0.4322033898305085,org.eclipse.jdt.internal.compiler.ast,0.6736842105263158
org.eclipse.jdt.internal.compiler.codegen,0.4322033898305085,org.eclipse.jdt.internal.compiler.classfmt,0.7894736842105263
org.eclipse.jdt.internal.compiler.impl,0.20238095238095238,org.eclipse.jdt.internal.compiler.lookup,0.38823529411764707
org.eclipse.jdt.internal.compiler.impl,0.20238095238095238,org.eclipse.jdt.internal.compiler.ast,0.6736842105263158
org.eclipse.jdt.internal.compiler.impl,0.20238095238095238,org.eclipse.jdt.internal.compiler.problem,0.42735042735042733
org.eclipse.jdt.internal.compiler.impl,0.20238095238095238,org.eclipse.jdt.internal.compiler.util,0.43902439024390244
org.apache.catalina.authenticator,0.9438202247191011,org.apache.catalina.startup,0.9591836734693877
javax.servlet,0.17419354838709677,javax.servlet.annotation,0.46153846153846156
org.apache.catalina,0.06593406593406594,org.apache.catalina.core,0.9354838709677419
org.apache.catalina.startup,0.9591836734693877,org.apache.catalina.loader,0.963302752293578
org.apache.catalina.startup,0.9591836734693877,org.apache.juli,0.9649122807017544
org.apache.tomcat.dbcp.dbcp,0.9032258064516129,org.apache.tomcat.dbcp.jocl,0.9629629629629629
org.apache.tomcat.dbcp.dbcp,0.9032258064516129,org.apache.tomcat.dbcp.pool.impl,0.9090909090909091
org.apache.el.lang,0.7611940298507462,org.apache.el,0.95
org.apache.el.lang,0.7611940298507462,org.apache.el.parser,0.95
org.apache.coyote,0.38333333333333336,org.apache.tomcat.util.http,0.5625
org.apache.coyote,0.38333333333333336,org.apache.tomcat.util,0.38764044943820225
org.apache.coyote,0.38333333333333336,org.apache.coyote.http11.upgrade,0.7659574468085106
org.apache.coyote,0.38333333333333336,org.apache.tomcat.util.net,0.6549295774647887
org.apache.coyote,0.38333333333333336,org.apache.tomcat.util.modeler,0.65625
org.apache.coyote,0.38333333333333336,org.apache.tomcat.util.http.parser,0.7647058823529411
org.eclipse.jdt.internal.compiler.flow,0.38095238095238093,org.eclipse.jdt.internal.compiler.problem,0.42735042735042733
org.eclipse.jdt.internal.compiler.flow,0.38095238095238093,org.eclipse.jdt.internal.compiler.codegen,0.4322033898305085
org.eclipse.jdt.internal.compiler.flow,0.38095238095238093,org.eclipse.jdt.internal.compiler.lookup,0.38823529411764707
org.eclipse.jdt.internal.compiler.flow,0.38095238095238093,org.eclipse.jdt.internal.compiler.ast,0.6736842105263158
org.apache.jasper.xmlparser,0.8775510204081632,org.apache.jasper.compiler,0.9109947643979057
org.eclipse.jdt.internal.compiler.apt.dispatch,0.8118811881188119,org.eclipse.jdt.internal.compiler.apt.util,0.9508196721311475
org.eclipse.jdt.internal.compiler.apt.dispatch,0.8118811881188119,org.eclipse.jdt.internal.compiler.apt.model,0.9619047619047619
org.eclipse.jdt.internal.compiler.apt.dispatch,0.8118811881188119,org.eclipse.jdt.internal.compiler.batch,0.8901098901098901
org.apache.catalina.tribes.group,0.6842105263157895,org.apache.catalina.tribes.transport,0.7272727272727273
org.apache.catalina.tribes.group,0.6842105263157895,org.apache.catalina.tribes.membership,0.8387096774193549
org.apache.catalina.tribes.group,0.6842105263157895,org.apache.catalina.tribes.transport.nio,0.9642857142857143
org.apache.catalina.tribes.group,0.6842105263157895,org.apache.catalina.tribes.group.interceptors,0.967741935483871
org.eclipse.jdt.internal.compiler,0.4525862068965517,org.eclipse.jdt.internal.compiler.classfmt,0.7894736842105263
org.eclipse.jdt.internal.compiler,0.4525862068965517,org.eclipse.jdt.core,0.975609756097561
org.eclipse.jdt.internal.compiler,0.4525862068965517,org.eclipse.jdt.internal.compiler.ast,0.6736842105263158
org.eclipse.jdt.internal.compiler,0.4525862068965517,org.eclipse.jdt.internal.compiler.parser,0.90625
org.apache.catalina.core,0.9354838709677419,org.apache.catalina.startup,0.9591836734693877
org.apache.catalina.core,0.9354838709677419,org.apache.catalina.loader,0.963302752293578
org.apache.catalina.core,0.9354838709677419,org.apache.catalina.session,0.9433962264150944
org.apache.catalina.core,0.9354838709677419,org.apache.naming.factory,0.9838709677419355
