Class,FanIn,FanOut,Total Dependences
org.apache.catalina.connector.Request,44,55,99
org.eclipse.jdt.internal.compiler.lookup.Scope,50,42,92
org.apache.catalina.connector.Response,30,38,68
org.eclipse.jdt.internal.compiler.lookup.SourceTypeBinding,35,35,70
org.apache.tomcat.util.digester.Digester,48,47,95
org.apache.tomcat.util.modeler.Registry,53,33,86
org.eclipse.jdt.internal.compiler.lookup.LookupEnvironment,50,31,81
