IdCycle,CycleType,ElementList
3882,clique,"org.eclipse.jdt.internal.compiler,org.eclipse.jdt.internal.compiler.problem,org.eclipse.jdt.internal.compiler.ast,org.eclipse.jdt.internal.compiler"
3883,clique,"org.eclipse.jdt.internal.compiler.parser,org.eclipse.jdt.internal.compiler,org.eclipse.jdt.internal.compiler.problem,org.eclipse.jdt.internal.compiler.ast,org.eclipse.jdt.internal.compiler.parser"
3884,clique,"org.eclipse.jdt.internal.compiler.parser,org.eclipse.jdt.internal.compiler,org.eclipse.jdt.internal.compiler.problem,org.eclipse.jdt.internal.compiler.parser"
3885,clique,"org.apache.jasper.servlet,org.apache.jasper,org.apache.jasper.compiler,org.apache.jasper.servlet"
3957,chain,"org.apache.catalina.tribes.membership,org.apache.catalina.tribes.io,org.apache.catalina.tribes.util"
3958,star,"org.apache.catalina.tribes.membership,org.apache.catalina.tribes.util,org.apache.catalina.tribes,org.apache.catalina.tribes.group"
3959,star,"org.apache.el.lang,org.apache.el.parser,org.apache.el.util,org.apache.el"
3960,chain,"org.apache.jasper.compiler,org.apache.jasper.xmlparser,org.apache.jasper,org.apache.jasper.servlet"
3961,star,"org.eclipse.jdt.internal.compiler.codegen,org.eclipse.jdt.internal.compiler.impl,org.eclipse.jdt.internal.compiler.util,org.eclipse.jdt.internal.compiler.lookup"
3962,chain,"org.eclipse.jdt.internal.compiler.flow,org.eclipse.jdt.internal.compiler.ast,org.eclipse.jdt.internal.compiler.parser,org.eclipse.jdt.internal.compiler,org.eclipse.jdt.internal.compiler.problem"
3963,star,"org.eclipse.jdt.internal.compiler.parser.diagnose,org.eclipse.jdt.core.compiler,org.eclipse.jdt.internal.compiler.parser,org.eclipse.jdt.internal.compiler"
3964,chain,"org.apache.catalina,org.apache.catalina.valves,org.apache.catalina.core"
3965,chain,"org.apache.catalina.tribes.group.interceptors,org.apache.catalina.tribes.util,org.apache.catalina.tribes.group"
