IdCycle,CycleType,ElementList
4921,circle,"org.apache.catalina.core.ApplicationDispatcher,org.apache.catalina.core.ApplicationContext,org.apache.catalina.core.StandardWrapperFacade,org.apache.catalina.core.StandardWrapper,org.apache.catalina.core.ApplicationDispatcher"
4922,circle,"org.apache.catalina.realm.MemoryUserRule,org.apache.catalina.realm.MemoryRuleSet,org.apache.catalina.realm.MemoryRealm,org.apache.catalina.realm.MemoryUserRule"
4923,circle,"org.apache.tomcat.util.bcel.classfile.ConstantCP,org.apache.tomcat.util.bcel.classfile.ConstantFieldref,org.apache.tomcat.util.bcel.classfile.Constant,org.apache.tomcat.util.bcel.classfile.ConstantCP"
4924,circle,"org.apache.tomcat.util.bcel.classfile.Annotations,org.apache.tomcat.util.bcel.classfile.RuntimeVisibleAnnotations,org.apache.tomcat.util.bcel.classfile.Attribute,org.apache.tomcat.util.bcel.classfile.Annotations"
4925,circle,"org.apache.tomcat.util.bcel.classfile.ParameterAnnotations,org.apache.tomcat.util.bcel.classfile.RuntimeVisibleParameterAnnotations,org.apache.tomcat.util.bcel.classfile.Attribute,org.apache.tomcat.util.bcel.classfile.ParameterAnnotations"
4926,circle,"org.apache.catalina.startup.TaglibUriRule,org.apache.catalina.startup.TldRuleSet,org.apache.catalina.startup.TldConfig,org.apache.catalina.startup.TaglibUriRule"
4927,circle,"org.apache.catalina.startup.TaglibListenerRule,org.apache.catalina.startup.TldRuleSet,org.apache.catalina.startup.TldConfig,org.apache.catalina.startup.TaglibListenerRule"
4928,circle,"org.eclipse.jdt.internal.compiler.lookup.ParameterizedMethodBinding$1,org.eclipse.jdt.internal.compiler.lookup.ParameterizedMethodBinding,org.eclipse.jdt.internal.compiler.lookup.ParameterizedTypeBinding,org.eclipse.jdt.internal.compiler.lookup.ParameterizedMethodBinding$1"
4929,circle,"org.apache.jasper.compiler.TextOptimizer$TextCatVisitor,org.apache.jasper.compiler.TextOptimizer,org.apache.jasper.compiler.Compiler,org.apache.jasper.compiler.TextOptimizer$TextCatVisitor"
4930,circle,"org.apache.catalina.ssi.ExpressionParseTree$CompareNode,org.apache.catalina.ssi.ExpressionParseTree$EqualNode,org.apache.catalina.ssi.ExpressionParseTree,org.apache.catalina.ssi.ExpressionParseTree$CompareNode"
4931,circle,"org.apache.tomcat.jdbc.pool.DataSourceProxy,org.apache.tomcat.jdbc.pool.DataSource,org.apache.tomcat.jdbc.pool.DataSourceFactory,org.apache.tomcat.jdbc.pool.DataSourceProxy"
4932,clique,"org.apache.tomcat.util.http.fileupload.FileUploadBase$FileItemIteratorImpl$FileItemStreamImpl,org.apache.tomcat.util.http.fileupload.FileUploadBase$FileItemIteratorImpl,org.apache.tomcat.util.http.fileupload.FileUploadBase,org.apache.tomcat.util.http.fileupload.FileUploadBase$FileItemIteratorImpl$FileItemStreamImpl"
4933,clique,"org.eclipse.jdt.internal.compiler.lookup.TypeVariableBinding,org.eclipse.jdt.internal.compiler.lookup.ReferenceBinding,org.eclipse.jdt.internal.compiler.lookup.TypeBinding,org.eclipse.jdt.internal.compiler.lookup.TypeVariableBinding"
4934,clique,"org.eclipse.jdt.internal.compiler.lookup.TypeVariableBinding,org.eclipse.jdt.internal.compiler.lookup.ReferenceBinding,org.eclipse.jdt.internal.compiler.lookup.TypeBinding,org.eclipse.jdt.internal.compiler.lookup.Scope,org.eclipse.jdt.internal.compiler.lookup.TypeVariableBinding"
4935,clique,"org.eclipse.jdt.internal.compiler.parser.RecoveredMethod,org.eclipse.jdt.internal.compiler.parser.RecoveredBlock,org.eclipse.jdt.internal.compiler.parser.RecoveredElement,org.eclipse.jdt.internal.compiler.parser.RecoveredMethod"
4936,clique,"org.eclipse.jdt.internal.compiler.lookup.ReferenceBinding,org.eclipse.jdt.internal.compiler.lookup.TypeBinding,org.eclipse.jdt.internal.compiler.lookup.Scope,org.eclipse.jdt.internal.compiler.lookup.ReferenceBinding"
4937,clique,"org.apache.jasper.servlet.JspServletWrapper,org.apache.jasper.compiler.JspRuntimeContext,org.apache.jasper.JspCompilationContext,org.apache.jasper.servlet.JspServletWrapper"
4939,chain,"org.apache.catalina.connector.ResponseFacade,org.apache.catalina.connector.Response$2,org.apache.catalina.connector.Response"
4940,star,"org.apache.catalina.connector.CometEventImpl,org.apache.catalina.connector.Connector,org.apache.catalina.core.AsyncContextImpl,org.apache.catalina.connector.Request$3,org.apache.catalina.connector.Request$2,org.apache.catalina.connector.Request,org.apache.catalina.connector.RequestFacade,org.apache.catalina.connector.Request$5"
4941,chain,"org.apache.tomcat.util.http.NamesEnumerator,org.apache.tomcat.util.http.ValuesEnumerator,org.apache.tomcat.util.http.MimeHeaders"
4942,star,"org.apache.tomcat.util.bcel.classfile.Unknown,org.apache.tomcat.util.bcel.classfile.SourceFile,org.apache.tomcat.util.bcel.classfile.Code,org.apache.tomcat.util.bcel.classfile.ExceptionTable,org.apache.tomcat.util.bcel.classfile.Attribute,org.apache.tomcat.util.bcel.classfile.LineNumberTable,org.apache.tomcat.util.bcel.classfile.InnerClasses,org.apache.tomcat.util.bcel.classfile.Synthetic,org.apache.tomcat.util.bcel.classfile.ConstantValue,org.apache.tomcat.util.bcel.classfile.Deprecated,org.apache.tomcat.util.bcel.classfile.Signature,org.apache.tomcat.util.bcel.classfile.StackMap,org.apache.tomcat.util.bcel.classfile.PMGClass,org.apache.tomcat.util.bcel.classfile.AnnotationDefault,org.apache.tomcat.util.bcel.classfile.LocalVariableTypeTable,org.apache.tomcat.util.bcel.classfile.EnclosingMethod,org.apache.tomcat.util.bcel.classfile.StackMapTable"
4943,star,"org.apache.tomcat.util.digester.SetNextRule,org.apache.tomcat.util.digester.CallMethodRule,org.apache.tomcat.util.digester.Digester,org.apache.tomcat.util.digester.CallParamRule,org.apache.tomcat.util.digester.ObjectParamRule,org.apache.tomcat.util.digester.FactoryCreateRule,org.apache.tomcat.util.digester.ObjectCreateRule,org.apache.tomcat.util.digester.SetRootRule,org.apache.tomcat.util.digester.SetPropertiesRule,org.apache.tomcat.util.digester.PathCallParamRule,org.apache.tomcat.util.digester.SetPropertyRule,org.apache.tomcat.util.digester.SetTopRule"
4944,star,"org.eclipse.jdt.internal.compiler.util.Util,org.eclipse.jdt.internal.compiler.batch.Main,org.eclipse.jdt.internal.compiler.batch.Main$5,org.eclipse.jdt.internal.compiler.batch.Main$Logger,org.eclipse.jdt.internal.compiler.batch.Main$3"
4945,chain,"org.apache.catalina.core.ApplicationDispatcher,org.apache.catalina.core.ApplicationDispatcher$PrivilegedInclude,org.apache.catalina.core.ApplicationDispatcher$PrivilegedForward"
4946,star,"org.apache.catalina.ha.session.DeltaRequest,org.apache.catalina.ha.session.BackupManager,org.apache.catalina.ha.session.DeltaManager,org.apache.catalina.ha.session.DeltaSession"
4947,star,"org.apache.tomcat.util.bcel.classfile.ArrayElementValue,org.apache.tomcat.util.bcel.classfile.ElementValue,org.apache.tomcat.util.bcel.classfile.EnumElementValue,org.apache.tomcat.util.bcel.classfile.SimpleElementValue,org.apache.tomcat.util.bcel.classfile.ClassElementValue,org.apache.tomcat.util.bcel.classfile.AnnotationElementValue,org.apache.tomcat.util.bcel.classfile.AnnotationEntry"
4948,chain,"org.apache.catalina.filters.ExpiresFilter$XPrintWriter,org.apache.catalina.filters.ExpiresFilter$XServletOutputStream,org.apache.catalina.filters.ExpiresFilter$XHttpServletResponse"
4949,chain,"org.apache.tomcat.jdbc.pool.PoolProperties$InterceptorDefinition,org.apache.tomcat.jdbc.pool.PoolProperties$InterceptorProperty,org.apache.tomcat.jdbc.pool.PoolProperties"
4950,chain,"org.apache.catalina.tribes.membership.MemberImpl,org.apache.catalina.tribes.UniqueId,org.apache.catalina.tribes.util.Arrays"
4951,chain,"org.apache.catalina.core.StandardServer,org.apache.catalina.startup.Catalina$CatalinaShutdownHook,org.apache.catalina.startup.Catalina,org.apache.catalina.core.NamingContextListener"
4952,star,"org.apache.juli.ClassLoaderLogManager$2,org.apache.juli.ClassLoaderLogManager$Cleaner,org.apache.juli.ClassLoaderLogManager,org.apache.juli.ClassLoaderLogManager$LogNode"
4953,star,"org.eclipse.jdt.internal.compiler.apt.dispatch.HookedJavaFileObject$ForwardingOutputStream,org.eclipse.jdt.internal.compiler.apt.dispatch.HookedJavaFileObject$ForwardingWriter,org.eclipse.jdt.internal.compiler.apt.dispatch.BatchFilerImpl,org.eclipse.jdt.internal.compiler.apt.dispatch.HookedJavaFileObject"
4954,star,"org.apache.jasper.runtime.JspFactoryImpl$PrivilegedGetPageContext,org.apache.jasper.runtime.JspFactoryImpl$PrivilegedReleasePageContext,org.apache.jasper.runtime.JspFactoryImpl$PageContextPool,org.apache.jasper.runtime.JspFactoryImpl"
4955,star,"org.eclipse.jdt.internal.compiler.lookup.ReferenceBinding,org.eclipse.jdt.internal.compiler.lookup.TypeBinding,org.eclipse.jdt.internal.compiler.lookup.TypeVariableBinding,org.eclipse.jdt.internal.compiler.lookup.ReferenceBinding$1,org.eclipse.jdt.internal.compiler.lookup.ReferenceBinding$2,org.eclipse.jdt.internal.compiler.lookup.ReferenceBinding$3"
4956,star,"org.eclipse.jdt.internal.compiler.lookup.BaseTypeBinding,org.eclipse.jdt.internal.compiler.lookup.ReferenceBinding,org.eclipse.jdt.internal.compiler.lookup.TypeBinding,org.eclipse.jdt.internal.compiler.lookup.Scope"
4957,star,"org.apache.jasper.runtime.PageContextImpl$10,org.apache.jasper.runtime.PageContextImpl$12,org.apache.jasper.runtime.JspRuntimeLibrary,org.apache.jasper.runtime.PageContextImpl$1,org.apache.jasper.runtime.PageContextImpl$2,org.apache.jasper.runtime.PageContextImpl$3,org.apache.jasper.runtime.PageContextImpl$4,org.apache.jasper.runtime.PageContextImpl$5,org.apache.jasper.runtime.PageContextImpl$6,org.apache.jasper.runtime.PageContextImpl$7,org.apache.jasper.runtime.PageContextImpl,org.apache.jasper.runtime.PageContextImpl$8,org.apache.jasper.runtime.PageContextImpl$9,org.apache.jasper.runtime.PageContextImpl$11"
4958,star,"org.eclipse.jdt.internal.compiler.lookup.BlockScope,org.eclipse.jdt.internal.compiler.lookup.TypeBinding,org.eclipse.jdt.internal.compiler.lookup.Scope,org.eclipse.jdt.internal.compiler.lookup.Scope$2"
4959,chain,"org.eclipse.jdt.internal.compiler.ast.Clinit,org.eclipse.jdt.internal.compiler.lookup.SourceTypeBinding,org.eclipse.jdt.internal.compiler.ast.TypeDeclaration,org.eclipse.jdt.internal.compiler.ast.CompilationUnitDeclaration"
4960,star,"org.eclipse.jdt.internal.compiler.ClassFile,org.eclipse.jdt.internal.compiler.util.Util,org.eclipse.jdt.internal.compiler.batch.Main,org.eclipse.jdt.internal.compiler.batch.FileSystem"
4961,star,"org.apache.tomcat.util.net.AprEndpoint$Sendfile,org.apache.tomcat.util.net.AprEndpoint$AsyncTimeout,org.apache.tomcat.util.net.AprEndpoint$Poller,org.apache.tomcat.util.net.AprEndpoint$SocketWithOptionsProcessor,org.apache.tomcat.util.net.AprEndpoint$SocketEventProcessor,org.apache.tomcat.util.net.AprEndpoint$SocketProcessor,org.apache.tomcat.util.net.AprEndpoint,org.apache.tomcat.util.net.AprEndpoint$Acceptor"
4962,star,"javax.el.ExpressionFactory$2,javax.el.ExpressionFactory,javax.el.ExpressionFactory$3,javax.el.ExpressionFactory$4"
4963,chain,"org.apache.tomcat.dbcp.dbcp.DelegatingDatabaseMetaData,org.apache.tomcat.dbcp.dbcp.DelegatingResultSet,org.apache.tomcat.dbcp.dbcp.DelegatingConnection,org.apache.tomcat.dbcp.dbcp.DelegatingStatement"
4964,star,"org.apache.catalina.core.StandardWrapper,org.apache.catalina.startup.TldConfig,org.apache.catalina.core.StandardContextValve,org.apache.catalina.core.StandardContext,org.apache.catalina.loader.WebappLoader"
4965,star,"org.apache.catalina.connector.Connector,org.apache.catalina.valves.ValveBase,org.apache.catalina.mbeans.MBeanUtils,org.apache.catalina.deploy.NamingResources"
4966,star,"javax.servlet.jsp.el.ImplicitObjectELResolver$ScopeManager$2,javax.servlet.jsp.el.ImplicitObjectELResolver$ScopeManager$3,javax.servlet.jsp.el.ImplicitObjectELResolver$ScopeManager$4,javax.servlet.jsp.el.ImplicitObjectELResolver$ScopeManager$5,javax.servlet.jsp.el.ImplicitObjectELResolver$ScopeManager$6,javax.servlet.jsp.el.ImplicitObjectELResolver$ScopeManager$7,javax.servlet.jsp.el.ImplicitObjectELResolver$ScopeManager$8,javax.servlet.jsp.el.ImplicitObjectELResolver$ScopeManager$9,javax.servlet.jsp.el.ImplicitObjectELResolver$ScopeManager$10,javax.servlet.jsp.el.ImplicitObjectELResolver$ScopeManager,javax.servlet.jsp.el.ImplicitObjectELResolver$ScopeManager$1"
4967,chain,"org.apache.tomcat.dbcp.pool.impl.GenericKeyedObjectPool$Evictor,org.apache.tomcat.dbcp.pool.impl.GenericKeyedObjectPool$ObjectQueue,org.apache.tomcat.dbcp.pool.impl.GenericKeyedObjectPool"
4968,chain,"org.apache.tomcat.dbcp.pool.impl.CursorableLinkedList,org.apache.tomcat.dbcp.pool.impl.CursorableSubList,org.apache.tomcat.dbcp.pool.impl.CursorableLinkedList$Cursor"
4969,chain,"org.apache.tomcat.dbcp.pool.PoolUtils,org.apache.tomcat.dbcp.pool.PoolUtils$ObjectPoolAdaptor,org.apache.tomcat.dbcp.pool.PoolUtils$KeyedObjectPoolAdaptor"
4970,chain,"org.apache.jasper.compiler.Node$NamedAttribute,org.apache.jasper.compiler.Node$Comment,org.apache.jasper.compiler.Node"
4971,chain,"org.apache.tomcat.util.threads.TaskQueue,org.apache.tomcat.util.threads.ThreadPoolExecutor,org.apache.tomcat.util.threads.ThreadPoolExecutor$1"
4972,star,"org.apache.catalina.valves.ExtendedAccessLogValve$RequestAttributeElement,org.apache.catalina.valves.ExtendedAccessLogValve$RequestHeaderElement,org.apache.catalina.valves.ExtendedAccessLogValve,org.apache.catalina.valves.ExtendedAccessLogValve$5,org.apache.catalina.valves.ExtendedAccessLogValve$6,org.apache.catalina.valves.ExtendedAccessLogValve$9,org.apache.catalina.valves.ExtendedAccessLogValve$SessionAttributeElement,org.apache.catalina.valves.ExtendedAccessLogValve$12,org.apache.catalina.valves.ExtendedAccessLogValve$ResponseAllHeaderElement,org.apache.catalina.valves.ExtendedAccessLogValve$RequestParameterElement,org.apache.catalina.valves.ExtendedAccessLogValve$ResponseHeaderElement,org.apache.catalina.valves.ExtendedAccessLogValve$10,org.apache.catalina.valves.ExtendedAccessLogValve$11,org.apache.catalina.valves.ExtendedAccessLogValve$CookieElement,org.apache.catalina.valves.ExtendedAccessLogValve$14,org.apache.catalina.valves.ExtendedAccessLogValve$4,org.apache.catalina.valves.ExtendedAccessLogValve$ServletContextElement,org.apache.catalina.valves.ExtendedAccessLogValve$7,org.apache.catalina.valves.ExtendedAccessLogValve$8"
4973,star,"org.apache.catalina.tribes.membership.McastServiceImpl$ReceiverThread,org.apache.catalina.tribes.membership.McastServiceImpl$SenderThread,org.apache.catalina.tribes.membership.McastServiceImpl$3,org.apache.catalina.tribes.membership.McastService,org.apache.catalina.tribes.membership.McastServiceImpl"
4974,chain,"org.apache.tomcat.jdbc.pool.interceptor.AbstractQueryReport$StatementProxy,org.apache.tomcat.jdbc.pool.interceptor.SlowQueryReport,org.apache.tomcat.jdbc.pool.interceptor.AbstractQueryReport"
4975,chain,"org.apache.tomcat.jdbc.pool.ConnectionPool,org.apache.tomcat.jdbc.pool.interceptor.ConnectionState,org.apache.tomcat.jdbc.pool.PooledConnection"
4976,chain,"org.apache.naming.resources.WARDirContext,org.apache.naming.resources.BaseDirContext,org.apache.naming.resources.FileDirContext"
4977,chain,"org.apache.coyote.Request,org.apache.coyote.RequestInfo,org.apache.coyote.RequestGroupInfo"
4978,star,"org.apache.catalina.connector.CoyoteAdapter,org.apache.catalina.connector.MapperListener,org.apache.catalina.connector.Connector,org.apache.catalina.mbeans.MBeanUtils,org.apache.catalina.connector.Request"
4979,chain,"org.apache.catalina.core.AsyncContextImpl$1,org.apache.catalina.core.AsyncContextImpl,org.apache.catalina.connector.Request"
4980,star,"org.eclipse.jdt.internal.compiler.parser.RecoveredInitializer,org.eclipse.jdt.internal.compiler.parser.RecoveredMethod,org.eclipse.jdt.internal.compiler.parser.RecoveredField,org.eclipse.jdt.internal.compiler.parser.RecoveredType"
4981,chain,"org.eclipse.jdt.internal.compiler.codegen.CodeStream,org.eclipse.jdt.internal.compiler.lookup.ArrayBinding,org.eclipse.jdt.internal.compiler.lookup.FieldBinding,org.eclipse.jdt.internal.compiler.ast.FieldDeclaration"
4982,star,"org.apache.catalina.tribes.transport.nio.NioReplicationTask$1,org.apache.catalina.tribes.transport.nio.NioReplicationTask$2,org.apache.catalina.tribes.transport.nio.NioReplicationTask,org.apache.catalina.tribes.transport.nio.NioReceiver"
4983,chain,"org.apache.catalina.valves.AccessLogValve$DateAndTimeElement,org.apache.catalina.valves.AccessLogValve$1,org.apache.catalina.valves.AccessLogValve"
4984,star,"org.apache.tomcat.util.net.NioBlockingSelector$BlockPoller$2,org.apache.tomcat.util.net.NioBlockingSelector$BlockPoller$3,org.apache.tomcat.util.net.NioBlockingSelector,org.apache.tomcat.util.net.NioBlockingSelector$BlockPoller"
4985,chain,"org.apache.tomcat.util.net.NioBlockingSelector,org.apache.tomcat.util.net.NioBlockingSelector$KeyReference,org.apache.tomcat.util.net.NioBlockingSelector$BlockPoller"
4986,star,"org.apache.catalina.users.MemoryGroup,org.apache.catalina.users.MemoryRoleCreationFactory,org.apache.catalina.users.MemoryUserDatabase,org.apache.catalina.users.MemoryGroupCreationFactory,org.apache.catalina.users.MemoryUserCreationFactory"
4987,star,"org.apache.el.lang.ELArithmetic$LongDelegate,org.apache.el.lang.ELArithmetic,org.apache.el.lang.ELArithmetic$DoubleDelegate,org.apache.el.lang.ELArithmetic$BigDecimalDelegate,org.apache.el.lang.ELArithmetic$BigIntegerDelegate"
4988,chain,"org.apache.jasper.compiler.JDTCompiler,org.apache.jasper.compiler.JDTCompiler$1,org.apache.jasper.compiler.JDTCompiler$2"
4989,star,"org.apache.jasper.compiler.ParserController,org.apache.jasper.compiler.JspDocumentParser,org.apache.jasper.compiler.Parser,org.apache.jasper.compiler.Compiler"
4990,chain,"org.apache.jasper.runtime.ProtectedFunctionMapper$1,org.apache.jasper.runtime.ProtectedFunctionMapper$3,org.apache.jasper.runtime.ProtectedFunctionMapper"
4991,chain,"org.eclipse.jdt.internal.compiler.ast.TypeReference,org.eclipse.jdt.internal.compiler.ast.SingleTypeReference,org.eclipse.jdt.internal.compiler.ast.ArrayTypeReference"
4992,chain,"org.apache.catalina.startup.Tomcat$DefaultWebXmlListener,org.apache.catalina.startup.Tomcat$1,org.apache.catalina.startup.Tomcat"
4993,chain,"org.apache.catalina.core.StandardWrapperValve,org.apache.catalina.core.StandardWrapper,org.apache.catalina.core.StandardContext"
4994,star,"org.eclipse.jdt.internal.compiler.parser.diagnose.DiagnoseParser,org.eclipse.jdt.internal.compiler.parser.Parser$1$MethodVisitor,org.eclipse.jdt.internal.compiler.parser.Parser,org.eclipse.jdt.internal.compiler.parser.JavadocParser"
4995,star,"org.apache.tomcat.jdbc.pool.ConnectionPool,org.apache.tomcat.jdbc.pool.ConnectionPool$ConnectionFuture,org.apache.tomcat.jdbc.pool.ProxyConnection,org.apache.tomcat.jdbc.pool.ConnectionPool$PoolCleaner,org.apache.tomcat.jdbc.pool.PooledConnection"
4996,chain,"org.apache.catalina.ha.backend.HeartbeatListener,org.apache.catalina.ha.backend.MultiCastSender,org.apache.catalina.ha.backend.TcpSender"
4997,star,"org.apache.catalina.startup.HostConfig$DeployDescriptor,org.apache.catalina.startup.HostConfig,org.apache.catalina.startup.HostConfig$DeployDirectory,org.apache.catalina.startup.HostConfig$DeployWar"
4998,chain,"org.eclipse.jdt.internal.compiler.flow.FlowInfo,org.eclipse.jdt.internal.compiler.flow.UnconditionalFlowInfo,org.eclipse.jdt.internal.compiler.flow.ConditionalFlowInfo"
4999,chain,"org.apache.tomcat.util.net.NioEndpoint$PollerEvent,org.apache.tomcat.util.net.NioEndpoint$Poller,org.apache.tomcat.util.net.NioChannel"
5000,chain,"org.apache.tomcat.util.buf.ByteChunk,org.apache.tomcat.util.buf.StringCache,org.apache.tomcat.util.buf.CharChunk"
5001,chain,"org.apache.catalina.startup.TldConfig$TldJarScannerCallback,org.apache.catalina.startup.TldConfig,org.apache.catalina.core.StandardContext"
5002,chain,"org.apache.el.ValueExpressionImpl,org.apache.el.MethodExpressionImpl,org.apache.el.lang.ExpressionBuilder"
5003,star,"org.apache.jasper.compiler.ParserController,org.apache.jasper.JspCompilationContext,org.apache.jasper.compiler.Compiler,org.apache.jasper.compiler.Validator,org.apache.jasper.compiler.Collector"
5004,chain,"org.eclipse.jdt.internal.compiler.ClassFile,org.eclipse.jdt.internal.compiler.util.Util,org.eclipse.jdt.internal.compiler.ClassFilePool"
5005,star,"org.eclipse.jdt.internal.compiler.impl.BooleanConstant,org.eclipse.jdt.internal.compiler.impl.CharConstant,org.eclipse.jdt.internal.compiler.impl.ByteConstant,org.eclipse.jdt.internal.compiler.impl.ShortConstant,org.eclipse.jdt.internal.compiler.impl.LongConstant,org.eclipse.jdt.internal.compiler.impl.IntConstant,org.eclipse.jdt.internal.compiler.impl.FloatConstant,org.eclipse.jdt.internal.compiler.impl.DoubleConstant,org.eclipse.jdt.internal.compiler.impl.Constant,org.eclipse.jdt.internal.compiler.impl.StringConstant"
5006,chain,"org.eclipse.jdt.internal.compiler.parser.RecoveredBlock,org.eclipse.jdt.internal.compiler.parser.RecoveredMethod,org.eclipse.jdt.internal.compiler.parser.RecoveredElement,org.eclipse.jdt.internal.compiler.parser.RecoveredType"
5007,chain,"org.apache.catalina.authenticator.DigestAuthenticator$1,org.apache.catalina.authenticator.DigestAuthenticator,org.apache.catalina.authenticator.DigestAuthenticator$DigestInfo"
5008,chain,"org.apache.catalina.tribes.io.ChannelData,org.apache.catalina.tribes.io.BufferPool,org.apache.catalina.tribes.io.XByteBuffer"
5009,chain,"org.apache.jasper.compiler.JspRuntimeContext,org.apache.jasper.JspCompilationContext,org.apache.jasper.servlet.JspServletWrapper,org.apache.jasper.compiler.Compiler"
5010,star,"org.apache.tomcat.util.bcel.classfile.ConstantLong,org.apache.tomcat.util.bcel.classfile.ConstantInteger,org.apache.tomcat.util.bcel.classfile.ConstantNameAndType,org.apache.tomcat.util.bcel.classfile.Constant$1,org.apache.tomcat.util.bcel.classfile.ConstantUtf8,org.apache.tomcat.util.bcel.classfile.ConstantString,org.apache.tomcat.util.bcel.classfile.ConstantClass,org.apache.tomcat.util.bcel.classfile.Constant,org.apache.tomcat.util.bcel.classfile.ConstantDouble,org.apache.tomcat.util.bcel.classfile.ConstantFloat"
5011,chain,"org.apache.tomcat.util.http.fileupload.FileUploadBase,org.apache.tomcat.util.http.fileupload.FileUploadBase$FileItemIteratorImpl,org.apache.tomcat.util.http.fileupload.FileUploadBase$FileItemIteratorImpl$FileItemStreamImpl$1,org.apache.tomcat.util.http.fileupload.FileUploadBase$FileItemIteratorImpl$FileItemStreamImpl"
5012,chain,"org.apache.jasper.compiler.Validator$ValidateVisitor,org.apache.jasper.compiler.Validator$ValidateVisitor$1FVVisitor,org.apache.jasper.compiler.Validator$ValidateVisitor$1MapperELVisitor"
5013,chain,"org.apache.catalina.core.ContainerBase$ContainerBackgroundProcessor,org.apache.catalina.core.ContainerBase$PrivilegedAddChild,org.apache.catalina.core.ContainerBase"
5014,chain,"org.apache.catalina.session.StandardManager$PrivilegedDoLoad,org.apache.catalina.session.StandardManager,org.apache.catalina.session.StandardManager$PrivilegedDoUnload"
5015,star,"org.apache.jasper.compiler.Generator$GenerateVisitor$1ParamVisitor,org.apache.jasper.compiler.Generator,org.apache.jasper.compiler.Generator$GenerateVisitor$2ParamVisitor,org.apache.jasper.compiler.Generator$GenerateVisitor"
5016,chain,"org.apache.catalina.servlets.CGIServlet$CGIEnvironment,org.apache.catalina.servlets.CGIServlet$CGIRunner,org.apache.catalina.servlets.CGIServlet,org.apache.catalina.servlets.CGIServlet$CGIRunner$1"
5017,star,"org.apache.tomcat.util.net.JIoEndpoint$SocketProcessor,org.apache.tomcat.util.net.JIoEndpoint,org.apache.tomcat.util.net.JIoEndpoint$AsyncTimeout,org.apache.tomcat.util.net.JIoEndpoint$Acceptor"
5018,chain,"org.apache.jasper.runtime.PageContextImpl,org.apache.jasper.runtime.JspRuntimeLibrary,org.apache.jasper.runtime.JspRuntimeLibrary$PrivilegedIntrospectHelper"
5019,chain,"org.eclipse.jdt.internal.compiler.apt.model.TypesImpl,org.eclipse.jdt.internal.compiler.apt.dispatch.BaseProcessingEnvImpl,org.eclipse.jdt.internal.compiler.apt.model.ElementsImpl"
5020,star,"org.eclipse.jdt.internal.compiler.apt.model.ErrorTypeImpl,org.eclipse.jdt.internal.compiler.apt.model.WildcardTypeImpl,org.eclipse.jdt.internal.compiler.apt.model.AnnotationMirrorImpl,org.eclipse.jdt.internal.compiler.apt.model.TypeParameterElementImpl,org.eclipse.jdt.internal.compiler.apt.model.ErrorTypeElement,org.eclipse.jdt.internal.compiler.apt.model.PackageElementImpl,org.eclipse.jdt.internal.compiler.apt.model.ExecutableTypeImpl,org.eclipse.jdt.internal.compiler.apt.model.DeclaredTypeImpl,org.eclipse.jdt.internal.compiler.apt.model.Factory,org.eclipse.jdt.internal.compiler.apt.model.ArrayTypeImpl,org.eclipse.jdt.internal.compiler.apt.model.TypeVariableImpl"
5021,chain,"org.apache.catalina.ha.tcp.ReplicationValve,org.apache.catalina.ha.session.DeltaManager,org.apache.catalina.ha.session.DeltaSession"
5022,chain,"org.eclipse.jdt.internal.compiler.tool.EclipseCompilerImpl$3,org.eclipse.jdt.internal.compiler.tool.EclipseCompilerImpl$3$1,org.eclipse.jdt.internal.compiler.tool.EclipseCompilerImpl$3$2"
5023,chain,"org.eclipse.jdt.internal.compiler.ast.StringLiteral,org.eclipse.jdt.internal.compiler.ast.ExtendedStringLiteral,org.eclipse.jdt.internal.compiler.ast.StringLiteralConcatenation"
5024,star,"org.apache.jasper.compiler.Generator$1DeclarationVisitor,org.apache.jasper.compiler.Generator,org.apache.jasper.compiler.JspUtil,org.apache.jasper.compiler.Generator$GenerateVisitor,org.apache.jasper.compiler.Generator$FragmentHelperClass,org.apache.jasper.compiler.Generator$1ScriptingVarVisitor"
5025,chain,"org.apache.catalina.core.ApplicationFilterChain$1,org.apache.catalina.core.ApplicationFilterChain,org.apache.catalina.core.ApplicationFilterChain$2"
5026,chain,"org.apache.jasper.compiler.Mark,org.apache.jasper.compiler.JspReader,org.apache.jasper.compiler.Mark$IncludeState"
