Class,FanIn,FanOut,Total Dependences
org.apache.catalina.connector.Request,96,97,193
org.eclipse.jdt.internal.compiler.lookup.Scope,73,60,133
org.eclipse.jdt.internal.compiler.lookup.SourceTypeBinding,45,47,92
org.eclipse.jdt.internal.compiler.util.Util,50,41,91
org.eclipse.jdt.internal.compiler.problem.ProblemReporter,124,90,214
org.eclipse.jdt.internal.compiler.codegen.CodeStream,68,42,110
org.apache.tomcat.util.digester.Digester,63,44,107
