UnstableDependenciesPackage,InstabilityUnstableDependenciesPackage,CorrelatedPackage,InstabilityCorrelatedPackage
org.apache.catalina.ha.jmx,0.9444444444444444,org.apache.catalina.ha.session,0.9625
org.apache.catalina.ha.jmx,0.9444444444444444,org.apache.catalina.ha.deploy,0.972972972972973
org.apache.catalina.ha.jmx,0.9444444444444444,org.apache.catalina.ha.authenticator,0.95
org.apache.catalina.ha.jmx,0.9444444444444444,org.apache.catalina.ha.tcp,0.9642857142857143
org.eclipse.jdt.core.compiler,0.064,org.eclipse.jdt.internal.compiler.parser,0.9155844155844156
org.eclipse.jdt.internal.compiler.lookup,0.3333333333333333,org.eclipse.jdt.internal.compiler.ast,0.656934306569343
org.eclipse.jdt.internal.compiler.lookup,0.3333333333333333,org.eclipse.jdt.internal.compiler.util,0.48148148148148145
org.eclipse.jdt.internal.compiler.lookup,0.3333333333333333,org.eclipse.jdt.internal.compiler.problem,0.3978494623655914
org.eclipse.jdt.internal.compiler.lookup,0.3333333333333333,org.eclipse.jdt.internal.compiler,0.45754716981132076
org.eclipse.jdt.internal.compiler.lookup,0.3333333333333333,org.eclipse.jdt.internal.compiler.codegen,0.3904761904761905
org.eclipse.jdt.internal.compiler.codegen,0.3904761904761905,org.eclipse.jdt.internal.compiler.classfmt,0.8076923076923077
org.eclipse.jdt.internal.compiler.codegen,0.3904761904761905,org.eclipse.jdt.internal.compiler.util,0.48148148148148145
org.eclipse.jdt.internal.compiler.codegen,0.3904761904761905,org.eclipse.jdt.internal.compiler,0.45754716981132076
org.eclipse.jdt.internal.compiler.codegen,0.3904761904761905,org.eclipse.jdt.internal.compiler.ast,0.656934306569343
org.eclipse.jdt.internal.compiler.codegen,0.3904761904761905,org.eclipse.jdt.internal.compiler.problem,0.3978494623655914
org.eclipse.jdt.internal.compiler.flow,0.3125,org.eclipse.jdt.internal.compiler.codegen,0.3904761904761905
org.eclipse.jdt.internal.compiler.flow,0.3125,org.eclipse.jdt.internal.compiler.ast,0.656934306569343
org.eclipse.jdt.internal.compiler.flow,0.3125,org.eclipse.jdt.internal.compiler.lookup,0.3333333333333333
org.eclipse.jdt.internal.compiler.flow,0.3125,org.eclipse.jdt.internal.compiler.problem,0.3978494623655914
org.eclipse.jdt.internal.compiler.problem,0.3978494623655914,org.eclipse.jdt.internal.compiler.util,0.48148148148148145
org.eclipse.jdt.internal.compiler.problem,0.3978494623655914,org.eclipse.jdt.internal.compiler,0.45754716981132076
org.eclipse.jdt.internal.compiler.problem,0.3978494623655914,org.eclipse.jdt.internal.compiler.ast,0.656934306569343
org.eclipse.jdt.internal.compiler.problem,0.3978494623655914,org.eclipse.jdt.internal.compiler.parser,0.9155844155844156
javax.servlet.jsp,0.14705882352941177,javax.servlet,0.19548872180451127
org.eclipse.jdt.internal.compiler,0.45754716981132076,org.eclipse.jdt.internal.compiler.parser,0.9155844155844156
org.eclipse.jdt.internal.compiler,0.45754716981132076,org.eclipse.jdt.internal.compiler.ast,0.656934306569343
org.eclipse.jdt.internal.compiler,0.45754716981132076,org.eclipse.jdt.internal.compiler.util,0.48148148148148145
org.eclipse.jdt.internal.compiler,0.45754716981132076,org.eclipse.jdt.core,0.967741935483871
org.eclipse.jdt.internal.compiler,0.45754716981132076,org.eclipse.jdt.internal.compiler.classfmt,0.8076923076923077
org.apache.catalina.mbeans,0.8842105263157894,org.apache.coyote.ajp,0.9814814814814815
org.apache.catalina.mbeans,0.8842105263157894,org.apache.coyote.http11,0.9038461538461539
org.apache.catalina.mbeans,0.8842105263157894,org.apache.catalina.core,0.9120521172638436
org.apache.catalina.mbeans,0.8842105263157894,org.apache.catalina.startup,0.9512195121951219
org.apache.catalina.mbeans,0.8842105263157894,org.apache.catalina.session,0.925531914893617
org.apache.catalina.mbeans,0.8842105263157894,org.apache.catalina.authenticator,0.9545454545454546
org.apache.catalina.mbeans,0.8842105263157894,org.apache.catalina.loader,0.94
org.apache.catalina.mbeans,0.8842105263157894,org.apache.catalina.realm,0.9380530973451328
org.eclipse.jdt.internal.compiler.impl,0.20512820512820512,org.eclipse.jdt.internal.compiler.util,0.48148148148148145
org.eclipse.jdt.internal.compiler.impl,0.20512820512820512,org.eclipse.jdt.internal.compiler.problem,0.3978494623655914
org.eclipse.jdt.internal.compiler.impl,0.20512820512820512,org.eclipse.jdt.internal.compiler.ast,0.656934306569343
org.eclipse.jdt.internal.compiler.impl,0.20512820512820512,org.eclipse.jdt.internal.compiler.lookup,0.3333333333333333
