UnstableDependenciesPackage,InstabilityUnstableDependenciesPackage,CorrelatedPackage,InstabilityCorrelatedPackage
org.apache.catalina,0.07784431137724551,javax.servlet,0.1368421052631579
org.apache.catalina,0.07784431137724551,org.apache.catalina.core,0.8913857677902621
org.eclipse.jdt.core.compiler,0.06015037593984962,org.eclipse.jdt.internal.compiler.parser,0.9150326797385621
org.eclipse.jdt.internal.compiler.lookup,0.3333333333333333,org.eclipse.jdt.internal.compiler.problem,0.39267015706806285
org.eclipse.jdt.internal.compiler.lookup,0.3333333333333333,org.eclipse.jdt.internal.compiler.ast,0.6619718309859155
org.eclipse.jdt.internal.compiler.lookup,0.3333333333333333,org.eclipse.jdt.internal.compiler.util,0.4727272727272727
org.eclipse.jdt.internal.compiler.lookup,0.3333333333333333,org.eclipse.jdt.internal.compiler.flow,0.36231884057971014
org.eclipse.jdt.internal.compiler.lookup,0.3333333333333333,org.eclipse.jdt.internal.compiler.codegen,0.39622641509433965
org.eclipse.jdt.internal.compiler.lookup,0.3333333333333333,org.eclipse.jdt.internal.compiler,0.4583333333333333
org.eclipse.jdt.internal.compiler.codegen,0.39622641509433965,org.eclipse.jdt.internal.compiler,0.4583333333333333
org.eclipse.jdt.internal.compiler.codegen,0.39622641509433965,org.eclipse.jdt.internal.compiler.util,0.4727272727272727
org.eclipse.jdt.internal.compiler.codegen,0.39622641509433965,org.eclipse.jdt.internal.compiler.ast,0.6619718309859155
org.eclipse.jdt.internal.compiler.codegen,0.39622641509433965,org.eclipse.jdt.internal.compiler.classfmt,0.8076923076923077
org.apache.coyote,0.24390243902439024,org.apache.tomcat.util.http,0.6056338028169014
org.apache.coyote,0.24390243902439024,org.apache.tomcat.util.buf,0.3548387096774194
org.apache.coyote,0.24390243902439024,org.apache.tomcat.util.net,0.811965811965812
org.eclipse.jdt.internal.compiler.flow,0.36231884057971014,org.eclipse.jdt.internal.compiler.ast,0.6619718309859155
org.eclipse.jdt.internal.compiler.flow,0.36231884057971014,org.eclipse.jdt.internal.compiler.codegen,0.39622641509433965
org.eclipse.jdt.internal.compiler.flow,0.36231884057971014,org.eclipse.jdt.internal.compiler.problem,0.39267015706806285
org.eclipse.jdt.internal.compiler.problem,0.39267015706806285,org.eclipse.jdt.internal.compiler.util,0.4727272727272727
org.eclipse.jdt.internal.compiler.problem,0.39267015706806285,org.eclipse.jdt.internal.compiler,0.4583333333333333
org.eclipse.jdt.internal.compiler.problem,0.39267015706806285,org.eclipse.jdt.internal.compiler.parser,0.9150326797385621
org.eclipse.jdt.internal.compiler.problem,0.39267015706806285,org.eclipse.jdt.internal.compiler.ast,0.6619718309859155
org.eclipse.jdt.internal.compiler,0.4583333333333333,org.eclipse.jdt.internal.compiler.ast,0.6619718309859155
org.eclipse.jdt.internal.compiler,0.4583333333333333,org.eclipse.jdt.internal.compiler.util,0.4727272727272727
org.eclipse.jdt.internal.compiler,0.4583333333333333,org.eclipse.jdt.internal.compiler.parser,0.9150326797385621
org.eclipse.jdt.internal.compiler,0.4583333333333333,org.eclipse.jdt.internal.compiler.classfmt,0.8076923076923077
org.eclipse.jdt.internal.compiler,0.4583333333333333,org.eclipse.jdt.core,0.967741935483871
org.eclipse.jdt.internal.compiler.impl,0.20512820512820512,org.eclipse.jdt.internal.compiler.problem,0.39267015706806285
org.eclipse.jdt.internal.compiler.impl,0.20512820512820512,org.eclipse.jdt.internal.compiler.lookup,0.3333333333333333
org.eclipse.jdt.internal.compiler.impl,0.20512820512820512,org.eclipse.jdt.internal.compiler.util,0.4727272727272727
org.eclipse.jdt.internal.compiler.impl,0.20512820512820512,org.eclipse.jdt.internal.compiler.ast,0.6619718309859155
