IdCycle,CycleType,ElementList
5106,clique,"org.eclipse.jdt.internal.compiler.impl,org.eclipse.jdt.internal.compiler.problem,org.eclipse.jdt.internal.compiler.lookup,org.eclipse.jdt.internal.compiler.impl"
5107,clique,"org.eclipse.jdt.internal.compiler.lookup,org.eclipse.jdt.internal.compiler.util,org.eclipse.jdt.internal.compiler,org.eclipse.jdt.internal.compiler.lookup"
5108,clique,"org.apache.jasper.servlet,org.apache.jasper,org.apache.jasper.compiler,org.apache.jasper.servlet"
5203,chain,"org.apache.catalina.startup,org.apache.catalina.authenticator,org.apache.catalina.security"
5204,chain,"org.apache.catalina.tribes.util,org.apache.catalina.tribes,org.apache.catalina.tribes.group,org.apache.catalina.tribes.group.interceptors"
5205,chain,"org.apache.el.util,org.apache.el,org.apache.el.lang"
5206,chain,"org.apache.jasper.xmlparser,org.apache.jasper,org.apache.jasper.servlet,org.apache.jasper.compiler"
5207,chain,"org.eclipse.jdt.internal.compiler.problem,org.eclipse.jdt.internal.compiler.impl,org.eclipse.jdt.internal.compiler.util,org.eclipse.jdt.internal.compiler.lookup"
5208,star,"org.eclipse.jdt.internal.compiler.batch,org.eclipse.jdt.internal.compiler,org.eclipse.jdt.internal.compiler.util,org.eclipse.jdt.internal.compiler.lookup"
5209,chain,"org.eclipse.jdt.internal.compiler.ast,org.eclipse.jdt.internal.compiler.codegen,org.eclipse.jdt.internal.compiler.flow"
5210,chain,"org.eclipse.jdt.internal.compiler,org.eclipse.jdt.internal.compiler.parser,org.eclipse.jdt.internal.compiler.util"
5211,star,"org.eclipse.jdt.internal.compiler,org.eclipse.jdt.internal.compiler.parser,org.eclipse.jdt.core.compiler,org.eclipse.jdt.internal.compiler.parser.diagnose"
5212,chain,"org.apache.tomcat.jdbc.pool.jmx,org.apache.tomcat.jdbc.pool.interceptor,org.apache.tomcat.jdbc.pool"
