Cve ID,#AS in affected versions,#AS in NOT affected versions
CVE-2016-8745,0.8436482084690556,0.15635179153094467
CVE-2016-8735,0.9478827361563521,0.05211726384364822
CVE-2016-6816,0.9478827361563521,0.05211726384364822
CVE-2016-6797,0.8892508143322478,0.11074918566775248
CVE-2016-6796,0.8892508143322478,0.11074918566775248
CVE-2016-6794,0.8892508143322478,0.11074918566775248
CVE-2016-5018,0.8892508143322478,0.11074918566775248
CVE-2016-0762,0.8892508143322478,0.11074918566775248
CVE-2015-5174,0.7263843648208471,0.27361563517915316
CVE-2015-5345,0.7654723127035833,0.23452768729641701
CVE-2016-0706,0.7719869706840393,0.22801302931596099
CVE-2016-0714,0.7719869706840393,0.22801302931596099
CVE-2014-0230,0.5732899022801304,0.42671009771986984
CVE-2014-7810,0.6254071661237787,0.3745928338762216
CVE-2014-0227,0.5602605863192184,0.4397394136807819
CVE-2014-0075,0.5211726384364822,0.4788273615635181
CVE-2014-0096,0.5211726384364822,0.4788273615635181
CVE-2014-0099,0.5211726384364822,0.4788273615635181
CVE-2014-0119,0.5342019543973943,0.465798045602606
CVE-2013-1571,0.29641693811074926,0.703583061889251
CVE-2013-4286,0.47557003257329006,0.5244299674267102
CVE-2013-4322,0.4820846905537461,0.5179153094462542
CVE-2013-4590,0.4820846905537461,0.5179153094462542
CVE-2014-0033,0.04560260586319218,0.9543973941368081
CVE-2013-2067,0.23452768729641701,0.7654723127035833
CVE-2012-3544,0.4006514657980457,0.5993485342019546
CVE-2012-2733,0.3745928338762216,0.6254071661237787
CVE-2012-3439,0.38762214983713367,0.6123778501628666
CVE-2012-3546,0.38762214983713367,0.6123778501628666
CVE-2012-4431,0.1628664495114007,0.8371335504885996
CVE-2012-4534,0.3745928338762216,0.6254071661237787
CVE-2011-3375,0.09771986970684042,0.9022801302931599
CVE-2011-3190,0.3224755700325734,0.6775244299674269
CVE-2012-0022,0.33550488599348544,0.6644951140065148
CVE-2011-1184,0.2768729641693812,0.7231270358306191
CVE-2011-2204,0.2996742671009773,0.700325732899023
CVE-2011-2526,0.2996742671009773,0.700325732899023
CVE-2011-2729,0.0749185667752443,0.925081433224756
CVE-2011-0534,0.24755700325732907,0.7524429967426712
CVE-2011-0013,0.231270358306189,0.7687296416938113
CVE-2010-4172,0.11400651465798048,0.8859934853420198
CVE-2010-3718,0.231270358306189,0.7687296416938113
CVE-2010-2227,0.20521172638436488,0.7947882736156354
CVE-2010-1157,0.20521172638436488,0.7947882736156354
CVE-2009-2901,0.17915309446254077,0.8208469055374595
CVE-2009-2902,0.17915309446254077,0.8208469055374595
CVE-2009-3548,0.17915309446254077,0.8208469055374595
CVE-2008-5515,0.1661237785016287,0.8338762214983716
CVE-2009-0033,0.1661237785016287,0.8338762214983716
CVE-2009-0580,0.1661237785016287,0.8338762214983716
CVE-2009-0781,0.1661237785016287,0.8338762214983716
CVE-2009-0783,0.1661237785016287,0.8338762214983716
CVE-2008-1232,0.15309446254071665,0.8469055374592837
CVE-2008-1947,0.15309446254071665,0.8469055374592837
CVE-2008-2370,0.15309446254071665,0.8469055374592837
CVE-2007-5333,0.1433224755700326,0.8566775244299677
CVE-2007-5342,0.1433224755700326,0.8566775244299677
CVE-2007-5461,0.1433224755700326,0.8566775244299677
CVE-2007-6286,0.1433224755700326,0.8566775244299677
CVE-2008-0002,0.09120521172638438,0.9087947882736159
CVE-2007-2449,0.13029315960912055,0.8697068403908798
CVE-2007-2450,0.13029315960912055,0.8697068403908798
CVE-2007-3382,0.13029315960912055,0.8697068403908798
CVE-2007-3385,0.13029315960912055,0.8697068403908798
CVE-2007-3386,0.13029315960912055,0.8697068403908798
CVE-2007-1355,0.1172638436482085,0.8827361563517918
CVE-2005-2090,0.1172638436482085,0.8827361563517918
CVE-2007-0450,0.10423452768729644,0.8957654723127039
CVE-2008-0128,0.09120521172638438,0.9087947882736159
CVE-2007-1358,0.05211726384364821,0.9478827361563521
CVE-2012-5568,0,1.0000000000000002
CVE-2010-4476,0.24755700325732907,0.7524429967426712
CVE-2016-3092,0.4885993485342021,0.5114006514657982
CVE-2015-5351,0.4234527687296418,0.5765472312703585
CVE-2016-0763,0.4234527687296418,0.5765472312703585
CVE-2015-5346,0.4169381107491858,0.5830618892508145
CVE-2014-0050,0.19869706840390886,0.8013029315960915
CVE-2013-2071,0.15960912052117268,0.8403908794788276
CVE-2013-4444,0.15960912052117268,0.8403908794788276
CVE-2011-3376,0.06840390879478828,0.931596091205212
CVE-2011-2481,0.048859934853420196,0.9511400651465801
CVE-2011-1582,0.006514657980456026,0.9934853420195443
CVE-2011-1475,0.026058631921824105,0.9739413680781762
CVE-2011-1183,0.006514657980456026,0.9934853420195443
CVE-2011-1088,0.01954397394136808,0.9804560260586322
CVE-2016-6817,0.09120521172638439,0.9087947882736159
CVE-2014-0095,0.013029315960912053,0.9869706840390883
